2017-01-03 02:06:38	삭제	matis:[메]	[298177784]+10나이트발드의 양손검
2017-01-03 02:07:01	삭제	matis:[메]	[298145715]+10나이트발드의 양손검
2017-01-03 02:07:01	삭제	matis:[메]	[298177789]+10나이트발드의 양손검
2017-01-03 02:07:21	삭제	matis:[메]	[298177800]+10나이트발드의 양손검
