2016-11-25 08:36:49	접속 캐릭=미소피아	계정=mbcznvx1	IP=127.0.0.1
2016-11-25 08:36:50	접속 캐릭=메티스	계정=mbcznvx	IP=127.0.0.1
2016-11-25 08:42:23	접속 캐릭=미소피아	계정=mbcznvx1	IP=127.0.0.1
2016-11-25 08:42:25	접속 캐릭=메티스	계정=mbcznvx	IP=127.0.0.1
2016-11-25 08:44:43	접속 캐릭=미소피아	계정=mbcznvx1	IP=127.0.0.1
2016-11-25 08:44:44	접속 캐릭=메티스	계정=mbcznvx	IP=127.0.0.1
2016-11-25 08:50:17	접속 캐릭=미소피아	계정=mbcznvx1	IP=127.0.0.1
2016-11-25 08:50:22	접속 캐릭=메티스	계정=mbcznvx	IP=127.0.0.1
2016-11-25 08:56:11	접속 캐릭=미소피아	계정=mbcznvx1	IP=127.0.0.1
2016-11-25 08:56:12	접속 캐릭=메티스	계정=mbcznvx	IP=127.0.0.1
2016-11-25 09:38:55	접속 캐릭=미소피아	계정=mbcznvx1	IP=127.0.0.1
2016-11-25 09:38:56	접속 캐릭=메티스	계정=mbcznvx	IP=127.0.0.1
2016-11-25 09:41:39	접속 캐릭=미소피아	계정=mbcznvx1	IP=127.0.0.1
2016-11-25 09:41:41	접속 캐릭=메티스	계정=mbcznvx	IP=127.0.0.1
2016-11-25 09:51:21	접속 캐릭=방버	계정=mbcznvx1	IP=127.0.0.1
2016-11-25 09:51:22	접속 캐릭=메티스	계정=mbcznvx	IP=127.0.0.1
2016-11-25 09:52:53	종료 캐릭=방버 계정=mbcznvx1 IP=127.0.0.1
2016-11-25 11:30:16	접속 캐릭=전사다	계정=mbcznvx1	IP=127.0.0.1
2016-11-25 11:30:17	접속 캐릭=메티스	계정=mbcznvx	IP=127.0.0.1
2016-11-25 11:33:15	종료 캐릭=전사다 계정=mbcznvx1 IP=127.0.0.1
2016-11-25 11:34:57	접속 캐릭=전사다	계정=mbcznvx1	IP=127.0.0.1
2016-11-25 11:35:51	접속 캐릭=메티스	계정=mbcznvx	IP=127.0.0.1
2016-11-25 11:39:35	접속 캐릭=전사다	계정=mbcznvx1	IP=127.0.0.1
2016-11-25 11:39:35	접속 캐릭=메티스	계정=mbcznvx	IP=127.0.0.1
2016-11-25 16:54:51	접속 캐릭=전사다	계정=mbcznvx1	IP=127.0.0.1
2016-11-25 16:54:52	접속 캐릭=메티스	계정=mbcznvx	IP=127.0.0.1
2016-11-25 16:58:21	접속 캐릭=전사다	계정=mbcznvx1	IP=127.0.0.1
2016-11-25 16:58:23	접속 캐릭=메티스	계정=mbcznvx	IP=127.0.0.1
2016-11-25 17:01:18	접속 캐릭=전사다	계정=mbcznvx1	IP=127.0.0.1
2016-11-25 17:01:19	접속 캐릭=메티스	계정=mbcznvx	IP=127.0.0.1
2016-11-25 17:04:21	접속 캐릭=전사다	계정=mbcznvx1	IP=127.0.0.1
2016-11-25 17:04:23	접속 캐릭=메티스	계정=mbcznvx	IP=127.0.0.1
2016-11-25 17:08:29	접속 캐릭=전사다	계정=mbcznvx1	IP=127.0.0.1
2016-11-25 17:08:30	접속 캐릭=메티스	계정=mbcznvx	IP=127.0.0.1
2016-11-25 17:18:00	접속 캐릭=메티스	계정=mbcznvx	IP=127.0.0.1
2016-11-25 17:18:01	접속 캐릭=전사다	계정=mbcznvx1	IP=127.0.0.1
2016-11-25 17:21:18	접속 캐릭=전사다	계정=mbcznvx1	IP=127.0.0.1
2016-11-25 17:21:20	접속 캐릭=메티스	계정=mbcznvx	IP=127.0.0.1
2016-11-25 17:23:44	접속 캐릭=전사다	계정=mbcznvx1	IP=127.0.0.1
2016-11-25 17:23:44	접속 캐릭=메티스	계정=mbcznvx	IP=127.0.0.1
2016-11-25 17:25:37	접속 캐릭=전사다	계정=mbcznvx1	IP=127.0.0.1
2016-11-25 17:25:38	접속 캐릭=메티스	계정=mbcznvx	IP=127.0.0.1
