2017-01-15 23:46:29	줍기	tkdgh12:[한나]	[905801851]아데나(18050)
2017-01-15 23:46:38	줍기	tkdgh12:[한나]	[905800333]오만의 탑 \aG[1층]\aA 이동 주문서(1)
2017-01-15 23:46:59	줍기	tkdgh12:[한나]	[905801442]오만의 탑 \aG[1층]\aA 이동 주문서(1)
2017-01-15 23:47:38	줍기	tkdgh12:[한나]	[905800428]영혼의 벨트
2017-01-15 23:47:44	줍기	tkdgh12:[한나]	[905799323]아데나(24650)
2017-01-15 23:49:03	줍기	tkdgh12:[한나]	[905803000]아데나(15650)
2017-01-15 23:49:13	줍기	tkdgh12:[한나]	[905803045]아데나(22500)
