2016-10-05 02:21:03	줍기	thsekaql123:[너는경험치]	[268859989]속도향상 물약(1)
2016-10-05 02:21:04	줍기	thsekaql123:[너는경험치]	[268860004]순간이동 주문서(1)
2016-10-05 02:23:48	줍기	thsekaql123:[너는경험치]	[268860128]마나 회복 물약(1)
2016-10-05 02:26:14	증발	thsekaql123:너는경험치	[268860129]에메랄드(1)
2016-10-05 02:33:50	줍기	thsekaql123:[너는경험치]	[268859946]아데나(3950)
2016-10-05 02:35:33	줍기	thsekaql123:[너는경험치]	[268859931]속도향상 물약(1)
2016-10-05 02:38:26	삭제	thsekaql123:[너는경험치]	[268860728]+110화염의 활
2016-10-05 02:39:19	줍기	thsekaql123:[너는경험치]	[268859871]속도향상 물약(1)
2016-10-05 02:39:45	버리기	xotqj11:[메티스]	[268860737]쑥송편(500)
2016-10-05 02:39:48	줍기	thsekaql123:[너는경험치]	[268860737]쑥송편(500)
2016-10-05 02:40:07	버리기	xotqj11:[메티스]	[268860751]쑥송편(2000)
2016-10-05 02:40:08	줍기	thsekaql123:[너는경험치]	[268860751]쑥송편(2000)
2016-10-05 02:43:10	줍기	thsekaql123:[너는경험치]	[268860722]순간이동 주문서(1)
2016-10-05 02:43:21	줍기	thsekaql123:[너는경험치]	[268860711]속도향상 물약(1)
2016-10-05 02:44:13	줍기	thsekaql123:[너는경험치]	[268860695]아데나(3800)
2016-10-05 02:45:18	줍기	thsekaql123:[너는경험치]	[268860666]아데나(4350)
2016-10-05 02:45:47	줍기	thsekaql123:[너는경험치]	[268860879]아데나(5200)
2016-10-05 02:46:43	줍기	thsekaql123:[너는경험치]	[268859949]아데나(5300)
2016-10-05 02:46:43	줍기	thsekaql123:[너는경험치]	[268859935]아데나(4200)
2016-10-05 02:56:42	줍기	thsekaql123:[너는경험치]	[268909827]순간이동 주문서(1)
2016-10-05 02:59:44	줍기	thsekaql123:[너는경험치]	[268909911]아데나(3850)
2016-10-05 03:21:49	버리기	xotqj11:[메티스]	[268910735]환상의 오만의 탑 지배 부적(1)
2016-10-05 03:34:48	줍기	thsekaql123:[너는경험치]	[268935329]오만의 탑 \aG[1층]\aA 이동 주문서(1)
2016-10-05 03:36:08	줍기	thsekaql123:[너는경험치]	[268935345]오만의 탑 \aG[1층]\aA 이동 주문서(1)
2016-10-05 03:36:20	줍기	thsekaql123:[너는경험치]	[268935355]순간이동 주문서(1)
2016-10-05 04:40:26	줍기	xotqj11:[메티스]	[268984587]오만의 탑 \aG[9층]\aA 이동 주문서(1)
2016-10-05 22:45:49	삭제	gha1402:[단결]	[269177796]정령의 수정 (텔레포트 투 마더)(0)
2016-10-05 22:49:30	줍기	wjsdlf:[테르]	[269177841]마법 망토
2016-10-05 22:53:04	줍기	wjsdlf:[테르]	[269177871]마법 망토
2016-10-05 22:54:08	줍기	wjsdlf:[테르]	[269177885]기운을 잃은 파괴의 장궁(1)
2016-10-05 22:55:23	버리기	xotqj11:[메티스]	[268643432]아데나(500000000)
2016-10-05 22:55:24	줍기	wjsdlf:[테르]	[269177892]아데나(500000000)
2016-10-05 22:55:27	버리기	xotqj11:[메티스]	[268643432]아데나(500000000)
2016-10-05 22:55:28	줍기	gha1402:[단결]	[269177893]아데나(500000000)
2016-10-05 23:10:01	줍기	wjsdlf:[테르]	[269178406]장검
2016-10-05 23:10:18	줍기	wjsdlf:[테르]	[269178413]대형 도끼
2016-10-05 23:41:28	삭제	gha1402:[단결]	[269177834]신속 고급 체력 회복제(397)
2016-10-05 23:42:29	삭제	gha1402:[단결]	[269177746]블랙 미스릴 화살(276)
2016-10-05 23:48:14	삭제	wjsdlf:[테르]	[269179061]키메라의 가죽 (사자)(0)
2016-10-05 23:48:14	삭제	wjsdlf:[테르]	[269179060]키메라의 가죽 (산양)(0)
2016-10-05 23:48:14	삭제	wjsdlf:[테르]	[269178413]대형 도끼
2016-10-05 23:50:46	버리기	xotqj11:[메티스]	[268643432]아데나(281865532)
2016-10-05 23:51:05	버리기	xotqj11:[메티스]	[269179226]아데나(500000000)
2016-10-05 23:51:08	버리기	xotqj11:[메티스]	[269179226]아데나(500000000)
2016-10-05 23:51:13	버리기	xotqj11:[메티스]	[269179226]아데나(500000000)
2016-10-05 23:51:15	줍기	gkfndi:[봄]	[269179226]아데나(500000000)
2016-10-05 23:54:28	삭제	gha1402:[단결]	[269179274]마법서 (홀리 워크)(0)
