2017-03-26 21:30:58	kobongsu:[데스나이트]	실패	[905755692]+9포효의 이도류
2017-03-26 21:30:58	kobongsu:[데스나이트]	실패	[905756949]+9포효의 이도류
2017-03-26 21:30:59	kobongsu:[데스나이트]	실패	[905758047]+9포효의 이도류
2017-03-26 21:31:00	kobongsu:[데스나이트]	성공	[905759027]+10포효의 이도류
2017-03-26 21:31:01	kobongsu:[데스나이트]	성공	[905759828]+10포효의 이도류
2017-03-26 21:31:02	kobongsu:[데스나이트]	성공	[905760575]+10포효의 이도류
2017-03-26 21:31:02	kobongsu:[데스나이트]	실패	[905765801]+9포효의 이도류
2017-03-26 21:31:03	kobongsu:[데스나이트]	실패	[905766503]+9포효의 이도류
2017-03-26 21:31:04	kobongsu:[데스나이트]	성공	[905768095]+10포효의 이도류
2017-03-26 21:31:05	kobongsu:[데스나이트]	실패	[905769157]+9포효의 이도류
2017-03-26 21:31:05	kobongsu:[데스나이트]	성공	[905769908]+10포효의 이도류
2017-03-26 21:31:06	kobongsu:[데스나이트]	실패	[905770692]+9포효의 이도류
2017-03-26 21:31:07	kobongsu:[데스나이트]	실패	[905771884]+9포효의 이도류
2017-03-26 21:31:07	kobongsu:[데스나이트]	실패	[905772515]+9포효의 이도류
2017-03-26 21:31:08	kobongsu:[데스나이트]	실패	[905773324]+9포효의 이도류
2017-03-26 21:31:09	kobongsu:[데스나이트]	성공	[905774344]+10포효의 이도류
2017-03-26 21:31:09	kobongsu:[데스나이트]	성공	[905774961]+10포효의 이도류
2017-03-26 21:31:10	kobongsu:[데스나이트]	성공	[905775339]+10포효의 이도류
2017-03-26 21:31:12	kobongsu:[데스나이트]	실패	[905759027]+10포효의 이도류
2017-03-26 21:31:13	kobongsu:[데스나이트]	실패	[905759828]+10포효의 이도류
2017-03-26 21:31:13	kobongsu:[데스나이트]	실패	[905760575]+10포효의 이도류
2017-03-26 21:31:14	kobongsu:[데스나이트]	실패	[905768095]+10포효의 이도류
2017-03-26 21:31:15	kobongsu:[데스나이트]	실패	[905769908]+10포효의 이도류
2017-03-26 21:31:16	kobongsu:[데스나이트]	실패	[905774344]+10포효의 이도류
2017-03-26 21:31:17	kobongsu:[데스나이트]	실패	[905775339]+10포효의 이도류
2017-03-26 21:31:27	kobongsu:[데스나이트]	실패	[905755658]+7발라카스의 예지력
2017-03-26 21:31:28	kobongsu:[데스나이트]	실패	[905756894]+7발라카스의 예지력
2017-03-26 21:31:29	kobongsu:[데스나이트]	성공	[905758007]+8발라카스의 예지력
2017-03-26 21:31:29	kobongsu:[데스나이트]	성공	[905758985]+8발라카스의 예지력
2017-03-26 21:31:30	kobongsu:[데스나이트]	실패	[905759799]+7발라카스의 예지력
2017-03-26 21:31:31	kobongsu:[데스나이트]	성공	[905760554]+8발라카스의 예지력
2017-03-26 21:31:32	kobongsu:[데스나이트]	성공	[905766729]+8파푸리온의 인내력
2017-03-26 21:31:32	kobongsu:[데스나이트]	성공	[905768081]+8파푸리온의 인내력
2017-03-26 21:31:33	kobongsu:[데스나이트]	성공	[905769142]+8파푸리온의 인내력
2017-03-26 21:31:33	kobongsu:[데스나이트]	실패	[905769881]+7파푸리온의 인내력
2017-03-26 21:31:34	kobongsu:[데스나이트]	실패	[905770672]+7파푸리온의 인내력
2017-03-26 21:31:35	kobongsu:[데스나이트]	실패	[905771860]+7파푸리온의 인내력
2017-03-26 21:31:36	kobongsu:[데스나이트]	성공	[905772466]+8파푸리온의 인내력
2017-03-26 21:31:37	kobongsu:[데스나이트]	실패	[905773267]+7린드비오르의 인내력
2017-03-26 21:31:37	kobongsu:[데스나이트]	성공	[905774288]+8린드비오르의 인내력
2017-03-26 21:31:38	kobongsu:[데스나이트]	성공	[905774939]+8린드비오르의 인내력
2017-03-26 21:31:41	kobongsu:[데스나이트]	실패	[905775312]+7린드비오르의 인내력
2017-03-26 21:31:45	kobongsu:[데스나이트]	성공	[905758007]+9발라카스의 예지력
2017-03-26 21:31:46	kobongsu:[데스나이트]	성공	[905758985]+9발라카스의 예지력
2017-03-26 21:31:47	kobongsu:[데스나이트]	실패	[905760554]+8발라카스의 예지력
2017-03-26 21:31:48	kobongsu:[데스나이트]	실패	[905766729]+8파푸리온의 인내력
2017-03-26 21:31:49	kobongsu:[데스나이트]	성공	[905768081]+9파푸리온의 인내력
2017-03-26 21:31:50	kobongsu:[데스나이트]	실패	[905769142]+8파푸리온의 인내력
2017-03-26 21:31:50	kobongsu:[데스나이트]	성공	[905772466]+9파푸리온의 인내력
2017-03-26 21:31:52	kobongsu:[데스나이트]	성공	[905774288]+9린드비오르의 인내력
2017-03-26 21:31:53	kobongsu:[데스나이트]	성공	[905774939]+9린드비오르의 인내력
2017-03-26 21:31:57	kobongsu:[데스나이트]	실패	[905758007]+9발라카스의 예지력
2017-03-26 21:31:59	kobongsu:[데스나이트]	실패	[905768081]+9파푸리온의 인내력
2017-03-26 21:32:06	kobongsu:[데스나이트]	실패	[905774288]+9린드비오르의 인내력
2017-03-26 21:32:44	kobongsu:[데스나이트]	실패	[905756036]+7신성한 마법 방어 투구
2017-03-26 21:32:45	kobongsu:[데스나이트]	실패	[905757097]+7신성한 마법 방어 투구
2017-03-26 21:32:45	kobongsu:[데스나이트]	성공	[905758591]+8신성한 마법 방어 투구
2017-03-26 21:32:46	kobongsu:[데스나이트]	실패	[905759111]+7신성한 마법 방어 투구
2017-03-26 21:32:47	kobongsu:[데스나이트]	성공	[905760180]+8신성한 마법 방어 투구
2017-03-26 21:32:48	kobongsu:[데스나이트]	실패	[905760738]+7신성한 마법 방어 투구
2017-03-26 21:32:48	kobongsu:[데스나이트]	실패	[905764134]+7지휘관의 투구
2017-03-26 21:32:49	kobongsu:[데스나이트]	성공	[905766983]+8신성한 마법 방어 투구
2017-03-26 21:32:50	kobongsu:[데스나이트]	실패	[905768255]+7신성한 마법 방어 투구
2017-03-26 21:32:50	kobongsu:[데스나이트]	성공	[905769221]+8신성한 마법 방어 투구
2017-03-26 21:32:51	kobongsu:[데스나이트]	실패	[905770012]+7신성한 마법 방어 투구
2017-03-26 21:32:52	kobongsu:[데스나이트]	성공	[905770768]+8신성한 마법 방어 투구
2017-03-26 21:32:53	kobongsu:[데스나이트]	실패	[905771952]+7신성한 마법 방어 투구
2017-03-26 21:32:53	kobongsu:[데스나이트]	성공	[905772695]+8지휘관의 투구
2017-03-26 21:32:56	kobongsu:[데스나이트]	실패	[905773439]+7지휘관의 투구
2017-03-26 21:33:00	kobongsu:[데스나이트]	성공	[905772695]+9지휘관의 투구
2017-03-26 21:33:03	kobongsu:[데스나이트]	실패	[905758591]+8신성한 마법 방어 투구
2017-03-26 21:33:03	kobongsu:[데스나이트]	실패	[905760180]+8신성한 마법 방어 투구
2017-03-26 21:33:04	kobongsu:[데스나이트]	성공	[905766983]+9신성한 마법 방어 투구
2017-03-26 21:33:05	kobongsu:[데스나이트]	실패	[905769221]+8신성한 마법 방어 투구
2017-03-26 21:33:05	kobongsu:[데스나이트]	실패	[905770768]+8신성한 마법 방어 투구
2017-03-26 21:33:06	kobongsu:[데스나이트]	성공	[905772695]+10지휘관의 투구
2017-03-26 21:33:20	kobongsu:[데스나이트]	성공	[905756055]+8타라스의 장갑
2017-03-26 21:33:21	kobongsu:[데스나이트]	실패	[905757139]+7타라스의 장갑
2017-03-26 21:33:21	kobongsu:[데스나이트]	실패	[905758151]+7타라스의 장갑
2017-03-26 21:33:22	kobongsu:[데스나이트]	실패	[905759200]+7타라스의 장갑
2017-03-26 21:33:22	kobongsu:[데스나이트]	실패	[905759940]+7타라스의 장갑
2017-03-26 21:33:23	kobongsu:[데스나이트]	성공	[905760702]+8타라스의 장갑
2017-03-26 21:33:24	kobongsu:[데스나이트]	성공	[905764224]+8타라스의 장갑
2017-03-26 21:33:25	kobongsu:[데스나이트]	실패	[905767024]+7타라스의 장갑
2017-03-26 21:33:25	kobongsu:[데스나이트]	실패	[905768319]+7타라스의 장갑
2017-03-26 21:33:26	kobongsu:[데스나이트]	실패	[905769263]+7타라스의 장갑
2017-03-26 21:33:27	kobongsu:[데스나이트]	성공	[905770052]+8타라스의 장갑
2017-03-26 21:33:28	kobongsu:[데스나이트]	성공	[905770817]+8타라스의 장갑
2017-03-26 21:33:54	kobongsu:[데스나이트]	실패	[905772023]+7타라스의 장갑
2017-03-26 21:33:55	kobongsu:[데스나이트]	실패	[905772581]+7타라스의 장갑
2017-03-26 21:33:55	kobongsu:[데스나이트]	실패	[905773465]+7타라스의 장갑
2017-03-26 21:34:07	kobongsu:[데스나이트]	실패	[905756170]+7타락의 부츠
2017-03-26 21:34:08	kobongsu:[데스나이트]	실패	[905757257]+7타락의 부츠
2017-03-26 21:34:09	kobongsu:[데스나이트]	실패	[905758201]+7타락의 부츠
2017-03-26 21:34:13	kobongsu:[데스나이트]	실패	[905759303]+7타락의 부츠
2017-03-26 21:34:14	kobongsu:[데스나이트]	실패	[905760028]+7타락의 부츠
2017-03-26 21:34:15	kobongsu:[데스나이트]	실패	[905760809]+7타락의 부츠
2017-03-26 21:34:15	kobongsu:[데스나이트]	실패	[905764852]+7타락의 부츠
2017-03-26 21:34:16	kobongsu:[데스나이트]	실패	[905767467]+7타락의 부츠
2017-03-26 21:34:18	kobongsu:[데스나이트]	실패	[905768448]+7타락의 부츠
2017-03-26 21:34:19	kobongsu:[데스나이트]	성공	[905770163]+8완력의 부츠
2017-03-26 21:34:28	kobongsu:[데스나이트]	성공	[905770891]+8타라스의 부츠
2017-03-26 21:34:29	kobongsu:[데스나이트]	성공	[905772113]+8타라스의 부츠
2017-03-26 21:34:30	kobongsu:[데스나이트]	성공	[905772721]+8완력의 부츠
2017-03-26 21:34:31	kobongsu:[데스나이트]	성공	[905773558]+8완력의 부츠
2017-03-26 21:34:34	kobongsu:[데스나이트]	성공	[905769325]+8타락의 부츠
2017-03-26 21:34:41	kobongsu:[데스나이트]	실패	[905770163]+8완력의 부츠
2017-03-26 21:34:43	kobongsu:[데스나이트]	성공	[905770891]+9타라스의 부츠
2017-03-26 21:34:44	kobongsu:[데스나이트]	실패	[905772113]+8타라스의 부츠
2017-03-26 21:34:45	kobongsu:[데스나이트]	실패	[905772721]+8완력의 부츠
2017-03-26 21:34:46	kobongsu:[데스나이트]	성공	[905773558]+9완력의 부츠
2017-03-26 21:34:54	kobongsu:[데스나이트]	실패	[905769325]+8타락의 부츠
2017-03-26 21:34:58	kobongsu:[데스나이트]	실패	[905770891]+9타라스의 부츠
2017-03-26 21:35:05	kobongsu:[데스나이트]	성공	[905756055]+9타라스의 장갑
2017-03-26 21:35:07	kobongsu:[데스나이트]	성공	[905760702]+9타라스의 장갑
2017-03-26 21:35:08	kobongsu:[데스나이트]	실패	[905764224]+8타라스의 장갑
2017-03-26 21:35:09	kobongsu:[데스나이트]	성공	[905770052]+9타라스의 장갑
2017-03-26 21:35:10	kobongsu:[데스나이트]	성공	[905770817]+9타라스의 장갑
2017-03-26 21:35:12	kobongsu:[데스나이트]	성공	[905756055]+10타라스의 장갑
2017-03-26 21:35:16	kobongsu:[데스나이트]	실패	[905760702]+9타라스의 장갑
2017-03-26 21:35:19	kobongsu:[데스나이트]	성공	[905770817]+10타라스의 장갑
2017-03-26 21:35:23	kobongsu:[데스나이트]	성공	[905770052]+10타라스의 장갑
2017-03-26 21:35:49	kobongsu:[데스나이트]	성공	[905756055]+11타라스의 장갑
2017-03-26 21:36:58	kobongsu:[데스나이트]	실패	[905770052]+10타라스의 장갑
2017-03-26 21:36:59	kobongsu:[데스나이트]	성공	[905770817]+11타라스의 장갑
2017-03-26 21:37:20	kobongsu:[데스나이트]	성공	[905770817]+12타라스의 장갑
2017-03-26 21:37:26	kobongsu:[데스나이트]	성공	[905756055]+12타라스의 장갑
2017-03-26 21:37:38	kobongsu:[데스나이트]	실패	[905756213]+7거대 여왕 개미의 은빛 날개
2017-03-26 21:37:40	kobongsu:[데스나이트]	성공	[905757298]+8거대 여왕 개미의 은빛 날개
2017-03-26 21:37:41	kobongsu:[데스나이트]	성공	[905758498]+8거대 여왕 개미의 은빛 날개
2017-03-26 21:37:42	kobongsu:[데스나이트]	실패	[905759329]+7거대 여왕 개미의 은빛 날개
2017-03-26 21:37:44	kobongsu:[데스나이트]	성공	[905760065]+8거대 여왕 개미의 은빛 날개
2017-03-26 21:37:45	kobongsu:[데스나이트]	실패	[905760851]+7거대 여왕 개미의 은빛 날개
2017-03-26 21:37:47	kobongsu:[데스나이트]	성공	[905765733]+8거대 여왕 개미의 은빛 날개
2017-03-26 21:37:50	kobongsu:[데스나이트]	실패	[905767509]+7거대 여왕 개미의 은빛 날개
2017-03-26 21:37:53	kobongsu:[데스나이트]	실패	[905768471]+7거대 여왕 개미의 은빛 날개
2017-03-26 21:37:55	kobongsu:[데스나이트]	실패	[905769348]+7거대 여왕 개미의 은빛 날개
2017-03-26 21:37:56	kobongsu:[데스나이트]	실패	[905770220]+7거대 여왕 개미의 은빛 날개
2017-03-26 21:37:58	kobongsu:[데스나이트]	성공	[905770941]+8거대 여왕 개미의 은빛 날개
2017-03-26 21:38:01	kobongsu:[데스나이트]	실패	[905772139]+7거대 여왕 개미의 은빛 날개
2017-03-26 21:38:03	kobongsu:[데스나이트]	성공	[905772779]+8거대 여왕 개미의 은빛 날개
2017-03-26 21:38:05	kobongsu:[데스나이트]	성공	[905773601]+8거대 여왕 개미의 은빛 날개
2017-03-26 21:38:08	kobongsu:[데스나이트]	실패	[905757298]+8거대 여왕 개미의 은빛 날개
2017-03-26 21:38:10	kobongsu:[데스나이트]	성공	[905758498]+9거대 여왕 개미의 은빛 날개
2017-03-26 21:38:14	kobongsu:[데스나이트]	성공	[905760065]+9거대 여왕 개미의 은빛 날개
2017-03-26 21:38:16	kobongsu:[데스나이트]	실패	[905765733]+8거대 여왕 개미의 은빛 날개
2017-03-26 21:38:19	kobongsu:[데스나이트]	성공	[905770941]+9거대 여왕 개미의 은빛 날개
2017-03-26 21:38:21	kobongsu:[데스나이트]	성공	[905772779]+9거대 여왕 개미의 은빛 날개
2017-03-26 21:38:24	kobongsu:[데스나이트]	실패	[905773601]+8거대 여왕 개미의 은빛 날개
2017-03-26 21:38:34	kobongsu:[데스나이트]	성공	[905758498]+10거대 여왕 개미의 은빛 날개
2017-03-26 21:38:39	kobongsu:[데스나이트]	성공	[905760065]+10거대 여왕 개미의 은빛 날개
2017-03-26 21:38:49	kobongsu:[데스나이트]	성공	[905770941]+10거대 여왕 개미의 은빛 날개
2017-03-26 21:38:52	kobongsu:[데스나이트]	성공	[905772779]+10거대 여왕 개미의 은빛 날개
2017-03-26 21:38:54	kobongsu:[데스나이트]	실패	[905758498]+10거대 여왕 개미의 은빛 날개
2017-03-26 21:39:00	kobongsu:[데스나이트]	성공	[905760065]+11거대 여왕 개미의 은빛 날개
2017-03-26 21:39:02	kobongsu:[데스나이트]	실패	[905770941]+10거대 여왕 개미의 은빛 날개
2017-03-26 21:39:06	kobongsu:[데스나이트]	실패	[905772779]+10거대 여왕 개미의 은빛 날개
2017-03-26 21:39:15	kobongsu:[데스나이트]	성공	[905756985]+5체력의 가더
2017-03-26 21:39:18	kobongsu:[데스나이트]	실패	[905758100]+4수호의 가더
2017-03-26 21:39:19	kobongsu:[데스나이트]	실패	[905759067]+4체력의 가더
2017-03-26 21:39:21	kobongsu:[데스나이트]	실패	[905759865]+4체력의 가더
2017-03-26 21:39:23	kobongsu:[데스나이트]	성공	[905760625]+5체력의 가더
2017-03-26 21:39:25	kobongsu:[데스나이트]	실패	[905764090]+4수호의 가더
2017-03-26 21:39:26	kobongsu:[데스나이트]	성공	[905766935]+5수호의 가더
2017-03-26 21:39:27	kobongsu:[데스나이트]	실패	[905768274]+4체력의 가더
2017-03-26 21:39:27	kobongsu:[데스나이트]	성공	[905769193]+5체력의 가더
2017-03-26 21:39:28	kobongsu:[데스나이트]	성공	[905769962]+5체력의 가더
2017-03-26 21:39:29	kobongsu:[데스나이트]	성공	[905770735]+5체력의 가더
2017-03-26 21:39:30	kobongsu:[데스나이트]	실패	[905771926]+4체력의 가더
2017-03-26 21:39:31	kobongsu:[데스나이트]	성공	[905773406]+5체력의 가더
2017-03-26 21:39:32	kobongsu:[데스나이트]	실패	[905772846]+4체력의 가더
2017-03-26 21:46:09	kobongsu:[데스나이트]	성공	[905774961]+11포효의 이도류
2017-03-26 21:46:10	kobongsu:[데스나이트]	실패	[905774961]+11포효의 이도류
2017-03-26 21:46:49	kobongsu:[데스나이트]	실패	[905750329]+9포효의 이도류
2017-03-26 21:46:58	kobongsu:[데스나이트]	실패	[905750880]+7발라카스의 예지력
2017-03-26 21:53:20	kobongsu:[데스나이트]	성공	[905756067]+8유니콘의 완력 각반
2017-03-26 21:53:22	kobongsu:[데스나이트]	실패	[905757185]+7유니콘의 완력 각반
2017-03-26 21:53:23	kobongsu:[데스나이트]	실패	[905758171]+7유니콘의 완력 각반
2017-03-26 21:53:24	kobongsu:[데스나이트]	성공	[905759153]+8유니콘의 완력 각반
2017-03-26 21:53:25	kobongsu:[데스나이트]	성공	[905760100]+8유니콘의 완력 각반
2017-03-26 21:53:25	kobongsu:[데스나이트]	실패	[905760756]+7유니콘의 완력 각반
2017-03-26 21:53:26	kobongsu:[데스나이트]	실패	[905764189]+7유니콘의 완력 각반
2017-03-26 21:53:27	kobongsu:[데스나이트]	성공	[905767445]+8유니콘의 완력 각반
2017-03-26 21:53:28	kobongsu:[데스나이트]	실패	[905768363]+7유니콘의 완력 각반
2017-03-26 21:53:29	kobongsu:[데스나이트]	실패	[905769390]+7유니콘의 완력 각반
2017-03-26 21:53:30	kobongsu:[데스나이트]	실패	[905770106]+7유니콘의 완력 각반
2017-03-26 21:53:32	kobongsu:[데스나이트]	성공	[905770836]+8유니콘의 완력 각반
2017-03-26 21:53:33	kobongsu:[데스나이트]	성공	[905772060]+8유니콘의 완력 각반
2017-03-26 21:53:36	kobongsu:[데스나이트]	실패	[905772602]+7유니콘의 완력 각반
2017-03-26 21:53:38	kobongsu:[데스나이트]	실패	[905773493]+7유니콘의 완력 각반
2017-03-26 21:53:43	kobongsu:[데스나이트]	실패	[905756067]+8유니콘의 완력 각반
2017-03-26 21:53:45	kobongsu:[데스나이트]	실패	[905759153]+8유니콘의 완력 각반
2017-03-26 21:53:46	kobongsu:[데스나이트]	성공	[905760100]+9유니콘의 완력 각반
2017-03-26 21:53:48	kobongsu:[데스나이트]	실패	[905767445]+8유니콘의 완력 각반
2017-03-26 21:53:50	kobongsu:[데스나이트]	실패	[905770836]+8유니콘의 완력 각반
2017-03-26 21:53:52	kobongsu:[데스나이트]	실패	[905772060]+8유니콘의 완력 각반
2017-03-26 21:54:15	kobongsu:[데스나이트]	실패	[905758985]+9발라카스의 예지력
2017-03-26 21:54:18	kobongsu:[데스나이트]	성공	[905772466]+10파푸리온의 인내력
2017-03-26 21:54:23	kobongsu:[데스나이트]	실패	[905774939]+9린드비오르의 인내력
2017-03-26 21:55:35	kobongsu:[데스나이트]	성공	[905788006]+5발라카스의 인내력
2017-03-26 21:55:37	kobongsu:[데스나이트]	실패	[905788006]+5발라카스의 인내력
2017-03-26 21:56:13	jms3206:[토시오]	성공	[905777164]+8유니콘의 완력 각반
2017-03-26 21:56:14	jms3206:[토시오]	성공	[905776617]+8유니콘의 완력 각반
2017-03-26 21:56:15	jms3206:[토시오]	실패	[905776058]+7유니콘의 완력 각반
2017-03-26 21:56:15	jms3206:[토시오]	실패	[905775559]+7유니콘의 완력 각반
2017-03-26 21:56:16	jms3206:[토시오]	실패	[905774812]+7유니콘의 완력 각반
2017-03-26 21:56:16	jms3206:[토시오]	성공	[905753859]+8유니콘의 완력 각반
2017-03-26 21:56:17	jms3206:[토시오]	성공	[905753859]+9유니콘의 완력 각반
2017-03-26 21:56:18	jms3206:[토시오]	성공	[905776617]+9유니콘의 완력 각반
2017-03-26 21:56:19	jms3206:[토시오]	성공	[905777164]+9유니콘의 완력 각반
2017-03-26 21:56:20	jms3206:[토시오]	성공	[905777164]+10유니콘의 완력 각반
2017-03-26 21:56:23	jms3206:[토시오]	실패	[905776617]+9유니콘의 완력 각반
2017-03-26 21:56:24	jms3206:[토시오]	성공	[905753859]+10유니콘의 완력 각반
2017-03-26 21:56:26	jms3206:[토시오]	실패	[905753859]+10유니콘의 완력 각반
2017-03-26 21:56:53	jms3206:[토시오]	성공	[905777311]+8거대 여왕 개미의 금빛 날개
2017-03-26 21:56:54	jms3206:[토시오]	실패	[905777292]+7타라스의 부츠
2017-03-26 21:56:54	jms3206:[토시오]	실패	[905777241]+7타락의 장갑
2017-03-26 21:56:55	jms3206:[토시오]	실패	[905777175]+7지휘관의 투구
2017-03-26 21:56:55	jms3206:[토시오]	실패	[905777093]+7발라카스의 완력
2017-03-26 21:56:55	jms3206:[토시오]	실패	[905776811]+7타라스의 부츠
2017-03-26 21:56:56	jms3206:[토시오]	실패	[905776725]+7거대 여왕 개미의 금빛 날개
2017-03-26 21:56:56	jms3206:[토시오]	성공	[905776579]+8수호성의 파워 글로브
2017-03-26 21:56:56	jms3206:[토시오]	실패	[905776548]+7지휘관의 투구
2017-03-26 21:56:57	jms3206:[토시오]	실패	[905776515]+7발라카스의 완력
2017-03-26 21:56:58	jms3206:[토시오]	실패	[905776146]+7거대 여왕 개미의 금빛 날개
2017-03-26 21:56:58	jms3206:[토시오]	실패	[905776122]+7완력의 부츠
2017-03-26 21:56:58	jms3206:[토시오]	실패	[905776082]+7수호성의 파워 글로브
2017-03-26 21:56:59	jms3206:[토시오]	성공	[905776041]+8지휘관의 투구
2017-03-26 21:56:59	jms3206:[토시오]	성공	[905775976]+8발라카스의 완력
2017-03-26 21:56:59	jms3206:[토시오]	실패	[905775976]+8발라카스의 완력
2017-03-26 21:57:00	jms3206:[토시오]	성공	[905775628]+8완력의 부츠
2017-03-26 21:57:00	jms3206:[토시오]	성공	[905775539]+8수호성의 파워 글로브
2017-03-26 21:57:01	jms3206:[토시오]	실패	[905775503]+7지휘관의 투구
2017-03-26 21:57:01	jms3206:[토시오]	성공	[905775444]+8발라카스의 완력
2017-03-26 21:57:01	jms3206:[토시오]	실패	[905774971]+7거대 여왕 개미의 금빛 날개
2017-03-26 21:57:02	jms3206:[토시오]	성공	[905774893]+8완력의 부츠
2017-03-26 21:57:02	jms3206:[토시오]	실패	[905774773]+7수호성의 파워 글로브
2017-03-26 21:57:02	jms3206:[토시오]	성공	[905774647]+8지휘관의 투구
2017-03-26 21:57:03	jms3206:[토시오]	실패	[905774534]+7발라카스의 완력
2017-03-26 21:57:03	jms3206:[토시오]	실패	[905753921]+7완력의 부츠
2017-03-26 21:57:04	jms3206:[토시오]	실패	[905753818]+7타락의 장갑
2017-03-26 21:57:05	jms3206:[토시오]	실패	[905753989]+7거대 여왕 개미의 금빛 날개
2017-03-26 21:57:05	jms3206:[토시오]	실패	[905753621]+7발라카스의 완력
2017-03-26 21:57:05	jms3206:[토시오]	실패	[905753673]+7지휘관의 투구
2017-03-26 21:57:07	jms3206:[토시오]	성공	[905776579]+9수호성의 파워 글로브
2017-03-26 21:57:08	jms3206:[토시오]	실패	[905775539]+8수호성의 파워 글로브
2017-03-26 21:57:09	jms3206:[토시오]	실패	[905777311]+8거대 여왕 개미의 금빛 날개
2017-03-26 21:57:11	jms3206:[토시오]	성공	[905776041]+9지휘관의 투구
2017-03-26 21:57:12	jms3206:[토시오]	성공	[905774647]+9지휘관의 투구
2017-03-26 21:57:13	jms3206:[토시오]	실패	[905774647]+9지휘관의 투구
2017-03-26 21:57:14	jms3206:[토시오]	성공	[905774893]+9완력의 부츠
2017-03-26 21:57:15	jms3206:[토시오]	성공	[905775628]+9완력의 부츠
2017-03-26 21:57:16	jms3206:[토시오]	성공	[905775628]+10완력의 부츠
2017-03-26 21:57:17	jms3206:[토시오]	실패	[905775628]+10완력의 부츠
2017-03-26 21:57:22	jms3206:[토시오]	성공	[905775659]+8거대 여왕 개미의 금빛 날개
2017-03-26 21:57:24	jms3206:[토시오]	실패	[905775659]+8거대 여왕 개미의 금빛 날개
2017-03-26 21:57:26	jms3206:[토시오]	실패	[905775444]+8발라카스의 완력
2017-03-26 21:57:33	jms3206:[토시오]	성공	[905776579]+10수호성의 파워 글로브
2017-03-26 21:58:08	kobongsu:[데스나이트]	성공	[905788491]+7격분의 장갑
2017-03-26 21:58:15	kobongsu:[데스나이트]	성공	[905789116]+7격분의 장갑
2017-03-26 21:58:15	kobongsu:[데스나이트]	성공	[905789252]+7격분의 장갑
2017-03-26 21:58:27	kobongsu:[데스나이트]	성공	[905788549]+7격분의 장갑
2017-03-26 21:58:28	kobongsu:[데스나이트]	성공	[905788608]+7격분의 장갑
2017-03-26 21:58:29	kobongsu:[데스나이트]	실패	[905788689]+6격분의 장갑
2017-03-26 21:58:30	kobongsu:[데스나이트]	성공	[905788736]+7격분의 장갑
2017-03-26 21:58:31	kobongsu:[데스나이트]	성공	[905788769]+7격분의 장갑
2017-03-26 21:58:32	kobongsu:[데스나이트]	성공	[905788835]+7격분의 장갑
2017-03-26 21:58:33	kobongsu:[데스나이트]	성공	[905788876]+7격분의 장갑
2017-03-26 21:58:36	kobongsu:[데스나이트]	실패	[905788549]+7격분의 장갑
2017-03-26 21:58:36	kobongsu:[데스나이트]	성공	[905788608]+8격분의 장갑
2017-03-26 21:58:37	kobongsu:[데스나이트]	실패	[905788736]+7격분의 장갑
2017-03-26 21:58:38	kobongsu:[데스나이트]	성공	[905788769]+8격분의 장갑
2017-03-26 21:58:40	kobongsu:[데스나이트]	실패	[905788835]+7격분의 장갑
2017-03-26 21:58:40	kobongsu:[데스나이트]	실패	[905788876]+7격분의 장갑
2017-03-26 21:58:41	kobongsu:[데스나이트]	실패	[905788491]+7격분의 장갑
2017-03-26 21:58:42	kobongsu:[데스나이트]	성공	[905789116]+8격분의 장갑
2017-03-26 21:58:43	kobongsu:[데스나이트]	실패	[905789252]+7격분의 장갑
2017-03-26 21:58:45	kobongsu:[데스나이트]	성공	[905788608]+9격분의 장갑
2017-03-26 21:58:45	kobongsu:[데스나이트]	실패	[905788769]+8격분의 장갑
2017-03-26 21:58:46	kobongsu:[데스나이트]	실패	[905789116]+8격분의 장갑
2017-03-26 21:59:10	kobongsu:[데스나이트]	성공	[905788608]+10격분의 장갑
2017-03-26 21:59:24	kobongsu:[데스나이트]	성공	[905788608]+11격분의 장갑
2017-03-26 21:59:27	kobongsu:[데스나이트]	실패	[905788608]+11격분의 장갑
2017-03-26 22:01:46	kobongsu:[데스나이트]	성공	[905753372]+8타라스의 장갑
2017-03-26 22:01:47	kobongsu:[데스나이트]	실패	[905753372]+8타라스의 장갑
2017-03-26 22:02:07	kobongsu:[데스나이트]	성공	[905753428]+8유니콘의 완력 각반
2017-03-26 22:02:07	kobongsu:[데스나이트]	실패	[905753428]+8유니콘의 완력 각반
2017-03-26 22:03:36	kobongsu:[데스나이트]	실패	[905751220]+4수호의 가더
2017-03-26 22:04:47	kobongsu:[데스나이트]	실패	[905753784]+7타락의 부츠
2017-03-26 22:04:59	kobongsu:[데스나이트]	실패	[905754261]+7거대 여왕 개미의 은빛 날개
2017-03-26 22:05:14	kobongsu:[데스나이트]	성공	[905753060]+8신성한 마법 방어 투구
2017-03-26 22:05:15	jms3206:[토시오]	성공	[905792601]+1룸티스의 검은빛 귀걸이
2017-03-26 22:05:15	jms3206:[토시오]	성공	[905792615]+1룸티스의 검은빛 귀걸이
2017-03-26 22:05:16	jms3206:[토시오]	성공	[905792601]+2룸티스의 검은빛 귀걸이
2017-03-26 22:05:16	kobongsu:[데스나이트]	실패	[905753060]+8신성한 마법 방어 투구
2017-03-26 22:05:17	jms3206:[토시오]	성공	[905792615]+2룸티스의 검은빛 귀걸이
2017-03-26 22:05:17	jms3206:[토시오]	성공	[905792601]+3룸티스의 검은빛 귀걸이
2017-03-26 22:05:18	jms3206:[토시오]	성공	[905792615]+3룸티스의 검은빛 귀걸이
2017-03-26 22:05:21	jms3206:[토시오]	성공	[905792591]+1스냅퍼의 용사 반지
2017-03-26 22:05:21	jms3206:[토시오]	성공	[905792591]+2스냅퍼의 용사 반지
2017-03-26 22:05:22	jms3206:[토시오]	성공	[905792591]+3스냅퍼의 용사 반지
2017-03-26 22:05:23	jms3206:[토시오]	성공	[905792594]+1스냅퍼의 용사 반지
2017-03-26 22:05:24	jms3206:[토시오]	성공	[905792594]+2스냅퍼의 용사 반지
2017-03-26 22:05:24	jms3206:[토시오]	성공	[905792594]+3스냅퍼의 용사 반지
2017-03-26 22:06:53	jms3206:[토시오]	성공	[905792601]+4룸티스의 검은빛 귀걸이
2017-03-26 22:06:53	jms3206:[토시오]	성공	[905792601]+5룸티스의 검은빛 귀걸이
2017-03-26 22:06:53	jms3206:[토시오]	성공	[905792615]+4룸티스의 검은빛 귀걸이
2017-03-26 22:06:53	jms3206:[토시오]	성공	[905792615]+5룸티스의 검은빛 귀걸이
2017-03-26 22:06:54	jms3206:[토시오]	성공	[905792601]+6룸티스의 검은빛 귀걸이
2017-03-26 22:06:54	jms3206:[토시오]	실패	[905792601]+6룸티스의 검은빛 귀걸이
2017-03-26 22:06:55	jms3206:[토시오]	실패	[905792615]+5룸티스의 검은빛 귀걸이
2017-03-26 22:07:03	jms3206:[토시오]	실패	[905753478]+5스냅퍼의 용사 반지
2017-03-26 22:07:04	jms3206:[토시오]	실패	[905753493]+5스냅퍼의 용사 반지
2017-03-26 22:07:05	jms3206:[토시오]	성공	[905792591]+4스냅퍼의 용사 반지
2017-03-26 22:07:06	jms3206:[토시오]	성공	[905792594]+4스냅퍼의 용사 반지
2017-03-26 22:07:06	jms3206:[토시오]	실패	[905792594]+4스냅퍼의 용사 반지
2017-03-26 22:07:06	jms3206:[토시오]	실패	[905792591]+4스냅퍼의 용사 반지
2017-03-26 22:07:10	kobongsu:[데스나이트]	성공	[905793626]+1스냅퍼의 체력 반지
2017-03-26 22:07:12	kobongsu:[데스나이트]	성공	[905793626]+2스냅퍼의 체력 반지
2017-03-26 22:07:13	kobongsu:[데스나이트]	성공	[905793626]+3스냅퍼의 체력 반지
2017-03-26 22:07:15	kobongsu:[데스나이트]	성공	[905793631]+1스냅퍼의 체력 반지
2017-03-26 22:07:16	kobongsu:[데스나이트]	성공	[905793631]+2스냅퍼의 체력 반지
2017-03-26 22:07:18	kobongsu:[데스나이트]	성공	[905793631]+3스냅퍼의 체력 반지
2017-03-26 22:08:14	jms3206:[토시오]	성공	[905794029]+1룸티스의 검은빛 귀걸이
2017-03-26 22:08:14	jms3206:[토시오]	성공	[905794037]+1룸티스의 검은빛 귀걸이
2017-03-26 22:08:15	jms3206:[토시오]	성공	[905794040]+1룸티스의 검은빛 귀걸이
2017-03-26 22:08:15	jms3206:[토시오]	성공	[905794042]+1룸티스의 검은빛 귀걸이
2017-03-26 22:08:16	jms3206:[토시오]	성공	[905794045]+1룸티스의 검은빛 귀걸이
2017-03-26 22:08:16	jms3206:[토시오]	성공	[905794049]+1룸티스의 검은빛 귀걸이
2017-03-26 22:08:17	jms3206:[토시오]	성공	[905794058]+1룸티스의 검은빛 귀걸이
2017-03-26 22:08:17	jms3206:[토시오]	성공	[905794060]+1룸티스의 검은빛 귀걸이
2017-03-26 22:08:18	jms3206:[토시오]	성공	[905794067]+1룸티스의 검은빛 귀걸이
2017-03-26 22:08:18	jms3206:[토시오]	성공	[905794062]+1룸티스의 검은빛 귀걸이
2017-03-26 22:08:18	jms3206:[토시오]	성공	[905794067]+2룸티스의 검은빛 귀걸이
2017-03-26 22:08:19	jms3206:[토시오]	성공	[905794062]+2룸티스의 검은빛 귀걸이
2017-03-26 22:08:19	jms3206:[토시오]	성공	[905794045]+2룸티스의 검은빛 귀걸이
2017-03-26 22:08:20	jms3206:[토시오]	성공	[905794049]+2룸티스의 검은빛 귀걸이
2017-03-26 22:08:20	jms3206:[토시오]	성공	[905794058]+2룸티스의 검은빛 귀걸이
2017-03-26 22:08:20	jms3206:[토시오]	성공	[905794060]+2룸티스의 검은빛 귀걸이
2017-03-26 22:08:21	jms3206:[토시오]	성공	[905794042]+2룸티스의 검은빛 귀걸이
2017-03-26 22:08:21	jms3206:[토시오]	성공	[905794040]+2룸티스의 검은빛 귀걸이
2017-03-26 22:08:21	jms3206:[토시오]	성공	[905794037]+2룸티스의 검은빛 귀걸이
2017-03-26 22:08:22	jms3206:[토시오]	성공	[905794029]+2룸티스의 검은빛 귀걸이
2017-03-26 22:08:22	jms3206:[토시오]	성공	[905794067]+3룸티스의 검은빛 귀걸이
2017-03-26 22:08:23	jms3206:[토시오]	성공	[905794062]+3룸티스의 검은빛 귀걸이
2017-03-26 22:08:23	jms3206:[토시오]	성공	[905794060]+3룸티스의 검은빛 귀걸이
2017-03-26 22:08:24	jms3206:[토시오]	성공	[905794058]+3룸티스의 검은빛 귀걸이
2017-03-26 22:08:24	jms3206:[토시오]	성공	[905794049]+3룸티스의 검은빛 귀걸이
2017-03-26 22:08:25	jms3206:[토시오]	실패	[905794045]+2룸티스의 검은빛 귀걸이
2017-03-26 22:08:25	jms3206:[토시오]	실패	[905794042]+2룸티스의 검은빛 귀걸이
2017-03-26 22:08:26	jms3206:[토시오]	성공	[905794040]+3룸티스의 검은빛 귀걸이
2017-03-26 22:08:26	jms3206:[토시오]	성공	[905794037]+3룸티스의 검은빛 귀걸이
2017-03-26 22:08:27	jms3206:[토시오]	성공	[905794029]+3룸티스의 검은빛 귀걸이
2017-03-26 22:08:49	jms3206:[토시오]	성공	[905794014]+1스냅퍼의 용사 반지
2017-03-26 22:08:49	jms3206:[토시오]	성공	[905794011]+1스냅퍼의 용사 반지
2017-03-26 22:08:49	jms3206:[토시오]	성공	[905794009]+1스냅퍼의 용사 반지
2017-03-26 22:08:50	jms3206:[토시오]	성공	[905794006]+1스냅퍼의 용사 반지
2017-03-26 22:08:50	jms3206:[토시오]	성공	[905794000]+1스냅퍼의 용사 반지
2017-03-26 22:08:50	jms3206:[토시오]	성공	[905793997]+1스냅퍼의 용사 반지
2017-03-26 22:08:51	jms3206:[토시오]	성공	[905793986]+1스냅퍼의 용사 반지
2017-03-26 22:08:51	jms3206:[토시오]	성공	[905793982]+1스냅퍼의 용사 반지
2017-03-26 22:08:52	jms3206:[토시오]	성공	[905793973]+1스냅퍼의 용사 반지
2017-03-26 22:08:52	jms3206:[토시오]	성공	[905793969]+1스냅퍼의 용사 반지
2017-03-26 22:08:53	jms3206:[토시오]	성공	[905794014]+2스냅퍼의 용사 반지
2017-03-26 22:08:53	jms3206:[토시오]	성공	[905794011]+2스냅퍼의 용사 반지
2017-03-26 22:08:53	jms3206:[토시오]	성공	[905794009]+2스냅퍼의 용사 반지
2017-03-26 22:08:54	jms3206:[토시오]	성공	[905794006]+2스냅퍼의 용사 반지
2017-03-26 22:08:54	jms3206:[토시오]	성공	[905794000]+2스냅퍼의 용사 반지
2017-03-26 22:08:54	jms3206:[토시오]	성공	[905793997]+2스냅퍼의 용사 반지
2017-03-26 22:08:55	jms3206:[토시오]	성공	[905793986]+2스냅퍼의 용사 반지
2017-03-26 22:08:56	jms3206:[토시오]	성공	[905793982]+2스냅퍼의 용사 반지
2017-03-26 22:08:56	kobongsu:[데스나이트]	실패	[905793626]+3스냅퍼의 체력 반지
2017-03-26 22:08:56	jms3206:[토시오]	성공	[905793973]+2스냅퍼의 용사 반지
2017-03-26 22:08:56	jms3206:[토시오]	성공	[905793969]+2스냅퍼의 용사 반지
2017-03-26 22:08:57	kobongsu:[데스나이트]	성공	[905793631]+4스냅퍼의 체력 반지
2017-03-26 22:08:57	kobongsu:[데스나이트]	실패	[905793631]+4스냅퍼의 체력 반지
2017-03-26 22:08:57	jms3206:[토시오]	성공	[905794014]+3스냅퍼의 용사 반지
2017-03-26 22:08:58	jms3206:[토시오]	성공	[905794011]+3스냅퍼의 용사 반지
2017-03-26 22:08:58	jms3206:[토시오]	성공	[905794009]+3스냅퍼의 용사 반지
2017-03-26 22:08:59	jms3206:[토시오]	성공	[905794006]+3스냅퍼의 용사 반지
2017-03-26 22:08:59	jms3206:[토시오]	실패	[905794000]+2스냅퍼의 용사 반지
2017-03-26 22:09:00	jms3206:[토시오]	실패	[905793997]+2스냅퍼의 용사 반지
2017-03-26 22:09:00	jms3206:[토시오]	성공	[905793986]+3스냅퍼의 용사 반지
2017-03-26 22:09:01	jms3206:[토시오]	성공	[905793982]+3스냅퍼의 용사 반지
2017-03-26 22:09:01	jms3206:[토시오]	성공	[905793973]+3스냅퍼의 용사 반지
2017-03-26 22:09:02	jms3206:[토시오]	성공	[905793969]+3스냅퍼의 용사 반지
2017-03-26 22:09:15	kobongsu:[데스나이트]	성공	[905794672]+1스냅퍼의 체력 반지
2017-03-26 22:09:16	kobongsu:[데스나이트]	성공	[905794680]+1스냅퍼의 체력 반지
2017-03-26 22:09:16	kobongsu:[데스나이트]	성공	[905794685]+1스냅퍼의 체력 반지
2017-03-26 22:09:17	kobongsu:[데스나이트]	성공	[905794689]+1스냅퍼의 체력 반지
2017-03-26 22:09:17	kobongsu:[데스나이트]	성공	[905794699]+1스냅퍼의 체력 반지
2017-03-26 22:09:18	kobongsu:[데스나이트]	성공	[905794705]+1스냅퍼의 체력 반지
2017-03-26 22:09:18	kobongsu:[데스나이트]	성공	[905794711]+1스냅퍼의 체력 반지
2017-03-26 22:09:18	kobongsu:[데스나이트]	성공	[905794723]+1스냅퍼의 체력 반지
2017-03-26 22:09:19	kobongsu:[데스나이트]	성공	[905794721]+1스냅퍼의 체력 반지
2017-03-26 22:09:19	kobongsu:[데스나이트]	성공	[905794715]+1스냅퍼의 체력 반지
2017-03-26 22:09:20	kobongsu:[데스나이트]	성공	[905794672]+2스냅퍼의 체력 반지
2017-03-26 22:09:20	kobongsu:[데스나이트]	성공	[905794680]+2스냅퍼의 체력 반지
2017-03-26 22:09:21	kobongsu:[데스나이트]	성공	[905794685]+2스냅퍼의 체력 반지
2017-03-26 22:09:21	kobongsu:[데스나이트]	성공	[905794689]+2스냅퍼의 체력 반지
2017-03-26 22:09:22	kobongsu:[데스나이트]	성공	[905794699]+2스냅퍼의 체력 반지
2017-03-26 22:09:22	kobongsu:[데스나이트]	성공	[905794705]+2스냅퍼의 체력 반지
2017-03-26 22:09:22	kobongsu:[데스나이트]	성공	[905794711]+2스냅퍼의 체력 반지
2017-03-26 22:09:23	kobongsu:[데스나이트]	성공	[905794715]+2스냅퍼의 체력 반지
2017-03-26 22:09:23	jms3206:[토시오]	실패	[905794810]+3축복받은 스냅퍼의 용사 반지
2017-03-26 22:09:23	kobongsu:[데스나이트]	성공	[905794721]+2스냅퍼의 체력 반지
2017-03-26 22:09:23	kobongsu:[데스나이트]	성공	[905794723]+2스냅퍼의 체력 반지
2017-03-26 22:09:24	jms3206:[토시오]	실패	[905794809]+3축복받은 스냅퍼의 용사 반지
2017-03-26 22:09:24	kobongsu:[데스나이트]	실패	[905794672]+2스냅퍼의 체력 반지
2017-03-26 22:09:25	jms3206:[토시오]	성공	[905794808]+4축복받은 스냅퍼의 용사 반지
2017-03-26 22:09:25	kobongsu:[데스나이트]	성공	[905794685]+3스냅퍼의 체력 반지
2017-03-26 22:09:25	kobongsu:[데스나이트]	성공	[905794689]+3스냅퍼의 체력 반지
2017-03-26 22:09:25	jms3206:[토시오]	실패	[905794807]+3축복받은 스냅퍼의 용사 반지
2017-03-26 22:09:26	kobongsu:[데스나이트]	성공	[905794699]+3스냅퍼의 체력 반지
2017-03-26 22:09:27	kobongsu:[데스나이트]	성공	[905794705]+3스냅퍼의 체력 반지
2017-03-26 22:09:27	jms3206:[토시오]	실패	[905794778]+3룸티스의 검은빛 귀걸이
2017-03-26 22:09:27	kobongsu:[데스나이트]	성공	[905794711]+3스냅퍼의 체력 반지
2017-03-26 22:09:27	jms3206:[토시오]	성공	[905794777]+4룸티스의 검은빛 귀걸이
2017-03-26 22:09:27	kobongsu:[데스나이트]	성공	[905794715]+3스냅퍼의 체력 반지
2017-03-26 22:09:28	jms3206:[토시오]	성공	[905794776]+4룸티스의 검은빛 귀걸이
2017-03-26 22:09:29	jms3206:[토시오]	실패	[905794775]+3룸티스의 검은빛 귀걸이
2017-03-26 22:09:29	kobongsu:[데스나이트]	성공	[905794680]+3스냅퍼의 체력 반지
2017-03-26 22:09:31	jms3206:[토시오]	실패	[905794777]+4룸티스의 검은빛 귀걸이
2017-03-26 22:09:32	kobongsu:[데스나이트]	성공	[905794721]+3스냅퍼의 체력 반지
2017-03-26 22:09:32	jms3206:[토시오]	성공	[905794776]+5룸티스의 검은빛 귀걸이
2017-03-26 22:09:32	kobongsu:[데스나이트]	실패	[905794723]+2스냅퍼의 체력 반지
2017-03-26 22:09:34	jms3206:[토시오]	성공	[905794808]+5축복받은 스냅퍼의 용사 반지
2017-03-26 22:10:01	kobongsu:[데스나이트]	실패	[905794680]+3스냅퍼의 체력 반지
2017-03-26 22:10:01	kobongsu:[데스나이트]	성공	[905794685]+4스냅퍼의 체력 반지
2017-03-26 22:10:02	kobongsu:[데스나이트]	성공	[905794689]+4스냅퍼의 체력 반지
2017-03-26 22:10:03	kobongsu:[데스나이트]	성공	[905794699]+4스냅퍼의 체력 반지
2017-03-26 22:10:04	kobongsu:[데스나이트]	성공	[905794705]+4스냅퍼의 체력 반지
2017-03-26 22:10:04	kobongsu:[데스나이트]	실패	[905794711]+3스냅퍼의 체력 반지
2017-03-26 22:10:05	kobongsu:[데스나이트]	성공	[905794715]+4스냅퍼의 체력 반지
2017-03-26 22:10:05	kobongsu:[데스나이트]	성공	[905794721]+4스냅퍼의 체력 반지
2017-03-26 22:10:07	kobongsu:[데스나이트]	실패	[905794685]+4스냅퍼의 체력 반지
2017-03-26 22:10:07	kobongsu:[데스나이트]	실패	[905794689]+4스냅퍼의 체력 반지
2017-03-26 22:10:08	kobongsu:[데스나이트]	성공	[905794699]+5스냅퍼의 체력 반지
2017-03-26 22:10:09	kobongsu:[데스나이트]	성공	[905794705]+5스냅퍼의 체력 반지
2017-03-26 22:10:09	kobongsu:[데스나이트]	성공	[905794715]+5스냅퍼의 체력 반지
2017-03-26 22:10:10	kobongsu:[데스나이트]	실패	[905794721]+4스냅퍼의 체력 반지
2017-03-26 22:10:39	jms3206:[토시오]	성공	[905795405]+1스냅퍼의 용사 반지
2017-03-26 22:10:39	jms3206:[토시오]	성공	[905795405]+2스냅퍼의 용사 반지
2017-03-26 22:10:40	jms3206:[토시오]	성공	[905795401]+1스냅퍼의 용사 반지
2017-03-26 22:10:40	jms3206:[토시오]	성공	[905795401]+2스냅퍼의 용사 반지
2017-03-26 22:10:41	jms3206:[토시오]	성공	[905795399]+1스냅퍼의 용사 반지
2017-03-26 22:10:41	jms3206:[토시오]	성공	[905795399]+2스냅퍼의 용사 반지
2017-03-26 22:10:41	jms3206:[토시오]	성공	[905795397]+1스냅퍼의 용사 반지
2017-03-26 22:10:41	jms3206:[토시오]	성공	[905795397]+2스냅퍼의 용사 반지
2017-03-26 22:10:42	jms3206:[토시오]	성공	[905795393]+1스냅퍼의 용사 반지
2017-03-26 22:10:42	jms3206:[토시오]	성공	[905795393]+2스냅퍼의 용사 반지
2017-03-26 22:10:42	jms3206:[토시오]	성공	[905795391]+1스냅퍼의 용사 반지
2017-03-26 22:10:42	jms3206:[토시오]	성공	[905795391]+2스냅퍼의 용사 반지
2017-03-26 22:10:43	jms3206:[토시오]	성공	[905795389]+1스냅퍼의 용사 반지
2017-03-26 22:10:43	jms3206:[토시오]	성공	[905795384]+1스냅퍼의 용사 반지
2017-03-26 22:10:43	jms3206:[토시오]	성공	[905795384]+2스냅퍼의 용사 반지
2017-03-26 22:10:44	jms3206:[토시오]	성공	[905795377]+1스냅퍼의 용사 반지
2017-03-26 22:10:44	jms3206:[토시오]	성공	[905795377]+2스냅퍼의 용사 반지
2017-03-26 22:10:44	jms3206:[토시오]	성공	[905795372]+1스냅퍼의 용사 반지
2017-03-26 22:10:44	jms3206:[토시오]	성공	[905795372]+2스냅퍼의 용사 반지
2017-03-26 22:10:51	jms3206:[토시오]	성공	[905795389]+2스냅퍼의 용사 반지
2017-03-26 22:10:52	jms3206:[토시오]	성공	[905795405]+3스냅퍼의 용사 반지
2017-03-26 22:10:52	jms3206:[토시오]	성공	[905795401]+3스냅퍼의 용사 반지
2017-03-26 22:10:53	jms3206:[토시오]	성공	[905795399]+3스냅퍼의 용사 반지
2017-03-26 22:10:53	jms3206:[토시오]	성공	[905795397]+3스냅퍼의 용사 반지
2017-03-26 22:10:54	jms3206:[토시오]	성공	[905795393]+3스냅퍼의 용사 반지
2017-03-26 22:10:54	jms3206:[토시오]	성공	[905795391]+3스냅퍼의 용사 반지
2017-03-26 22:10:55	jms3206:[토시오]	성공	[905795389]+3스냅퍼의 용사 반지
2017-03-26 22:10:55	jms3206:[토시오]	성공	[905795384]+3스냅퍼의 용사 반지
2017-03-26 22:10:56	jms3206:[토시오]	성공	[905795377]+3스냅퍼의 용사 반지
2017-03-26 22:10:56	jms3206:[토시오]	성공	[905795372]+3스냅퍼의 용사 반지
2017-03-26 22:11:01	jms3206:[토시오]	성공	[905795678]+4축복받은 스냅퍼의 용사 반지
2017-03-26 22:11:01	jms3206:[토시오]	성공	[905795677]+4축복받은 스냅퍼의 용사 반지
2017-03-26 22:11:02	jms3206:[토시오]	성공	[905795676]+4축복받은 스냅퍼의 용사 반지
2017-03-26 22:11:02	kobongsu:[데스나이트]	성공	[905795428]+1스냅퍼의 체력 반지
2017-03-26 22:11:02	jms3206:[토시오]	실패	[905795675]+3축복받은 스냅퍼의 용사 반지
2017-03-26 22:11:03	kobongsu:[데스나이트]	성공	[905795434]+1스냅퍼의 체력 반지
2017-03-26 22:11:03	jms3206:[토시오]	성공	[905795674]+4축복받은 스냅퍼의 용사 반지
2017-03-26 22:11:03	kobongsu:[데스나이트]	성공	[905795440]+1스냅퍼의 체력 반지
2017-03-26 22:11:04	kobongsu:[데스나이트]	성공	[905795446]+1스냅퍼의 체력 반지
2017-03-26 22:11:04	jms3206:[토시오]	실패	[905795678]+4축복받은 스냅퍼의 용사 반지
2017-03-26 22:11:04	jms3206:[토시오]	실패	[905795677]+4축복받은 스냅퍼의 용사 반지
2017-03-26 22:11:04	kobongsu:[데스나이트]	성공	[905795449]+1스냅퍼의 체력 반지
2017-03-26 22:11:05	kobongsu:[데스나이트]	성공	[905795456]+1스냅퍼의 체력 반지
2017-03-26 22:11:05	jms3206:[토시오]	성공	[905795676]+5축복받은 스냅퍼의 용사 반지
2017-03-26 22:11:06	kobongsu:[데스나이트]	성공	[905795458]+1스냅퍼의 체력 반지
2017-03-26 22:11:06	jms3206:[토시오]	성공	[905795674]+5축복받은 스냅퍼의 용사 반지
2017-03-26 22:11:06	kobongsu:[데스나이트]	성공	[905795465]+1스냅퍼의 체력 반지
2017-03-26 22:11:07	jms3206:[토시오]	실패	[905795676]+5축복받은 스냅퍼의 용사 반지
2017-03-26 22:11:07	kobongsu:[데스나이트]	성공	[905795469]+1스냅퍼의 체력 반지
2017-03-26 22:11:07	kobongsu:[데스나이트]	성공	[905795473]+1스냅퍼의 체력 반지
2017-03-26 22:11:08	kobongsu:[데스나이트]	성공	[905795509]+1스냅퍼의 체력 반지
2017-03-26 22:11:08	kobongsu:[데스나이트]	성공	[905795518]+1스냅퍼의 체력 반지
2017-03-26 22:11:09	kobongsu:[데스나이트]	성공	[905795524]+1스냅퍼의 체력 반지
2017-03-26 22:11:10	kobongsu:[데스나이트]	성공	[905795527]+1스냅퍼의 체력 반지
2017-03-26 22:11:10	kobongsu:[데스나이트]	성공	[905795532]+1스냅퍼의 체력 반지
2017-03-26 22:11:11	kobongsu:[데스나이트]	성공	[905795539]+1스냅퍼의 체력 반지
2017-03-26 22:11:12	kobongsu:[데스나이트]	성공	[905795541]+1스냅퍼의 체력 반지
2017-03-26 22:11:12	kobongsu:[데스나이트]	성공	[905795549]+1스냅퍼의 체력 반지
2017-03-26 22:11:13	kobongsu:[데스나이트]	성공	[905795554]+1스냅퍼의 체력 반지
2017-03-26 22:11:13	kobongsu:[데스나이트]	성공	[905795558]+1스냅퍼의 체력 반지
2017-03-26 22:11:15	kobongsu:[데스나이트]	성공	[905795428]+2스냅퍼의 체력 반지
2017-03-26 22:11:15	kobongsu:[데스나이트]	성공	[905795434]+2스냅퍼의 체력 반지
2017-03-26 22:11:16	kobongsu:[데스나이트]	성공	[905795440]+2스냅퍼의 체력 반지
2017-03-26 22:11:16	kobongsu:[데스나이트]	성공	[905795446]+2스냅퍼의 체력 반지
2017-03-26 22:11:17	kobongsu:[데스나이트]	성공	[905795449]+2스냅퍼의 체력 반지
2017-03-26 22:11:18	kobongsu:[데스나이트]	성공	[905795456]+2스냅퍼의 체력 반지
2017-03-26 22:11:18	kobongsu:[데스나이트]	성공	[905795458]+2스냅퍼의 체력 반지
2017-03-26 22:11:19	kobongsu:[데스나이트]	성공	[905795465]+2스냅퍼의 체력 반지
2017-03-26 22:11:20	kobongsu:[데스나이트]	성공	[905795469]+2스냅퍼의 체력 반지
2017-03-26 22:11:21	kobongsu:[데스나이트]	성공	[905795473]+2스냅퍼의 체력 반지
2017-03-26 22:11:21	kobongsu:[데스나이트]	성공	[905795509]+2스냅퍼의 체력 반지
2017-03-26 22:11:22	kobongsu:[데스나이트]	성공	[905795518]+2스냅퍼의 체력 반지
2017-03-26 22:11:23	kobongsu:[데스나이트]	성공	[905795524]+2스냅퍼의 체력 반지
2017-03-26 22:11:23	kobongsu:[데스나이트]	성공	[905795527]+2스냅퍼의 체력 반지
2017-03-26 22:11:24	kobongsu:[데스나이트]	성공	[905795532]+2스냅퍼의 체력 반지
2017-03-26 22:11:24	kobongsu:[데스나이트]	성공	[905795539]+2스냅퍼의 체력 반지
2017-03-26 22:11:25	kobongsu:[데스나이트]	성공	[905795541]+2스냅퍼의 체력 반지
2017-03-26 22:11:26	kobongsu:[데스나이트]	성공	[905795549]+2스냅퍼의 체력 반지
2017-03-26 22:11:26	kobongsu:[데스나이트]	성공	[905795554]+2스냅퍼의 체력 반지
2017-03-26 22:11:27	kobongsu:[데스나이트]	성공	[905795558]+2스냅퍼의 체력 반지
2017-03-26 22:11:29	kobongsu:[데스나이트]	성공	[905795428]+3스냅퍼의 체력 반지
2017-03-26 22:11:30	kobongsu:[데스나이트]	성공	[905795434]+3스냅퍼의 체력 반지
2017-03-26 22:11:31	kobongsu:[데스나이트]	성공	[905795440]+3스냅퍼의 체력 반지
2017-03-26 22:11:31	kobongsu:[데스나이트]	성공	[905795446]+3스냅퍼의 체력 반지
2017-03-26 22:11:32	kobongsu:[데스나이트]	실패	[905795449]+2스냅퍼의 체력 반지
2017-03-26 22:11:33	kobongsu:[데스나이트]	성공	[905795456]+3스냅퍼의 체력 반지
2017-03-26 22:11:33	kobongsu:[데스나이트]	성공	[905795458]+3스냅퍼의 체력 반지
2017-03-26 22:11:34	kobongsu:[데스나이트]	성공	[905795465]+3스냅퍼의 체력 반지
2017-03-26 22:11:34	kobongsu:[데스나이트]	성공	[905795469]+3스냅퍼의 체력 반지
2017-03-26 22:11:36	kobongsu:[데스나이트]	실패	[905795473]+2스냅퍼의 체력 반지
2017-03-26 22:11:36	kobongsu:[데스나이트]	성공	[905795509]+3스냅퍼의 체력 반지
2017-03-26 22:11:37	kobongsu:[데스나이트]	성공	[905795518]+3스냅퍼의 체력 반지
2017-03-26 22:11:38	kobongsu:[데스나이트]	성공	[905795524]+3스냅퍼의 체력 반지
2017-03-26 22:11:38	kobongsu:[데스나이트]	성공	[905795527]+3스냅퍼의 체력 반지
2017-03-26 22:11:39	kobongsu:[데스나이트]	성공	[905795532]+3스냅퍼의 체력 반지
2017-03-26 22:11:39	kobongsu:[데스나이트]	성공	[905795539]+3스냅퍼의 체력 반지
2017-03-26 22:11:40	kobongsu:[데스나이트]	실패	[905795541]+2스냅퍼의 체력 반지
2017-03-26 22:11:41	kobongsu:[데스나이트]	성공	[905795549]+3스냅퍼의 체력 반지
2017-03-26 22:11:41	kobongsu:[데스나이트]	실패	[905795554]+2스냅퍼의 체력 반지
2017-03-26 22:11:42	kobongsu:[데스나이트]	실패	[905795558]+2스냅퍼의 체력 반지
2017-03-26 22:11:45	kobongsu:[데스나이트]	실패	[905795428]+3스냅퍼의 체력 반지
2017-03-26 22:11:46	kobongsu:[데스나이트]	실패	[905795434]+3스냅퍼의 체력 반지
2017-03-26 22:11:46	jms3206:[토시오]	성공	[905791795]+7격분의 장갑
2017-03-26 22:11:46	jms3206:[토시오]	성공	[905791795]+8격분의 장갑
2017-03-26 22:11:46	kobongsu:[데스나이트]	성공	[905795440]+4스냅퍼의 체력 반지
2017-03-26 22:11:47	kobongsu:[데스나이트]	실패	[905795446]+3스냅퍼의 체력 반지
2017-03-26 22:11:47	jms3206:[토시오]	실패	[905791794]+4거대 여왕 개미의 금빛 날개
2017-03-26 22:11:48	jms3206:[토시오]	성공	[905791793]+5발라카스의 완력
2017-03-26 22:11:48	kobongsu:[데스나이트]	성공	[905795456]+4스냅퍼의 체력 반지
2017-03-26 22:11:48	jms3206:[토시오]	실패	[905791793]+5발라카스의 완력
2017-03-26 22:11:48	jms3206:[토시오]	성공	[905791795]+9격분의 장갑
2017-03-26 22:11:48	kobongsu:[데스나이트]	실패	[905795458]+3스냅퍼의 체력 반지
2017-03-26 22:11:49	kobongsu:[데스나이트]	성공	[905795465]+4스냅퍼의 체력 반지
2017-03-26 22:11:50	kobongsu:[데스나이트]	실패	[905795469]+3스냅퍼의 체력 반지
2017-03-26 22:11:50	kobongsu:[데스나이트]	성공	[905795509]+4스냅퍼의 체력 반지
2017-03-26 22:11:51	kobongsu:[데스나이트]	성공	[905795518]+4스냅퍼의 체력 반지
2017-03-26 22:11:53	kobongsu:[데스나이트]	실패	[905795524]+3스냅퍼의 체력 반지
2017-03-26 22:11:54	kobongsu:[데스나이트]	실패	[905795527]+3스냅퍼의 체력 반지
2017-03-26 22:11:54	jms3206:[토시오]	실패	[905791795]+9격분의 장갑
2017-03-26 22:11:55	kobongsu:[데스나이트]	성공	[905795532]+4스냅퍼의 체력 반지
2017-03-26 22:11:55	kobongsu:[데스나이트]	성공	[905795539]+4스냅퍼의 체력 반지
2017-03-26 22:11:56	kobongsu:[데스나이트]	성공	[905795549]+4스냅퍼의 체력 반지
2017-03-26 22:11:58	kobongsu:[데스나이트]	성공	[905795440]+5스냅퍼의 체력 반지
2017-03-26 22:11:59	kobongsu:[데스나이트]	실패	[905795456]+4스냅퍼의 체력 반지
2017-03-26 22:11:59	kobongsu:[데스나이트]	성공	[905795465]+5스냅퍼의 체력 반지
2017-03-26 22:12:00	kobongsu:[데스나이트]	실패	[905795509]+4스냅퍼의 체력 반지
2017-03-26 22:12:01	kobongsu:[데스나이트]	실패	[905795518]+4스냅퍼의 체력 반지
2017-03-26 22:12:01	kobongsu:[데스나이트]	성공	[905795532]+5스냅퍼의 체력 반지
2017-03-26 22:12:02	kobongsu:[데스나이트]	실패	[905795539]+4스냅퍼의 체력 반지
2017-03-26 22:12:03	kobongsu:[데스나이트]	실패	[905795549]+4스냅퍼의 체력 반지
2017-03-26 22:12:05	kobongsu:[데스나이트]	실패	[905794699]+5스냅퍼의 체력 반지
2017-03-26 22:12:06	kobongsu:[데스나이트]	실패	[905794705]+5스냅퍼의 체력 반지
2017-03-26 22:12:06	kobongsu:[데스나이트]	실패	[905794715]+5스냅퍼의 체력 반지
2017-03-26 22:12:07	jms3206:[토시오]	실패	[905796192]+4거대 여왕 개미의 금빛 날개
2017-03-26 22:12:07	kobongsu:[데스나이트]	실패	[905795440]+5스냅퍼의 체력 반지
2017-03-26 22:12:08	jms3206:[토시오]	성공	[905796193]+7격분의 장갑
2017-03-26 22:12:08	jms3206:[토시오]	실패	[905796191]+4발라카스의 완력
2017-03-26 22:12:08	jms3206:[토시오]	실패	[905796193]+7격분의 장갑
2017-03-26 22:12:18	jms3206:[토시오]	성공	[905796289]+5발라카스의 완력
2017-03-26 22:12:19	jms3206:[토시오]	성공	[905796290]+5거대 여왕 개미의 금빛 날개
2017-03-26 22:12:21	jms3206:[토시오]	성공	[905796291]+7격분의 장갑
2017-03-26 22:12:22	jms3206:[토시오]	성공	[905796291]+8격분의 장갑
2017-03-26 22:12:23	jms3206:[토시오]	성공	[905796290]+6거대 여왕 개미의 금빛 날개
2017-03-26 22:12:24	jms3206:[토시오]	실패	[905796289]+5발라카스의 완력
2017-03-26 22:12:25	jms3206:[토시오]	실패	[905796290]+6거대 여왕 개미의 금빛 날개
2017-03-26 22:12:26	jms3206:[토시오]	성공	[905796291]+9격분의 장갑
2017-03-26 22:12:34	jms3206:[토시오]	성공	[905796291]+10격분의 장갑
2017-03-26 22:13:07	kobongsu:[데스나이트]	성공	[905796442]+1룸티스의붉은빛귀걸이
2017-03-26 22:13:08	kobongsu:[데스나이트]	성공	[905796451]+1룸티스의붉은빛귀걸이
2017-03-26 22:13:08	kobongsu:[데스나이트]	성공	[905796456]+1룸티스의붉은빛귀걸이
2017-03-26 22:13:09	kobongsu:[데스나이트]	성공	[905796459]+1룸티스의붉은빛귀걸이
2017-03-26 22:13:09	kobongsu:[데스나이트]	성공	[905796478]+1룸티스의붉은빛귀걸이
2017-03-26 22:13:10	kobongsu:[데스나이트]	성공	[905796473]+1룸티스의붉은빛귀걸이
2017-03-26 22:13:10	kobongsu:[데스나이트]	성공	[905796466]+1룸티스의붉은빛귀걸이
2017-03-26 22:13:10	kobongsu:[데스나이트]	성공	[905796462]+1룸티스의붉은빛귀걸이
2017-03-26 22:13:11	kobongsu:[데스나이트]	성공	[905796483]+1룸티스의붉은빛귀걸이
2017-03-26 22:13:11	kobongsu:[데스나이트]	성공	[905796487]+1룸티스의붉은빛귀걸이
2017-03-26 22:13:12	kobongsu:[데스나이트]	성공	[905796442]+2룸티스의붉은빛귀걸이
2017-03-26 22:13:12	kobongsu:[데스나이트]	성공	[905796451]+2룸티스의붉은빛귀걸이
2017-03-26 22:13:12	kobongsu:[데스나이트]	성공	[905796456]+2룸티스의붉은빛귀걸이
2017-03-26 22:13:13	kobongsu:[데스나이트]	성공	[905796459]+2룸티스의붉은빛귀걸이
2017-03-26 22:13:14	kobongsu:[데스나이트]	성공	[905796462]+2룸티스의붉은빛귀걸이
2017-03-26 22:13:14	kobongsu:[데스나이트]	성공	[905796466]+2룸티스의붉은빛귀걸이
2017-03-26 22:13:15	kobongsu:[데스나이트]	성공	[905796473]+2룸티스의붉은빛귀걸이
2017-03-26 22:13:15	kobongsu:[데스나이트]	성공	[905796478]+2룸티스의붉은빛귀걸이
2017-03-26 22:13:16	kobongsu:[데스나이트]	성공	[905796483]+2룸티스의붉은빛귀걸이
2017-03-26 22:13:17	kobongsu:[데스나이트]	성공	[905796487]+2룸티스의붉은빛귀걸이
2017-03-26 22:13:19	kobongsu:[데스나이트]	성공	[905796442]+3룸티스의붉은빛귀걸이
2017-03-26 22:13:19	kobongsu:[데스나이트]	실패	[905796451]+2룸티스의붉은빛귀걸이
2017-03-26 22:13:20	kobongsu:[데스나이트]	성공	[905796456]+3룸티스의붉은빛귀걸이
2017-03-26 22:13:21	kobongsu:[데스나이트]	성공	[905796459]+3룸티스의붉은빛귀걸이
2017-03-26 22:13:21	kobongsu:[데스나이트]	성공	[905796462]+3룸티스의붉은빛귀걸이
2017-03-26 22:13:22	kobongsu:[데스나이트]	실패	[905796466]+2룸티스의붉은빛귀걸이
2017-03-26 22:13:23	kobongsu:[데스나이트]	성공	[905796473]+3룸티스의붉은빛귀걸이
2017-03-26 22:13:23	kobongsu:[데스나이트]	성공	[905796478]+3룸티스의붉은빛귀걸이
2017-03-26 22:13:24	kobongsu:[데스나이트]	성공	[905796483]+3룸티스의붉은빛귀걸이
2017-03-26 22:13:24	kobongsu:[데스나이트]	성공	[905796487]+3룸티스의붉은빛귀걸이
2017-03-26 22:13:26	kobongsu:[데스나이트]	실패	[905796442]+3룸티스의붉은빛귀걸이
2017-03-26 22:13:27	kobongsu:[데스나이트]	실패	[905796456]+3룸티스의붉은빛귀걸이
2017-03-26 22:13:28	kobongsu:[데스나이트]	실패	[905796459]+3룸티스의붉은빛귀걸이
2017-03-26 22:13:28	kobongsu:[데스나이트]	성공	[905796462]+4룸티스의붉은빛귀걸이
2017-03-26 22:13:29	kobongsu:[데스나이트]	성공	[905796473]+4룸티스의붉은빛귀걸이
2017-03-26 22:13:29	kobongsu:[데스나이트]	실패	[905796478]+3룸티스의붉은빛귀걸이
2017-03-26 22:13:30	kobongsu:[데스나이트]	성공	[905796483]+4룸티스의붉은빛귀걸이
2017-03-26 22:13:30	kobongsu:[데스나이트]	실패	[905796487]+3룸티스의붉은빛귀걸이
2017-03-26 22:13:32	kobongsu:[데스나이트]	실패	[905796462]+4룸티스의붉은빛귀걸이
2017-03-26 22:13:33	kobongsu:[데스나이트]	실패	[905796473]+4룸티스의붉은빛귀걸이
2017-03-26 22:13:33	kobongsu:[데스나이트]	실패	[905796483]+4룸티스의붉은빛귀걸이
2017-03-26 22:13:35	jms3206:[토시오]	성공	[905796559]+5발라카스의 완력
2017-03-26 22:13:36	jms3206:[토시오]	성공	[905796560]+6거대 여왕 개미의 금빛 날개
2017-03-26 22:13:37	jms3206:[토시오]	성공	[905796612]+6발라카스의 완력
2017-03-26 22:13:37	jms3206:[토시오]	성공	[905796613]+6거대 여왕 개미의 금빛 날개
2017-03-26 22:13:38	jms3206:[토시오]	성공	[905796669]+5발라카스의 완력
2017-03-26 22:13:39	jms3206:[토시오]	실패	[905796670]+4거대 여왕 개미의 금빛 날개
2017-03-26 22:13:41	jms3206:[토시오]	성공	[905796559]+6발라카스의 완력
2017-03-26 22:13:44	jms3206:[토시오]	실패	[905796669]+5발라카스의 완력
2017-03-26 22:13:47	jms3206:[토시오]	실패	[905796613]+6거대 여왕 개미의 금빛 날개
2017-03-26 22:13:49	jms3206:[토시오]	성공	[905796612]+7발라카스의 완력
2017-03-26 22:13:50	jms3206:[토시오]	실패	[905796560]+6거대 여왕 개미의 금빛 날개
2017-03-26 22:13:52	jms3206:[토시오]	실패	[905796559]+6발라카스의 완력
2017-03-26 22:13:53	jms3206:[토시오]	성공	[905796612]+8발라카스의 완력
2017-03-26 22:14:02	jms3206:[토시오]	실패	[905796612]+8발라카스의 완력
2017-03-26 22:14:09	kobongsu:[데스나이트]	성공	[905797035]+1룸티스의붉은빛귀걸이
2017-03-26 22:14:09	kobongsu:[데스나이트]	성공	[905797044]+1룸티스의붉은빛귀걸이
2017-03-26 22:14:10	kobongsu:[데스나이트]	성공	[905797048]+1룸티스의붉은빛귀걸이
2017-03-26 22:14:10	kobongsu:[데스나이트]	성공	[905797051]+1룸티스의붉은빛귀걸이
2017-03-26 22:14:11	kobongsu:[데스나이트]	성공	[905797058]+1룸티스의붉은빛귀걸이
2017-03-26 22:14:12	kobongsu:[데스나이트]	성공	[905797062]+1룸티스의붉은빛귀걸이
2017-03-26 22:14:12	kobongsu:[데스나이트]	성공	[905797064]+1룸티스의붉은빛귀걸이
2017-03-26 22:14:13	kobongsu:[데스나이트]	성공	[905797067]+1룸티스의붉은빛귀걸이
2017-03-26 22:14:13	kobongsu:[데스나이트]	성공	[905797072]+1룸티스의붉은빛귀걸이
2017-03-26 22:14:14	kobongsu:[데스나이트]	성공	[905797076]+1룸티스의붉은빛귀걸이
2017-03-26 22:14:14	kobongsu:[데스나이트]	성공	[905797081]+1룸티스의붉은빛귀걸이
2017-03-26 22:14:14	kobongsu:[데스나이트]	성공	[905797085]+1룸티스의붉은빛귀걸이
2017-03-26 22:14:15	kobongsu:[데스나이트]	성공	[905797092]+1룸티스의붉은빛귀걸이
2017-03-26 22:14:16	kobongsu:[데스나이트]	성공	[905797096]+1룸티스의붉은빛귀걸이
2017-03-26 22:14:16	kobongsu:[데스나이트]	성공	[905797104]+1룸티스의붉은빛귀걸이
2017-03-26 22:14:16	kobongsu:[데스나이트]	성공	[905797111]+1룸티스의붉은빛귀걸이
2017-03-26 22:14:17	kobongsu:[데스나이트]	성공	[905797129]+1룸티스의붉은빛귀걸이
2017-03-26 22:14:17	kobongsu:[데스나이트]	성공	[905797125]+1룸티스의붉은빛귀걸이
2017-03-26 22:14:17	kobongsu:[데스나이트]	성공	[905797120]+1룸티스의붉은빛귀걸이
2017-03-26 22:14:18	kobongsu:[데스나이트]	성공	[905797117]+1룸티스의붉은빛귀걸이
2017-03-26 22:14:20	kobongsu:[데스나이트]	성공	[905797035]+2룸티스의붉은빛귀걸이
2017-03-26 22:14:21	kobongsu:[데스나이트]	성공	[905797044]+2룸티스의붉은빛귀걸이
2017-03-26 22:14:21	kobongsu:[데스나이트]	성공	[905797048]+2룸티스의붉은빛귀걸이
2017-03-26 22:14:22	kobongsu:[데스나이트]	성공	[905797051]+2룸티스의붉은빛귀걸이
2017-03-26 22:14:23	kobongsu:[데스나이트]	성공	[905797058]+2룸티스의붉은빛귀걸이
2017-03-26 22:14:24	kobongsu:[데스나이트]	성공	[905797062]+2룸티스의붉은빛귀걸이
2017-03-26 22:14:24	kobongsu:[데스나이트]	성공	[905797064]+2룸티스의붉은빛귀걸이
2017-03-26 22:14:25	kobongsu:[데스나이트]	성공	[905797067]+2룸티스의붉은빛귀걸이
2017-03-26 22:14:26	kobongsu:[데스나이트]	성공	[905797072]+2룸티스의붉은빛귀걸이
2017-03-26 22:14:26	kobongsu:[데스나이트]	성공	[905797076]+2룸티스의붉은빛귀걸이
2017-03-26 22:14:27	kobongsu:[데스나이트]	성공	[905797081]+2룸티스의붉은빛귀걸이
2017-03-26 22:14:27	kobongsu:[데스나이트]	성공	[905797085]+2룸티스의붉은빛귀걸이
2017-03-26 22:14:29	kobongsu:[데스나이트]	성공	[905797092]+2룸티스의붉은빛귀걸이
2017-03-26 22:14:29	kobongsu:[데스나이트]	성공	[905797096]+2룸티스의붉은빛귀걸이
2017-03-26 22:14:29	kobongsu:[데스나이트]	성공	[905797104]+2룸티스의붉은빛귀걸이
2017-03-26 22:14:30	kobongsu:[데스나이트]	성공	[905797111]+2룸티스의붉은빛귀걸이
2017-03-26 22:14:31	kobongsu:[데스나이트]	성공	[905797117]+2룸티스의붉은빛귀걸이
2017-03-26 22:14:31	kobongsu:[데스나이트]	성공	[905797120]+2룸티스의붉은빛귀걸이
2017-03-26 22:14:32	kobongsu:[데스나이트]	성공	[905797125]+2룸티스의붉은빛귀걸이
2017-03-26 22:14:32	kobongsu:[데스나이트]	성공	[905797129]+2룸티스의붉은빛귀걸이
2017-03-26 22:14:34	kobongsu:[데스나이트]	성공	[905797035]+3룸티스의붉은빛귀걸이
2017-03-26 22:14:35	kobongsu:[데스나이트]	성공	[905797044]+3룸티스의붉은빛귀걸이
2017-03-26 22:14:36	kobongsu:[데스나이트]	성공	[905797048]+3룸티스의붉은빛귀걸이
2017-03-26 22:14:36	kobongsu:[데스나이트]	성공	[905797051]+3룸티스의붉은빛귀걸이
2017-03-26 22:14:37	kobongsu:[데스나이트]	성공	[905797058]+3룸티스의붉은빛귀걸이
2017-03-26 22:14:37	kobongsu:[데스나이트]	실패	[905797062]+2룸티스의붉은빛귀걸이
2017-03-26 22:14:38	kobongsu:[데스나이트]	성공	[905797064]+3룸티스의붉은빛귀걸이
2017-03-26 22:14:38	kobongsu:[데스나이트]	성공	[905797067]+3룸티스의붉은빛귀걸이
2017-03-26 22:14:39	kobongsu:[데스나이트]	성공	[905797072]+3룸티스의붉은빛귀걸이
2017-03-26 22:14:40	kobongsu:[데스나이트]	성공	[905797076]+3룸티스의붉은빛귀걸이
2017-03-26 22:14:41	kobongsu:[데스나이트]	성공	[905797081]+3룸티스의붉은빛귀걸이
2017-03-26 22:14:41	kobongsu:[데스나이트]	성공	[905797085]+3룸티스의붉은빛귀걸이
2017-03-26 22:14:42	kobongsu:[데스나이트]	실패	[905797092]+2룸티스의붉은빛귀걸이
2017-03-26 22:14:43	kobongsu:[데스나이트]	성공	[905797096]+3룸티스의붉은빛귀걸이
2017-03-26 22:14:43	kobongsu:[데스나이트]	성공	[905797104]+3룸티스의붉은빛귀걸이
2017-03-26 22:14:44	kobongsu:[데스나이트]	성공	[905797111]+3룸티스의붉은빛귀걸이
2017-03-26 22:14:45	kobongsu:[데스나이트]	성공	[905797117]+3룸티스의붉은빛귀걸이
2017-03-26 22:14:46	kobongsu:[데스나이트]	성공	[905797120]+3룸티스의붉은빛귀걸이
2017-03-26 22:14:47	kobongsu:[데스나이트]	성공	[905797125]+3룸티스의붉은빛귀걸이
2017-03-26 22:14:47	kobongsu:[데스나이트]	실패	[905797129]+2룸티스의붉은빛귀걸이
2017-03-26 22:14:50	kobongsu:[데스나이트]	실패	[905797035]+3룸티스의붉은빛귀걸이
2017-03-26 22:14:50	kobongsu:[데스나이트]	성공	[905797044]+4룸티스의붉은빛귀걸이
2017-03-26 22:14:51	kobongsu:[데스나이트]	성공	[905797048]+4룸티스의붉은빛귀걸이
2017-03-26 22:14:52	kobongsu:[데스나이트]	성공	[905797051]+4룸티스의붉은빛귀걸이
2017-03-26 22:14:52	kobongsu:[데스나이트]	실패	[905797058]+3룸티스의붉은빛귀걸이
2017-03-26 22:14:53	kobongsu:[데스나이트]	성공	[905797064]+4룸티스의붉은빛귀걸이
2017-03-26 22:14:54	kobongsu:[데스나이트]	실패	[905797067]+3룸티스의붉은빛귀걸이
2017-03-26 22:14:54	kobongsu:[데스나이트]	성공	[905797072]+4룸티스의붉은빛귀걸이
2017-03-26 22:14:55	kobongsu:[데스나이트]	성공	[905797076]+4룸티스의붉은빛귀걸이
2017-03-26 22:14:56	kobongsu:[데스나이트]	성공	[905797081]+4룸티스의붉은빛귀걸이
2017-03-26 22:14:56	kobongsu:[데스나이트]	실패	[905797085]+3룸티스의붉은빛귀걸이
2017-03-26 22:14:57	kobongsu:[데스나이트]	실패	[905797096]+3룸티스의붉은빛귀걸이
2017-03-26 22:14:58	kobongsu:[데스나이트]	성공	[905797104]+4룸티스의붉은빛귀걸이
2017-03-26 22:14:59	kobongsu:[데스나이트]	실패	[905797111]+3룸티스의붉은빛귀걸이
2017-03-26 22:14:59	kobongsu:[데스나이트]	성공	[905797120]+4룸티스의붉은빛귀걸이
2017-03-26 22:15:00	kobongsu:[데스나이트]	성공	[905797117]+4룸티스의붉은빛귀걸이
2017-03-26 22:15:01	kobongsu:[데스나이트]	성공	[905797125]+4룸티스의붉은빛귀걸이
2017-03-26 22:15:12	kobongsu:[데스나이트]	실패	[905797044]+4룸티스의붉은빛귀걸이
2017-03-26 22:15:13	kobongsu:[데스나이트]	성공	[905797048]+5룸티스의붉은빛귀걸이
2017-03-26 22:15:14	kobongsu:[데스나이트]	실패	[905797051]+4룸티스의붉은빛귀걸이
2017-03-26 22:15:14	kobongsu:[데스나이트]	실패	[905797064]+4룸티스의붉은빛귀걸이
2017-03-26 22:15:15	kobongsu:[데스나이트]	실패	[905797072]+4룸티스의붉은빛귀걸이
2017-03-26 22:15:16	kobongsu:[데스나이트]	실패	[905797076]+4룸티스의붉은빛귀걸이
2017-03-26 22:15:17	kobongsu:[데스나이트]	실패	[905797081]+4룸티스의붉은빛귀걸이
2017-03-26 22:15:17	kobongsu:[데스나이트]	성공	[905797104]+5룸티스의붉은빛귀걸이
2017-03-26 22:15:18	kobongsu:[데스나이트]	실패	[905797117]+4룸티스의붉은빛귀걸이
2017-03-26 22:15:19	kobongsu:[데스나이트]	실패	[905797120]+4룸티스의붉은빛귀걸이
2017-03-26 22:15:19	kobongsu:[데스나이트]	성공	[905797125]+5룸티스의붉은빛귀걸이
2017-03-26 22:15:21	kobongsu:[데스나이트]	실패	[905797048]+5룸티스의붉은빛귀걸이
2017-03-26 22:15:38	kobongsu:[데스나이트]	실패	[905797104]+5룸티스의붉은빛귀걸이
2017-03-26 22:28:39	jms3206:[토시오]	실패	[905803470]+4수호의 가더
2017-03-26 22:28:40	jms3206:[토시오]	실패	[905802457]+4수호의 가더
2017-03-26 22:28:41	jms3206:[토시오]	실패	[905801552]+4수호의 가더
2017-03-26 22:28:42	jms3206:[토시오]	성공	[905800884]+5수호의 가더
2017-03-26 22:28:43	jms3206:[토시오]	실패	[905799897]+4수호의 가더
2017-03-26 22:28:45	jms3206:[토시오]	실패	[905797943]+4수호의 가더
2017-03-26 22:29:54	jms3206:[토시오]	실패	[905803579]+7유니콘의 완력 각반
2017-03-26 22:29:54	jms3206:[토시오]	실패	[905802530]+7유니콘의 완력 각반
2017-03-26 22:29:54	jms3206:[토시오]	실패	[905801610]+7유니콘의 완력 각반
2017-03-26 22:29:55	jms3206:[토시오]	실패	[905800959]+7유니콘의 완력 각반
2017-03-26 22:29:55	jms3206:[토시오]	실패	[905799953]+7유니콘의 완력 각반
2017-03-26 22:29:56	jms3206:[토시오]	실패	[905798102]+7유니콘의 완력 각반
2017-03-26 22:29:58	jms3206:[토시오]	실패	[905803500]+7지휘관의 투구
2017-03-26 22:29:59	jms3206:[토시오]	성공	[905802504]+8지휘관의 투구
2017-03-26 22:29:59	jms3206:[토시오]	실패	[905801575]+7지휘관의 투구
2017-03-26 22:30:00	jms3206:[토시오]	실패	[905800914]+7지휘관의 투구
2017-03-26 22:30:00	jms3206:[토시오]	성공	[905799922]+8지휘관의 투구
2017-03-26 22:30:01	jms3206:[토시오]	성공	[905798045]+8지휘관의 투구
2017-03-26 22:30:01	jms3206:[토시오]	성공	[905802504]+9지휘관의 투구
2017-03-26 22:30:02	jms3206:[토시오]	성공	[905799922]+9지휘관의 투구
2017-03-26 22:30:02	jms3206:[토시오]	실패	[905798045]+8지휘관의 투구
2017-03-26 22:30:03	jms3206:[토시오]	실패	[905802504]+9지휘관의 투구
2017-03-26 22:30:05	jms3206:[토시오]	실패	[905776041]+9지휘관의 투구
2017-03-26 22:30:13	jms3206:[토시오]	실패	[905803542]+7수호성의 파워 글로브
2017-03-26 22:30:13	jms3206:[토시오]	실패	[905802545]+7수호성의 파워 글로브
2017-03-26 22:30:14	jms3206:[토시오]	성공	[905801597]+8수호성의 파워 글로브
2017-03-26 22:30:14	jms3206:[토시오]	실패	[905800933]+7수호성의 파워 글로브
2017-03-26 22:30:15	jms3206:[토시오]	성공	[905800089]+8수호성의 파워 글로브
2017-03-26 22:30:15	jms3206:[토시오]	실패	[905798076]+7수호성의 파워 글로브
2017-03-26 22:30:15	jms3206:[토시오]	실패	[905801597]+8수호성의 파워 글로브
2017-03-26 22:30:16	jms3206:[토시오]	성공	[905800089]+9수호성의 파워 글로브
2017-03-26 22:30:17	jms3206:[토시오]	실패	[905800089]+9수호성의 파워 글로브
2017-03-26 22:30:19	jms3206:[토시오]	실패	[905798173]+7타라스의 부츠
2017-03-26 22:30:20	jms3206:[토시오]	성공	[905800146]+8타라스의 부츠
2017-03-26 22:30:21	jms3206:[토시오]	실패	[905801021]+7타라스의 부츠
2017-03-26 22:30:21	jms3206:[토시오]	실패	[905801661]+7타라스의 부츠
2017-03-26 22:30:22	jms3206:[토시오]	실패	[905802658]+7타라스의 부츠
2017-03-26 22:30:22	jms3206:[토시오]	성공	[905803655]+8타라스의 부츠
2017-03-26 22:30:24	jms3206:[토시오]	성공	[905803655]+9타라스의 부츠
2017-03-26 22:30:24	jms3206:[토시오]	성공	[905800146]+9타라스의 부츠
2017-03-26 22:30:25	jms3206:[토시오]	성공	[905800146]+10타라스의 부츠
2017-03-26 22:30:26	jms3206:[토시오]	실패	[905803655]+9타라스의 부츠
2017-03-26 22:30:32	jms3206:[토시오]	성공	[905797833]+8발라카스의 완력
2017-03-26 22:30:33	jms3206:[토시오]	실패	[905799864]+7발라카스의 완력
2017-03-26 22:30:33	jms3206:[토시오]	실패	[905800835]+7발라카스의 완력
2017-03-26 22:30:34	jms3206:[토시오]	실패	[905801491]+7발라카스의 완력
2017-03-26 22:30:35	jms3206:[토시오]	실패	[905802365]+7발라카스의 완력
2017-03-26 22:30:35	jms3206:[토시오]	성공	[905803384]+8발라카스의 완력
2017-03-26 22:30:36	jms3206:[토시오]	성공	[905798199]+8거대 여왕 개미의 금빛 날개
2017-03-26 22:30:37	jms3206:[토시오]	실패	[905800168]+7거대 여왕 개미의 금빛 날개
2017-03-26 22:30:37	jms3206:[토시오]	실패	[905801048]+7거대 여왕 개미의 금빛 날개
2017-03-26 22:30:38	jms3206:[토시오]	실패	[905801692]+7거대 여왕 개미의 금빛 날개
2017-03-26 22:30:38	jms3206:[토시오]	성공	[905802690]+8거대 여왕 개미의 금빛 날개
2017-03-26 22:30:39	jms3206:[토시오]	실패	[905803683]+7거대 여왕 개미의 금빛 날개
2017-03-26 22:30:40	jms3206:[토시오]	실패	[905802690]+8거대 여왕 개미의 금빛 날개
2017-03-26 22:30:40	jms3206:[토시오]	성공	[905798199]+9거대 여왕 개미의 금빛 날개
2017-03-26 22:30:41	jms3206:[토시오]	실패	[905803384]+8발라카스의 완력
2017-03-26 22:30:42	jms3206:[토시오]	실패	[905797833]+8발라카스의 완력
2017-03-26 22:32:12	jms3206:[토시오]	성공	[905806204]+5발라카스의 완력
2017-03-26 22:32:13	jms3206:[토시오]	성공	[905806161]+5발라카스의 완력
2017-03-26 22:32:15	jms3206:[토시오]	성공	[905806061]+5발라카스의 완력
2017-03-26 22:32:15	jms3206:[토시오]	성공	[905806033]+5발라카스의 완력
2017-03-26 22:32:16	jms3206:[토시오]	성공	[905805987]+5발라카스의 완력
2017-03-26 22:32:16	jms3206:[토시오]	성공	[905805973]+5발라카스의 완력
2017-03-26 22:32:49	jms3206:[토시오]	성공	[905806131]+5발라카스의 완력
2017-03-26 22:32:49	jms3206:[토시오]	성공	[905806180]+5발라카스의 완력
2017-03-26 22:33:03	jms3206:[토시오]	성공	[905806084]+5발라카스의 완력
2017-03-26 22:33:26	jms3206:[토시오]	성공	[905806012]+5발라카스의 완력
2017-03-26 22:33:26	jms3206:[토시오]	성공	[905805931]+5발라카스의 완력
2017-03-26 22:33:35	jms3206:[토시오]	성공	[905806112]+5발라카스의 완력
2017-03-26 22:33:45	jms3206:[토시오]	실패	[905806112]+5발라카스의 완력
2017-03-26 22:33:46	jms3206:[토시오]	실패	[905806012]+5발라카스의 완력
2017-03-26 22:33:46	jms3206:[토시오]	실패	[905805931]+5발라카스의 완력
2017-03-26 22:33:47	jms3206:[토시오]	실패	[905806084]+5발라카스의 완력
2017-03-26 22:33:47	jms3206:[토시오]	성공	[905806180]+6발라카스의 완력
2017-03-26 22:33:48	jms3206:[토시오]	성공	[905806131]+6발라카스의 완력
2017-03-26 22:33:48	jms3206:[토시오]	실패	[905806204]+5발라카스의 완력
2017-03-26 22:33:48	jms3206:[토시오]	실패	[905806161]+5발라카스의 완력
2017-03-26 22:33:49	jms3206:[토시오]	실패	[905806061]+5발라카스의 완력
2017-03-26 22:33:49	jms3206:[토시오]	실패	[905806033]+5발라카스의 완력
2017-03-26 22:33:50	jms3206:[토시오]	성공	[905805987]+7발라카스의 완력
2017-03-26 22:33:50	jms3206:[토시오]	성공	[905805973]+7발라카스의 완력
2017-03-26 22:33:52	jms3206:[토시오]	성공	[905806180]+7발라카스의 완력
2017-03-26 22:33:52	jms3206:[토시오]	실패	[905806131]+6발라카스의 완력
2017-03-26 22:33:53	jms3206:[토시오]	실패	[905806180]+7발라카스의 완력
2017-03-26 22:33:54	jms3206:[토시오]	실패	[905805987]+7발라카스의 완력
2017-03-26 22:33:54	jms3206:[토시오]	성공	[905805973]+8발라카스의 완력
2017-03-26 22:33:55	jms3206:[토시오]	성공	[905805973]+9발라카스의 완력
2017-03-26 23:32:44	jms3206:[토시오]	실패	[905802410]+9커츠의 검
2017-03-26 23:32:45	jms3206:[토시오]	성공	[905834445]+10커츠의 검
2017-03-26 23:32:46	jms3206:[토시오]	실패	[905803418]+9커츠의 검
2017-03-26 23:32:47	jms3206:[토시오]	성공	[905801516]+10커츠의 검
2017-03-26 23:32:48	jms3206:[토시오]	실패	[905835083]+9나이트발드의 양손검
2017-03-26 23:32:49	jms3206:[토시오]	성공	[905799835]+10커츠의 검
2017-03-26 23:32:50	jms3206:[토시오]	실패	[905800861]+9커츠의 검
2017-03-26 23:32:51	jms3206:[토시오]	실패	[905833302]+9커츠의 검
2017-03-26 23:32:51	jms3206:[토시오]	성공	[905798002]+10커츠의 검
2017-03-26 23:32:52	jms3206:[토시오]	성공	[905836526]+10나이트발드의 양손검
2017-03-26 23:32:53	jms3206:[토시오]	실패	[905835862]+9나이트발드의 양손검
2017-03-26 23:32:54	jms3206:[토시오]	실패	[905801516]+10커츠의 검
2017-03-26 23:32:55	jms3206:[토시오]	실패	[905834445]+10커츠의 검
2017-03-26 23:32:56	jms3206:[토시오]	실패	[905799835]+10커츠의 검
2017-03-26 23:33:01	jms3206:[토시오]	실패	[905798002]+10커츠의 검
2017-03-26 23:33:02	jms3206:[토시오]	실패	[905836526]+10나이트발드의 양손검
2017-03-26 23:33:59	jms3206:[토시오]	실패	[905836710]+7지식의 부츠
2017-03-26 23:34:00	jms3206:[토시오]	성공	[905836023]+8지식의 부츠
2017-03-26 23:34:00	jms3206:[토시오]	성공	[905835289]+8지식의 부츠
2017-03-26 23:34:01	jms3206:[토시오]	성공	[905834664]+8지식의 부츠
2017-03-26 23:34:01	jms3206:[토시오]	성공	[905833633]+8지식의 부츠
2017-03-26 23:34:02	jms3206:[토시오]	실패	[905833633]+8지식의 부츠
2017-03-26 23:34:03	jms3206:[토시오]	실패	[905834664]+8지식의 부츠
2017-03-26 23:34:03	jms3206:[토시오]	실패	[905835289]+8지식의 부츠
2017-03-26 23:34:04	jms3206:[토시오]	실패	[905836023]+8지식의 부츠
2017-03-26 23:34:05	jms3206:[토시오]	실패	[905836487]+7린드비오르의 완력
2017-03-26 23:34:06	jms3206:[토시오]	성공	[905835053]+8발라카스의 완력
2017-03-26 23:34:07	jms3206:[토시오]	실패	[905834407]+7발라카스의 완력
2017-03-26 23:34:07	jms3206:[토시오]	실패	[905834000]+7발라카스의 완력
2017-03-26 23:34:08	jms3206:[토시오]	성공	[905835831]+8린드비오르의 완력
2017-03-26 23:34:09	jms3206:[토시오]	성공	[905835053]+9발라카스의 완력
2017-03-26 23:34:10	jms3206:[토시오]	실패	[905835831]+8린드비오르의 완력
2017-03-26 23:34:12	jms3206:[토시오]	실패	[905835053]+9발라카스의 완력
2017-03-26 23:34:13	jms3206:[토시오]	실패	[905833706]+7거대 여왕 개미의 금빛 날개
2017-03-26 23:34:14	jms3206:[토시오]	실패	[905834699]+7거대 여왕 개미의 금빛 날개
2017-03-26 23:34:15	jms3206:[토시오]	성공	[905835335]+8거대 여왕 개미의 금빛 날개
2017-03-26 23:34:16	jms3206:[토시오]	성공	[905836716]+9뱀파이어의 망토
2017-03-26 23:34:17	jms3206:[토시오]	실패	[905836078]+8뱀파이어의 망토
2017-03-26 23:34:18	jms3206:[토시오]	성공	[905835335]+9거대 여왕 개미의 금빛 날개
2017-03-26 23:34:20	jms3206:[토시오]	성공	[905835335]+10거대 여왕 개미의 금빛 날개
2017-03-26 23:34:24	jms3206:[토시오]	실패	[905798199]+9거대 여왕 개미의 금빛 날개
2017-03-26 23:34:39	jms3206:[토시오]	성공	[905836716]+10뱀파이어의 망토
2017-03-26 23:34:53	jms3206:[토시오]	실패	[905836635]+7유니콘의 지식 각반
2017-03-26 23:34:54	jms3206:[토시오]	성공	[905835976]+8유니콘의 지식 각반
2017-03-26 23:34:55	jms3206:[토시오]	실패	[905833551]+7유니콘의 지식 각반
2017-03-26 23:34:56	jms3206:[토시오]	실패	[905834588]+7유니콘의 지식 각반
2017-03-26 23:34:56	jms3206:[토시오]	실패	[905835228]+7유니콘의 지식 각반
2017-03-26 23:34:58	jms3206:[토시오]	성공	[905835976]+9유니콘의 지식 각반
2017-03-26 23:35:07	jms3206:[토시오]	성공	[905833506]+8빛나는 마력의 장갑
2017-03-26 23:35:08	jms3206:[토시오]	실패	[905834561]+7빛나는 마력의 장갑
2017-03-26 23:35:08	jms3206:[토시오]	성공	[905835161]+8빛나는 마력의 장갑
2017-03-26 23:35:09	jms3206:[토시오]	실패	[905835967]+7빛나는 마력의 장갑
2017-03-26 23:35:10	jms3206:[토시오]	실패	[905836655]+7빛나는 마력의 장갑
2017-03-26 23:35:11	jms3206:[토시오]	실패	[905833430]+7지휘관의 투구
2017-03-26 23:35:11	jms3206:[토시오]	성공	[905834519]+9흑기사의 면갑
2017-03-26 23:35:12	jms3206:[토시오]	실패	[905835187]+8흑기사의 면갑
2017-03-26 23:35:13	jms3206:[토시오]	실패	[905835928]+8흑기사의 면갑
2017-03-26 23:35:13	jms3206:[토시오]	실패	[905836616]+8흑기사의 면갑
2017-03-26 23:35:15	jms3206:[토시오]	실패	[905833506]+8빛나는 마력의 장갑
2017-03-26 23:35:16	jms3206:[토시오]	실패	[905835161]+8빛나는 마력의 장갑
2017-03-26 23:35:17	jms3206:[토시오]	실패	[905833349]+7반역자의 방패
2017-03-26 23:35:17	jms3206:[토시오]	성공	[905834470]+8반역자의 방패
2017-03-26 23:35:18	jms3206:[토시오]	성공	[905835132]+8반역자의 방패
2017-03-26 23:35:19	jms3206:[토시오]	실패	[905835886]+7반역자의 방패
2017-03-26 23:35:19	jms3206:[토시오]	실패	[905836584]+7반역자의 방패
2017-03-26 23:35:24	jms3206:[토시오]	성공	[905835132]+9반역자의 방패
2017-03-26 23:35:25	jms3206:[토시오]	실패	[905834470]+8반역자의 방패
2017-03-26 23:45:05	kobongsu:[데스나이트]	성공	[905833823]+8거대 여왕 개미의 은빛 날개
2017-03-26 23:45:06	kobongsu:[데스나이트]	실패	[905833823]+8거대 여왕 개미의 은빛 날개
2017-03-26 23:45:14	kobongsu:[데스나이트]	실패	[905832124]+7발라카스의 예지력
2017-03-26 23:45:16	kobongsu:[데스나이트]	성공	[905832932]+8발라카스의 예지력
2017-03-26 23:45:17	kobongsu:[데스나이트]	성공	[905833454]+8발라카스의 예지력
2017-03-26 23:45:20	kobongsu:[데스나이트]	실패	[905834224]+7발라카스의 예지력
2017-03-26 23:45:21	kobongsu:[데스나이트]	실패	[905834814]+7발라카스의 예지력
2017-03-26 23:45:22	kobongsu:[데스나이트]	성공	[905835321]+8발라카스의 예지력
2017-03-26 23:45:24	kobongsu:[데스나이트]	성공	[905836628]+8발라카스의 완력
2017-03-26 23:45:25	kobongsu:[데스나이트]	성공	[905837097]+8발라카스의 예지력
2017-03-26 23:45:26	kobongsu:[데스나이트]	성공	[905837976]+8발라카스의 예지력
2017-03-26 23:45:27	kobongsu:[데스나이트]	실패	[905838642]+7발라카스의 예지력
2017-03-26 23:45:29	kobongsu:[데스나이트]	실패	[905839339]+7발라카스의 예지력
2017-03-26 23:45:30	kobongsu:[데스나이트]	성공	[905840022]+8발라카스의 예지력
2017-03-26 23:45:32	kobongsu:[데스나이트]	실패	[905840702]+7발라카스의 예지력
2017-03-26 23:45:34	kobongsu:[데스나이트]	실패	[905841389]+7발라카스의 예지력
2017-03-26 23:45:35	kobongsu:[데스나이트]	실패	[905842018]+7발라카스의 예지력
2017-03-26 23:45:36	kobongsu:[데스나이트]	성공	[905842572]+8발라카스의 예지력
2017-03-26 23:45:40	kobongsu:[데스나이트]	실패	[905843253]+7발라카스의 예지력
2017-03-26 23:45:41	kobongsu:[데스나이트]	성공	[905843880]+8발라카스의 예지력
2017-03-26 23:45:44	kobongsu:[데스나이트]	실패	[905832932]+8발라카스의 예지력
2017-03-26 23:45:46	kobongsu:[데스나이트]	실패	[905833454]+8발라카스의 예지력
2017-03-26 23:45:47	kobongsu:[데스나이트]	실패	[905835321]+8발라카스의 예지력
2017-03-26 23:45:49	kobongsu:[데스나이트]	실패	[905836628]+8발라카스의 완력
2017-03-26 23:45:50	kobongsu:[데스나이트]	실패	[905837097]+8발라카스의 예지력
2017-03-26 23:45:52	kobongsu:[데스나이트]	실패	[905837976]+8발라카스의 예지력
2017-03-26 23:45:54	kobongsu:[데스나이트]	성공	[905840022]+9발라카스의 예지력
2017-03-26 23:45:56	kobongsu:[데스나이트]	실패	[905842572]+8발라카스의 예지력
2017-03-26 23:45:57	kobongsu:[데스나이트]	실패	[905843880]+8발라카스의 예지력
2017-03-26 23:46:18	kobongsu:[데스나이트]	실패	[905772466]+10파푸리온의 인내력
2017-03-26 23:46:51	kobongsu:[데스나이트]	실패	[905832187]+7신성한 마법 방어 투구
2017-03-26 23:46:52	kobongsu:[데스나이트]	실패	[905833500]+7신성한 마법 방어 투구
2017-03-26 23:46:53	kobongsu:[데스나이트]	성공	[905834274]+8신성한 마법 방어 투구
2017-03-26 23:46:54	kobongsu:[데스나이트]	실패	[905834883]+7신성한 마법 방어 투구
2017-03-26 23:46:55	kobongsu:[데스나이트]	실패	[905835416]+7신성한 마법 방어 투구
2017-03-26 23:46:55	kobongsu:[데스나이트]	성공	[905836706]+8신성한 마법 방어 투구
2017-03-26 23:46:56	kobongsu:[데스나이트]	성공	[905837280]+8신성한 마법 방어 투구
2017-03-26 23:46:57	kobongsu:[데스나이트]	성공	[905838033]+8신성한 마법 방어 투구
2017-03-26 23:46:57	kobongsu:[데스나이트]	실패	[905838723]+7신성한 마법 방어 투구
2017-03-26 23:46:58	kobongsu:[데스나이트]	실패	[905840137]+7신성한 마법 방어 투구
2017-03-26 23:46:59	kobongsu:[데스나이트]	성공	[905839459]+8신성한 마법 방어 투구
2017-03-26 23:47:00	kobongsu:[데스나이트]	실패	[905840772]+7신성한 마법 방어 투구
2017-03-26 23:47:00	kobongsu:[데스나이트]	실패	[905841467]+7신성한 마법 방어 투구
2017-03-26 23:47:01	kobongsu:[데스나이트]	실패	[905842061]+7신성한 마법 방어 투구
2017-03-26 23:47:02	kobongsu:[데스나이트]	성공	[905842651]+8신성한 마법 방어 투구
2017-03-26 23:47:03	kobongsu:[데스나이트]	실패	[905843389]+7신성한 마법 방어 투구
2017-03-26 23:47:03	kobongsu:[데스나이트]	실패	[905843977]+7신성한 마법 방어 투구
2017-03-26 23:47:06	kobongsu:[데스나이트]	실패	[905834274]+8신성한 마법 방어 투구
2017-03-26 23:47:07	kobongsu:[데스나이트]	실패	[905836706]+8신성한 마법 방어 투구
2017-03-26 23:47:07	kobongsu:[데스나이트]	성공	[905837280]+9신성한 마법 방어 투구
2017-03-26 23:47:08	kobongsu:[데스나이트]	성공	[905838033]+9신성한 마법 방어 투구
2017-03-26 23:47:09	kobongsu:[데스나이트]	성공	[905839459]+9신성한 마법 방어 투구
2017-03-26 23:47:10	kobongsu:[데스나이트]	실패	[905842651]+8신성한 마법 방어 투구
2017-03-26 23:47:11	kobongsu:[데스나이트]	실패	[905837280]+9신성한 마법 방어 투구
2017-03-26 23:47:12	kobongsu:[데스나이트]	성공	[905838033]+10신성한 마법 방어 투구
2017-03-26 23:47:14	kobongsu:[데스나이트]	성공	[905839459]+10신성한 마법 방어 투구
2017-03-26 23:47:16	kobongsu:[데스나이트]	성공	[905838033]+11신성한 마법 방어 투구
2017-03-26 23:47:17	kobongsu:[데스나이트]	성공	[905839459]+11신성한 마법 방어 투구
2017-03-26 23:47:18	kobongsu:[데스나이트]	실패	[905838033]+11신성한 마법 방어 투구
2017-03-26 23:47:23	kobongsu:[데스나이트]	성공	[905766983]+10신성한 마법 방어 투구
2017-03-26 23:47:25	kobongsu:[데스나이트]	실패	[905766983]+10신성한 마법 방어 투구
2017-03-26 23:47:36	kobongsu:[데스나이트]	실패	[905833604]+7수호성의 파워 글로브
2017-03-26 23:47:37	kobongsu:[데스나이트]	실패	[905834398]+7수호성의 파워 글로브
2017-03-26 23:47:38	kobongsu:[데스나이트]	성공	[905834939]+8수호성의 파워 글로브
2017-03-26 23:47:38	kobongsu:[데스나이트]	실패	[905835451]+7수호성의 파워 글로브
2017-03-26 23:47:39	kobongsu:[데스나이트]	성공	[905836674]+8수호성의 파워 글로브
2017-03-26 23:47:40	kobongsu:[데스나이트]	실패	[905837183]+7수호성의 파워 글로브
2017-03-26 23:47:41	kobongsu:[데스나이트]	실패	[905838080]+7수호성의 파워 글로브
2017-03-26 23:47:41	kobongsu:[데스나이트]	성공	[905838699]+8수호성의 파워 글로브
2017-03-26 23:47:42	kobongsu:[데스나이트]	실패	[905839435]+7수호성의 파워 글로브
2017-03-26 23:47:42	kobongsu:[데스나이트]	실패	[905840089]+7수호성의 파워 글로브
2017-03-26 23:47:43	kobongsu:[데스나이트]	성공	[905840801]+8수호성의 파워 글로브
2017-03-26 23:47:43	kobongsu:[데스나이트]	실패	[905841445]+7수호성의 파워 글로브
2017-03-26 23:47:44	kobongsu:[데스나이트]	실패	[905842089]+7수호성의 파워 글로브
2017-03-26 23:47:45	kobongsu:[데스나이트]	실패	[905842686]+7수호성의 파워 글로브
2017-03-26 23:47:45	kobongsu:[데스나이트]	실패	[905843320]+7수호성의 파워 글로브
2017-03-26 23:47:46	kobongsu:[데스나이트]	실패	[905843929]+7수호성의 파워 글로브
2017-03-26 23:47:47	kobongsu:[데스나이트]	실패	[905834939]+8수호성의 파워 글로브
2017-03-26 23:47:47	kobongsu:[데스나이트]	실패	[905836674]+8수호성의 파워 글로브
2017-03-26 23:47:48	kobongsu:[데스나이트]	실패	[905838699]+8수호성의 파워 글로브
2017-03-26 23:47:49	kobongsu:[데스나이트]	성공	[905840801]+9수호성의 파워 글로브
2017-03-26 23:47:49	kobongsu:[데스나이트]	성공	[905840801]+10수호성의 파워 글로브
2017-03-26 23:47:57	kobongsu:[데스나이트]	실패	[905840801]+10수호성의 파워 글로브
2017-03-26 23:48:00	kobongsu:[데스나이트]	성공	[905833776]+8타라스의 부츠
2017-03-26 23:48:01	kobongsu:[데스나이트]	실패	[905834327]+7타라스의 부츠
2017-03-26 23:48:01	kobongsu:[데스나이트]	실패	[905834962]+7타라스의 부츠
2017-03-26 23:48:02	kobongsu:[데스나이트]	실패	[905835513]+7타라스의 부츠
2017-03-26 23:48:02	kobongsu:[데스나이트]	실패	[905836730]+7타라스의 부츠
2017-03-26 23:48:03	kobongsu:[데스나이트]	성공	[905837239]+8타라스의 부츠
2017-03-26 23:48:04	kobongsu:[데스나이트]	실패	[905838123]+7타라스의 부츠
2017-03-26 23:48:04	kobongsu:[데스나이트]	실패	[905838777]+7타라스의 부츠
2017-03-26 23:48:05	kobongsu:[데스나이트]	실패	[905840167]+7타라스의 부츠
2017-03-26 23:48:05	kobongsu:[데스나이트]	실패	[905839485]+7타라스의 부츠
2017-03-26 23:48:06	kobongsu:[데스나이트]	실패	[905841507]+7타라스의 부츠
2017-03-26 23:48:06	kobongsu:[데스나이트]	실패	[905840849]+7타라스의 부츠
2017-03-26 23:48:07	kobongsu:[데스나이트]	실패	[905842728]+7타라스의 부츠
2017-03-26 23:48:07	kobongsu:[데스나이트]	성공	[905842124]+8타라스의 부츠
2017-03-26 23:48:08	kobongsu:[데스나이트]	실패	[905843359]+7타라스의 부츠
2017-03-26 23:48:08	kobongsu:[데스나이트]	성공	[905844006]+8타라스의 부츠
2017-03-26 23:48:09	kobongsu:[데스나이트]	성공	[905833776]+9타라스의 부츠
2017-03-26 23:48:09	kobongsu:[데스나이트]	성공	[905837239]+9타라스의 부츠
2017-03-26 23:48:10	kobongsu:[데스나이트]	실패	[905842124]+8타라스의 부츠
2017-03-26 23:48:10	kobongsu:[데스나이트]	성공	[905844006]+9타라스의 부츠
2017-03-26 23:48:12	kobongsu:[데스나이트]	실패	[905833776]+9타라스의 부츠
2017-03-26 23:48:14	kobongsu:[데스나이트]	성공	[905837239]+10타라스의 부츠
2017-03-26 23:48:17	kobongsu:[데스나이트]	실패	[905844006]+9타라스의 부츠
2017-03-26 23:53:53	kobongsu:[데스나이트]	성공	[905850109]+1룸티스의 검은빛 귀걸이
2017-03-26 23:53:54	kobongsu:[데스나이트]	성공	[905850115]+1룸티스의 검은빛 귀걸이
2017-03-26 23:53:54	kobongsu:[데스나이트]	성공	[905850117]+1룸티스의 검은빛 귀걸이
2017-03-26 23:53:55	kobongsu:[데스나이트]	성공	[905850122]+1룸티스의붉은빛귀걸이
2017-03-26 23:53:56	kobongsu:[데스나이트]	성공	[905850127]+1룸티스의붉은빛귀걸이
2017-03-26 23:53:56	kobongsu:[데스나이트]	성공	[905850140]+1룸티스의붉은빛귀걸이
2017-03-26 23:53:56	kobongsu:[데스나이트]	성공	[905850142]+1룸티스의붉은빛귀걸이
2017-03-26 23:53:57	kobongsu:[데스나이트]	성공	[905850144]+1룸티스의붉은빛귀걸이
2017-03-26 23:53:58	kobongsu:[데스나이트]	성공	[905850147]+1룸티스의붉은빛귀걸이
2017-03-26 23:53:58	kobongsu:[데스나이트]	성공	[905850150]+1룸티스의붉은빛귀걸이
2017-03-26 23:53:58	kobongsu:[데스나이트]	성공	[905850153]+1룸티스의붉은빛귀걸이
2017-03-26 23:53:59	kobongsu:[데스나이트]	성공	[905850156]+1룸티스의붉은빛귀걸이
2017-03-26 23:54:00	kobongsu:[데스나이트]	성공	[905850165]+1룸티스의붉은빛귀걸이
2017-03-26 23:54:00	kobongsu:[데스나이트]	성공	[905850168]+1룸티스의붉은빛귀걸이
2017-03-26 23:54:01	kobongsu:[데스나이트]	성공	[905850173]+1룸티스의붉은빛귀걸이
2017-03-26 23:54:01	kobongsu:[데스나이트]	성공	[905850176]+1룸티스의붉은빛귀걸이
2017-03-26 23:54:02	kobongsu:[데스나이트]	성공	[905850185]+1룸티스의붉은빛귀걸이
2017-03-26 23:54:02	kobongsu:[데스나이트]	성공	[905850195]+1룸티스의붉은빛귀걸이
2017-03-26 23:54:02	kobongsu:[데스나이트]	성공	[905850198]+1룸티스의붉은빛귀걸이
2017-03-26 23:54:03	kobongsu:[데스나이트]	성공	[905850201]+1룸티스의붉은빛귀걸이
2017-03-26 23:54:03	kobongsu:[데스나이트]	성공	[905850207]+1룸티스의붉은빛귀걸이
2017-03-26 23:54:04	kobongsu:[데스나이트]	성공	[905850211]+1룸티스의붉은빛귀걸이
2017-03-26 23:54:04	kobongsu:[데스나이트]	성공	[905850221]+1룸티스의붉은빛귀걸이
2017-03-26 23:54:04	kobongsu:[데스나이트]	성공	[905850227]+1룸티스의 검은빛 귀걸이
2017-03-26 23:54:05	kobongsu:[데스나이트]	성공	[905850230]+1룸티스의 검은빛 귀걸이
2017-03-26 23:54:06	kobongsu:[데스나이트]	성공	[905850234]+1룸티스의 검은빛 귀걸이
2017-03-26 23:54:06	kobongsu:[데스나이트]	성공	[905850237]+1룸티스의 검은빛 귀걸이
2017-03-26 23:54:06	kobongsu:[데스나이트]	성공	[905850243]+1룸티스의 검은빛 귀걸이
2017-03-26 23:54:08	kobongsu:[데스나이트]	성공	[905850251]+1룸티스의 검은빛 귀걸이
2017-03-26 23:54:08	kobongsu:[데스나이트]	성공	[905850256]+1룸티스의 검은빛 귀걸이
2017-03-26 23:54:08	kobongsu:[데스나이트]	성공	[905850261]+1룸티스의 검은빛 귀걸이
2017-03-26 23:54:09	kobongsu:[데스나이트]	성공	[905850264]+1룸티스의 검은빛 귀걸이
2017-03-26 23:54:10	kobongsu:[데스나이트]	성공	[905850276]+1룸티스의 검은빛 귀걸이
2017-03-26 23:54:10	kobongsu:[데스나이트]	성공	[905850283]+1룸티스의 검은빛 귀걸이
2017-03-26 23:54:11	kobongsu:[데스나이트]	성공	[905850286]+1룸티스의 검은빛 귀걸이
2017-03-26 23:54:11	kobongsu:[데스나이트]	성공	[905850291]+1룸티스의 검은빛 귀걸이
2017-03-26 23:54:12	kobongsu:[데스나이트]	성공	[905850304]+1룸티스의 검은빛 귀걸이
2017-03-26 23:54:12	kobongsu:[데스나이트]	성공	[905850316]+1룸티스의 검은빛 귀걸이
2017-03-26 23:54:12	kobongsu:[데스나이트]	성공	[905850327]+1룸티스의 검은빛 귀걸이
2017-03-26 23:54:13	kobongsu:[데스나이트]	성공	[905850341]+1룸티스의 검은빛 귀걸이
2017-03-26 23:54:15	kobongsu:[데스나이트]	성공	[905850109]+2룸티스의 검은빛 귀걸이
2017-03-26 23:54:15	kobongsu:[데스나이트]	성공	[905850115]+2룸티스의 검은빛 귀걸이
2017-03-26 23:54:16	kobongsu:[데스나이트]	성공	[905850117]+2룸티스의 검은빛 귀걸이
2017-03-26 23:54:16	kobongsu:[데스나이트]	성공	[905850122]+2룸티스의붉은빛귀걸이
2017-03-26 23:54:17	kobongsu:[데스나이트]	성공	[905850127]+2룸티스의붉은빛귀걸이
2017-03-26 23:54:17	kobongsu:[데스나이트]	성공	[905850140]+2룸티스의붉은빛귀걸이
2017-03-26 23:54:17	kobongsu:[데스나이트]	성공	[905850142]+2룸티스의붉은빛귀걸이
2017-03-26 23:54:18	kobongsu:[데스나이트]	성공	[905850144]+2룸티스의붉은빛귀걸이
2017-03-26 23:54:18	kobongsu:[데스나이트]	성공	[905850147]+2룸티스의붉은빛귀걸이
2017-03-26 23:54:19	kobongsu:[데스나이트]	성공	[905850150]+2룸티스의붉은빛귀걸이
2017-03-26 23:54:19	kobongsu:[데스나이트]	성공	[905850153]+2룸티스의붉은빛귀걸이
2017-03-26 23:54:20	kobongsu:[데스나이트]	성공	[905850156]+2룸티스의붉은빛귀걸이
2017-03-26 23:54:21	kobongsu:[데스나이트]	성공	[905850165]+2룸티스의붉은빛귀걸이
2017-03-26 23:54:21	kobongsu:[데스나이트]	성공	[905850168]+2룸티스의붉은빛귀걸이
2017-03-26 23:54:21	kobongsu:[데스나이트]	성공	[905850173]+2룸티스의붉은빛귀걸이
2017-03-26 23:54:22	kobongsu:[데스나이트]	성공	[905850176]+2룸티스의붉은빛귀걸이
2017-03-26 23:54:22	kobongsu:[데스나이트]	성공	[905850201]+2룸티스의붉은빛귀걸이
2017-03-26 23:54:22	kobongsu:[데스나이트]	성공	[905850198]+2룸티스의붉은빛귀걸이
2017-03-26 23:54:23	kobongsu:[데스나이트]	성공	[905850195]+2룸티스의붉은빛귀걸이
2017-03-26 23:54:24	kobongsu:[데스나이트]	성공	[905850185]+2룸티스의붉은빛귀걸이
2017-03-26 23:54:24	kobongsu:[데스나이트]	성공	[905850207]+2룸티스의붉은빛귀걸이
2017-03-26 23:54:24	kobongsu:[데스나이트]	성공	[905850211]+2룸티스의붉은빛귀걸이
2017-03-26 23:54:25	kobongsu:[데스나이트]	성공	[905850221]+2룸티스의붉은빛귀걸이
2017-03-26 23:54:25	kobongsu:[데스나이트]	성공	[905850227]+2룸티스의 검은빛 귀걸이
2017-03-26 23:54:26	kobongsu:[데스나이트]	성공	[905850230]+2룸티스의 검은빛 귀걸이
2017-03-26 23:54:27	kobongsu:[데스나이트]	성공	[905850234]+2룸티스의 검은빛 귀걸이
2017-03-26 23:54:27	kobongsu:[데스나이트]	성공	[905850237]+2룸티스의 검은빛 귀걸이
2017-03-26 23:54:27	kobongsu:[데스나이트]	성공	[905850243]+2룸티스의 검은빛 귀걸이
2017-03-26 23:54:28	kobongsu:[데스나이트]	성공	[905850251]+2룸티스의 검은빛 귀걸이
2017-03-26 23:54:28	kobongsu:[데스나이트]	성공	[905850256]+2룸티스의 검은빛 귀걸이
2017-03-26 23:54:28	kobongsu:[데스나이트]	성공	[905850261]+2룸티스의 검은빛 귀걸이
2017-03-26 23:54:29	kobongsu:[데스나이트]	성공	[905850264]+2룸티스의 검은빛 귀걸이
2017-03-26 23:54:31	kobongsu:[데스나이트]	성공	[905850276]+2룸티스의 검은빛 귀걸이
2017-03-26 23:54:32	kobongsu:[데스나이트]	성공	[905850283]+2룸티스의 검은빛 귀걸이
2017-03-26 23:54:32	kobongsu:[데스나이트]	성공	[905850286]+2룸티스의 검은빛 귀걸이
2017-03-26 23:54:33	kobongsu:[데스나이트]	성공	[905850291]+2룸티스의 검은빛 귀걸이
2017-03-26 23:54:33	kobongsu:[데스나이트]	성공	[905850304]+2룸티스의 검은빛 귀걸이
2017-03-26 23:54:34	kobongsu:[데스나이트]	성공	[905850316]+2룸티스의 검은빛 귀걸이
2017-03-26 23:54:34	kobongsu:[데스나이트]	성공	[905850327]+2룸티스의 검은빛 귀걸이
2017-03-26 23:54:34	kobongsu:[데스나이트]	성공	[905850341]+2룸티스의 검은빛 귀걸이
2017-03-26 23:54:39	kobongsu:[데스나이트]	실패	[905850109]+2룸티스의 검은빛 귀걸이
2017-03-26 23:54:40	kobongsu:[데스나이트]	성공	[905850117]+3룸티스의 검은빛 귀걸이
2017-03-26 23:54:41	kobongsu:[데스나이트]	성공	[905850115]+3룸티스의 검은빛 귀걸이
2017-03-26 23:54:42	kobongsu:[데스나이트]	성공	[905850122]+3룸티스의붉은빛귀걸이
2017-03-26 23:54:42	kobongsu:[데스나이트]	실패	[905850127]+2룸티스의붉은빛귀걸이
2017-03-26 23:54:43	kobongsu:[데스나이트]	성공	[905850140]+3룸티스의붉은빛귀걸이
2017-03-26 23:54:44	kobongsu:[데스나이트]	성공	[905850142]+3룸티스의붉은빛귀걸이
2017-03-26 23:54:45	kobongsu:[데스나이트]	실패	[905850144]+2룸티스의붉은빛귀걸이
2017-03-26 23:54:45	kobongsu:[데스나이트]	성공	[905850147]+3룸티스의붉은빛귀걸이
2017-03-26 23:54:46	kobongsu:[데스나이트]	성공	[905850150]+3룸티스의붉은빛귀걸이
2017-03-26 23:54:46	kobongsu:[데스나이트]	성공	[905850153]+3룸티스의붉은빛귀걸이
2017-03-26 23:54:47	kobongsu:[데스나이트]	실패	[905850156]+2룸티스의붉은빛귀걸이
2017-03-26 23:54:48	kobongsu:[데스나이트]	성공	[905850165]+3룸티스의붉은빛귀걸이
2017-03-26 23:54:49	kobongsu:[데스나이트]	실패	[905850168]+2룸티스의붉은빛귀걸이
2017-03-26 23:54:49	kobongsu:[데스나이트]	성공	[905850173]+3룸티스의붉은빛귀걸이
2017-03-26 23:54:50	kobongsu:[데스나이트]	성공	[905850176]+3룸티스의붉은빛귀걸이
2017-03-26 23:54:50	kobongsu:[데스나이트]	성공	[905850185]+3룸티스의붉은빛귀걸이
2017-03-26 23:54:52	kobongsu:[데스나이트]	성공	[905850195]+3룸티스의붉은빛귀걸이
2017-03-26 23:54:52	kobongsu:[데스나이트]	성공	[905850198]+3룸티스의붉은빛귀걸이
2017-03-26 23:54:53	kobongsu:[데스나이트]	성공	[905850201]+3룸티스의붉은빛귀걸이
2017-03-26 23:54:53	kobongsu:[데스나이트]	성공	[905850207]+3룸티스의붉은빛귀걸이
2017-03-26 23:54:54	kobongsu:[데스나이트]	성공	[905850211]+3룸티스의붉은빛귀걸이
2017-03-26 23:54:55	kobongsu:[데스나이트]	성공	[905850221]+3룸티스의붉은빛귀걸이
2017-03-26 23:54:55	kobongsu:[데스나이트]	실패	[905850227]+2룸티스의 검은빛 귀걸이
2017-03-26 23:54:56	kobongsu:[데스나이트]	성공	[905850230]+3룸티스의 검은빛 귀걸이
2017-03-26 23:54:57	kobongsu:[데스나이트]	성공	[905850234]+3룸티스의 검은빛 귀걸이
2017-03-26 23:55:00	kobongsu:[데스나이트]	성공	[905850237]+3룸티스의 검은빛 귀걸이
2017-03-26 23:55:01	kobongsu:[데스나이트]	실패	[905850243]+2룸티스의 검은빛 귀걸이
2017-03-26 23:55:01	kobongsu:[데스나이트]	성공	[905850251]+3룸티스의 검은빛 귀걸이
2017-03-26 23:55:03	kobongsu:[데스나이트]	성공	[905850256]+3룸티스의 검은빛 귀걸이
2017-03-26 23:55:04	kobongsu:[데스나이트]	성공	[905850261]+3룸티스의 검은빛 귀걸이
2017-03-26 23:55:06	kobongsu:[데스나이트]	성공	[905850264]+3룸티스의 검은빛 귀걸이
2017-03-26 23:55:06	kobongsu:[데스나이트]	성공	[905850276]+3룸티스의 검은빛 귀걸이
2017-03-26 23:55:07	kobongsu:[데스나이트]	성공	[905850283]+3룸티스의 검은빛 귀걸이
2017-03-26 23:55:07	kobongsu:[데스나이트]	성공	[905850286]+3룸티스의 검은빛 귀걸이
2017-03-26 23:55:09	kobongsu:[데스나이트]	실패	[905850291]+2룸티스의 검은빛 귀걸이
2017-03-26 23:55:09	kobongsu:[데스나이트]	성공	[905850316]+3룸티스의 검은빛 귀걸이
2017-03-26 23:55:10	kobongsu:[데스나이트]	성공	[905850304]+3룸티스의 검은빛 귀걸이
2017-03-26 23:55:10	kobongsu:[데스나이트]	성공	[905850327]+3룸티스의 검은빛 귀걸이
2017-03-26 23:55:11	kobongsu:[데스나이트]	성공	[905850341]+3룸티스의 검은빛 귀걸이
2017-03-26 23:55:14	kobongsu:[데스나이트]	실패	[905850115]+3룸티스의 검은빛 귀걸이
2017-03-26 23:55:14	kobongsu:[데스나이트]	성공	[905850117]+4룸티스의 검은빛 귀걸이
2017-03-26 23:55:15	kobongsu:[데스나이트]	실패	[905850122]+3룸티스의붉은빛귀걸이
2017-03-26 23:55:15	kobongsu:[데스나이트]	성공	[905850140]+4룸티스의붉은빛귀걸이
2017-03-26 23:55:16	kobongsu:[데스나이트]	실패	[905850142]+3룸티스의붉은빛귀걸이
2017-03-26 23:55:17	kobongsu:[데스나이트]	실패	[905850147]+3룸티스의붉은빛귀걸이
2017-03-26 23:55:17	kobongsu:[데스나이트]	실패	[905850150]+3룸티스의붉은빛귀걸이
2017-03-26 23:55:19	kobongsu:[데스나이트]	성공	[905850153]+4룸티스의붉은빛귀걸이
2017-03-26 23:55:22	kobongsu:[데스나이트]	성공	[905850165]+4룸티스의붉은빛귀걸이
2017-03-26 23:55:23	kobongsu:[데스나이트]	성공	[905850173]+4룸티스의붉은빛귀걸이
2017-03-26 23:55:24	kobongsu:[데스나이트]	실패	[905850176]+3룸티스의붉은빛귀걸이
2017-03-26 23:55:25	kobongsu:[데스나이트]	실패	[905850185]+3룸티스의붉은빛귀걸이
2017-03-26 23:55:25	kobongsu:[데스나이트]	실패	[905850195]+3룸티스의붉은빛귀걸이
2017-03-26 23:55:26	kobongsu:[데스나이트]	실패	[905850198]+3룸티스의붉은빛귀걸이
2017-03-26 23:55:27	kobongsu:[데스나이트]	실패	[905850201]+3룸티스의붉은빛귀걸이
2017-03-26 23:55:27	kobongsu:[데스나이트]	실패	[905850207]+3룸티스의붉은빛귀걸이
2017-03-26 23:55:28	kobongsu:[데스나이트]	성공	[905850211]+4룸티스의붉은빛귀걸이
2017-03-26 23:55:29	kobongsu:[데스나이트]	실패	[905850221]+3룸티스의붉은빛귀걸이
2017-03-26 23:55:30	kobongsu:[데스나이트]	성공	[905850230]+4룸티스의 검은빛 귀걸이
2017-03-26 23:55:30	kobongsu:[데스나이트]	성공	[905850234]+4룸티스의 검은빛 귀걸이
2017-03-26 23:55:32	kobongsu:[데스나이트]	성공	[905850237]+4룸티스의 검은빛 귀걸이
2017-03-26 23:55:32	kobongsu:[데스나이트]	성공	[905850251]+4룸티스의 검은빛 귀걸이
2017-03-26 23:55:33	kobongsu:[데스나이트]	실패	[905850256]+3룸티스의 검은빛 귀걸이
2017-03-26 23:55:33	kobongsu:[데스나이트]	성공	[905850261]+4룸티스의 검은빛 귀걸이
2017-03-26 23:55:34	kobongsu:[데스나이트]	성공	[905850264]+4룸티스의 검은빛 귀걸이
2017-03-26 23:55:34	jms3206:[토시오]	성공	[905753549]+6노예의 귀걸이
2017-03-26 23:55:35	kobongsu:[데스나이트]	성공	[905850276]+4룸티스의 검은빛 귀걸이
2017-03-26 23:55:36	jms3206:[토시오]	성공	[905753549]+5노예의 귀걸이
2017-03-26 23:55:36	kobongsu:[데스나이트]	실패	[905850283]+3룸티스의 검은빛 귀걸이
2017-03-26 23:55:36	kobongsu:[데스나이트]	실패	[905850286]+3룸티스의 검은빛 귀걸이
2017-03-26 23:55:37	jms3206:[토시오]	성공	[905753549]+4노예의 귀걸이
2017-03-26 23:55:37	kobongsu:[데스나이트]	실패	[905850304]+3룸티스의 검은빛 귀걸이
2017-03-26 23:55:38	kobongsu:[데스나이트]	성공	[905850316]+4룸티스의 검은빛 귀걸이
2017-03-26 23:55:38	jms3206:[토시오]	성공	[905753549]+3노예의 귀걸이
2017-03-26 23:55:38	kobongsu:[데스나이트]	실패	[905850327]+3룸티스의 검은빛 귀걸이
2017-03-26 23:55:39	jms3206:[토시오]	성공	[905753549]+4노예의 귀걸이
2017-03-26 23:55:39	kobongsu:[데스나이트]	성공	[905850341]+4룸티스의 검은빛 귀걸이
2017-03-26 23:55:40	jms3206:[토시오]	성공	[905753549]+3노예의 귀걸이
2017-03-26 23:55:41	jms3206:[토시오]	성공	[905753549]+4노예의 귀걸이
2017-03-26 23:55:41	kobongsu:[데스나이트]	실패	[905850117]+4룸티스의 검은빛 귀걸이
2017-03-26 23:55:42	jms3206:[토시오]	성공	[905753549]+3노예의 귀걸이
2017-03-26 23:55:42	kobongsu:[데스나이트]	실패	[905850140]+4룸티스의붉은빛귀걸이
2017-03-26 23:55:43	kobongsu:[데스나이트]	실패	[905850153]+4룸티스의붉은빛귀걸이
2017-03-26 23:55:43	jms3206:[토시오]	성공	[905753549]+4노예의 귀걸이
2017-03-26 23:55:44	kobongsu:[데스나이트]	실패	[905850165]+4룸티스의붉은빛귀걸이
2017-03-26 23:55:44	kobongsu:[데스나이트]	실패	[905850173]+4룸티스의붉은빛귀걸이
2017-03-26 23:55:45	jms3206:[토시오]	성공	[905753549]+5노예의 귀걸이
2017-03-26 23:55:45	kobongsu:[데스나이트]	성공	[905850211]+5룸티스의붉은빛귀걸이
2017-03-26 23:55:46	kobongsu:[데스나이트]	실패	[905850230]+4룸티스의 검은빛 귀걸이
2017-03-26 23:55:46	jms3206:[토시오]	성공	[905753549]+6노예의 귀걸이
2017-03-26 23:55:46	kobongsu:[데스나이트]	성공	[905850234]+5룸티스의 검은빛 귀걸이
2017-03-26 23:55:47	kobongsu:[데스나이트]	실패	[905850237]+4룸티스의 검은빛 귀걸이
2017-03-26 23:55:47	jms3206:[토시오]	성공	[905774481]+4기백의 반지
2017-03-26 23:55:48	kobongsu:[데스나이트]	실패	[905850251]+4룸티스의 검은빛 귀걸이
2017-03-26 23:55:48	kobongsu:[데스나이트]	실패	[905850261]+4룸티스의 검은빛 귀걸이
2017-03-26 23:55:49	kobongsu:[데스나이트]	성공	[905850264]+5룸티스의 검은빛 귀걸이
2017-03-26 23:55:49	jms3206:[토시오]	성공	[905775225]+4기백의 반지
2017-03-26 23:55:50	kobongsu:[데스나이트]	성공	[905850276]+5룸티스의 검은빛 귀걸이
2017-03-26 23:55:50	jms3206:[토시오]	성공	[905753574]+6투사의 목걸이
2017-03-26 23:55:51	kobongsu:[데스나이트]	성공	[905850316]+5룸티스의 검은빛 귀걸이
2017-03-26 23:55:51	kobongsu:[데스나이트]	실패	[905850341]+4룸티스의 검은빛 귀걸이
2017-03-26 23:55:52	jms3206:[토시오]	성공	[905754011]+4에이션트 자이언트의 반지
2017-03-26 23:55:53	kobongsu:[데스나이트]	실패	[905850211]+5룸티스의붉은빛귀걸이
2017-03-26 23:55:53	jms3206:[토시오]	성공	[905754011]+3에이션트 자이언트의 반지
2017-03-26 23:55:53	kobongsu:[데스나이트]	실패	[905850234]+5룸티스의 검은빛 귀걸이
2017-03-26 23:55:54	kobongsu:[데스나이트]	성공	[905850264]+6룸티스의 검은빛 귀걸이
2017-03-26 23:55:54	jms3206:[토시오]	성공	[905754011]+2에이션트 자이언트의 반지
2017-03-26 23:55:55	kobongsu:[데스나이트]	실패	[905850276]+5룸티스의 검은빛 귀걸이
2017-03-26 23:55:55	jms3206:[토시오]	성공	[905754011]+1에이션트 자이언트의 반지
2017-03-26 23:55:55	kobongsu:[데스나이트]	성공	[905850316]+6룸티스의 검은빛 귀걸이
2017-03-26 23:55:56	jms3206:[토시오]	성공	[905754011]+2에이션트 자이언트의 반지
2017-03-26 23:55:56	kobongsu:[데스나이트]	성공	[905850316]+7룸티스의 검은빛 귀걸이
2017-03-26 23:55:57	kobongsu:[데스나이트]	실패	[905850264]+6룸티스의 검은빛 귀걸이
2017-03-26 23:55:57	jms3206:[토시오]	성공	[905754011]+1에이션트 자이언트의 반지
2017-03-26 23:55:58	jms3206:[토시오]	성공	[905754011]+2에이션트 자이언트의 반지
2017-03-26 23:56:00	jms3206:[토시오]	성공	[905754011]+3에이션트 자이언트의 반지
2017-03-26 23:56:01	jms3206:[토시오]	성공	[905754011]+4에이션트 자이언트의 반지
2017-03-26 23:56:02	jms3206:[토시오]	성공	[905754011]+3에이션트 자이언트의 반지
2017-03-26 23:56:03	jms3206:[토시오]	성공	[905754011]+2에이션트 자이언트의 반지
2017-03-26 23:56:04	jms3206:[토시오]	성공	[905754011]+1에이션트 자이언트의 반지
2017-03-26 23:56:05	jms3206:[토시오]	성공	[905754011]+2에이션트 자이언트의 반지
2017-03-26 23:56:06	jms3206:[토시오]	성공	[905754011]+3에이션트 자이언트의 반지
2017-03-26 23:56:08	jms3206:[토시오]	성공	[905754011]+2에이션트 자이언트의 반지
2017-03-26 23:56:09	jms3206:[토시오]	성공	[905754011]+3에이션트 자이언트의 반지
2017-03-26 23:56:10	jms3206:[토시오]	성공	[905754011]+2에이션트 자이언트의 반지
2017-03-26 23:56:11	jms3206:[토시오]	성공	[905754011]+3에이션트 자이언트의 반지
2017-03-26 23:56:12	jms3206:[토시오]	성공	[905754011]+2에이션트 자이언트의 반지
2017-03-26 23:56:14	jms3206:[토시오]	성공	[905754011]+3에이션트 자이언트의 반지
2017-03-26 23:56:15	jms3206:[토시오]	성공	[905754011]+2에이션트 자이언트의 반지
2017-03-26 23:56:16	jms3206:[토시오]	성공	[905754011]+3에이션트 자이언트의 반지
2017-03-26 23:56:17	jms3206:[토시오]	성공	[905754011]+2에이션트 자이언트의 반지
2017-03-26 23:56:18	jms3206:[토시오]	성공	[905754011]+3에이션트 자이언트의 반지
2017-03-26 23:56:19	jms3206:[토시오]	성공	[905754011]+4에이션트 자이언트의 반지
2017-03-26 23:56:20	jms3206:[토시오]	성공	[905754011]+3에이션트 자이언트의 반지
2017-03-26 23:56:21	jms3206:[토시오]	성공	[905754011]+2에이션트 자이언트의 반지
2017-03-26 23:56:22	jms3206:[토시오]	성공	[905754011]+3에이션트 자이언트의 반지
2017-03-26 23:56:24	jms3206:[토시오]	성공	[905775225]+3기백의 반지
2017-03-26 23:56:25	jms3206:[토시오]	성공	[905774481]+3기백의 반지
2017-03-26 23:56:26	jms3206:[토시오]	성공	[905775225]+2기백의 반지
2017-03-26 23:56:27	jms3206:[토시오]	성공	[905774481]+2기백의 반지
2017-03-26 23:56:28	jms3206:[토시오]	성공	[905775225]+3기백의 반지
2017-03-26 23:56:29	jms3206:[토시오]	성공	[905774481]+1기백의 반지
2017-03-26 23:56:30	jms3206:[토시오]	성공	[905774481]+2기백의 반지
2017-03-26 23:56:31	jms3206:[토시오]	성공	[905774481]+3기백의 반지
2017-03-26 23:56:33	jms3206:[토시오]	성공	[905754011]+2에이션트 자이언트의 반지
2017-03-26 23:56:35	jms3206:[토시오]	성공	[905754011]+1에이션트 자이언트의 반지
2017-03-26 23:56:36	jms3206:[토시오]	성공	[905754011]+2에이션트 자이언트의 반지
2017-03-26 23:56:37	jms3206:[토시오]	성공	[905754011]+3에이션트 자이언트의 반지
2017-03-26 23:56:38	jms3206:[토시오]	성공	[905754011]+4에이션트 자이언트의 반지
2017-03-26 23:56:39	jms3206:[토시오]	성공	[905754011]+5에이션트 자이언트의 반지
2017-03-26 23:58:11	jms3206:[토시오]	성공	[905775225]+2기백의 반지
2017-03-26 23:58:12	jms3206:[토시오]	성공	[905775225]+3기백의 반지
2017-03-26 23:58:13	jms3206:[토시오]	성공	[905775225]+2기백의 반지
2017-03-26 23:58:14	jms3206:[토시오]	성공	[905774481]+2기백의 반지
2017-03-26 23:58:15	jms3206:[토시오]	성공	[905775225]+3기백의 반지
2017-03-26 23:58:16	jms3206:[토시오]	성공	[905775225]+2기백의 반지
2017-03-26 23:58:17	jms3206:[토시오]	성공	[905775225]+1기백의 반지
2017-03-26 23:58:18	jms3206:[토시오]	성공	[905775225]+2기백의 반지
2017-03-26 23:58:20	jms3206:[토시오]	성공	[905775225]+3기백의 반지
2017-03-26 23:58:21	jms3206:[토시오]	성공	[905775225]+2기백의 반지
2017-03-26 23:58:22	jms3206:[토시오]	성공	[905775225]+3기백의 반지
2017-03-26 23:58:23	jms3206:[토시오]	성공	[905775225]+4기백의 반지
2017-03-26 23:58:24	jms3206:[토시오]	성공	[905774481]+3기백의 반지
2017-03-26 23:58:25	jms3206:[토시오]	성공	[905774481]+4기백의 반지
2017-03-26 23:58:26	jms3206:[토시오]	성공	[905774481]+3기백의 반지
2017-03-26 23:58:27	jms3206:[토시오]	성공	[905775225]+3기백의 반지
2017-03-26 23:58:29	jms3206:[토시오]	성공	[905775225]+4기백의 반지
2017-03-26 23:58:30	jms3206:[토시오]	성공	[905774481]+2기백의 반지
2017-03-26 23:58:31	jms3206:[토시오]	성공	[905774481]+1기백의 반지
2017-03-26 23:58:32	jms3206:[토시오]	성공	[905774481]+2기백의 반지
2017-03-26 23:58:33	jms3206:[토시오]	성공	[905774481]+1기백의 반지
2017-03-26 23:58:34	jms3206:[토시오]	성공	[905774481]+2기백의 반지
2017-03-26 23:58:35	jms3206:[토시오]	성공	[905774481]+1기백의 반지
2017-03-26 23:58:36	jms3206:[토시오]	성공	[905774481]+2기백의 반지
2017-03-26 23:58:38	jms3206:[토시오]	성공	[905774481]+3기백의 반지
2017-03-26 23:58:39	jms3206:[토시오]	성공	[905774481]+2기백의 반지
2017-03-26 23:58:40	jms3206:[토시오]	성공	[905774481]+3기백의 반지
2017-03-26 23:58:41	jms3206:[토시오]	성공	[905774481]+2기백의 반지
2017-03-26 23:58:42	jms3206:[토시오]	성공	[905774481]+3기백의 반지
2017-03-26 23:58:43	jms3206:[토시오]	성공	[905774481]+2기백의 반지
2017-03-26 23:58:44	jms3206:[토시오]	성공	[905774481]+1기백의 반지
2017-03-26 23:58:45	jms3206:[토시오]	성공	[905774481]+2기백의 반지
2017-03-26 23:58:46	jms3206:[토시오]	성공	[905774481]+3기백의 반지
2017-03-26 23:58:47	jms3206:[토시오]	성공	[905774481]+2기백의 반지
2017-03-26 23:58:48	jms3206:[토시오]	성공	[905774481]+3기백의 반지
2017-03-26 23:58:49	jms3206:[토시오]	성공	[905774481]+2기백의 반지
2017-03-26 23:58:50	jms3206:[토시오]	성공	[905774481]+3기백의 반지
2017-03-26 23:58:52	jms3206:[토시오]	성공	[905774481]+4기백의 반지
2017-03-26 23:58:53	jms3206:[토시오]	성공	[905774481]+3기백의 반지
2017-03-26 23:58:54	jms3206:[토시오]	성공	[905775225]+5기백의 반지
2017-03-26 23:58:55	jms3206:[토시오]	성공	[905774481]+2기백의 반지
2017-03-26 23:58:56	jms3206:[토시오]	성공	[905774481]+3기백의 반지
2017-03-26 23:58:58	jms3206:[토시오]	성공	[905774481]+2기백의 반지
2017-03-26 23:58:59	jms3206:[토시오]	성공	[905774481]+3기백의 반지
2017-03-26 23:59:00	jms3206:[토시오]	성공	[905774481]+4기백의 반지
2017-03-26 23:59:00	kobongsu:[데스나이트]	성공	[905852936]+1룸티스의붉은빛귀걸이
2017-03-26 23:59:01	kobongsu:[데스나이트]	성공	[905852940]+1룸티스의붉은빛귀걸이
2017-03-26 23:59:01	jms3206:[토시오]	성공	[905774481]+5기백의 반지
2017-03-26 23:59:01	kobongsu:[데스나이트]	성공	[905852945]+1룸티스의붉은빛귀걸이
2017-03-26 23:59:02	kobongsu:[데스나이트]	성공	[905852954]+1룸티스의붉은빛귀걸이
2017-03-26 23:59:02	kobongsu:[데스나이트]	성공	[905852959]+1룸티스의붉은빛귀걸이
2017-03-26 23:59:03	jms3206:[토시오]	성공	[905774481]+4기백의 반지
2017-03-26 23:59:03	kobongsu:[데스나이트]	성공	[905852967]+1룸티스의붉은빛귀걸이
2017-03-26 23:59:03	kobongsu:[데스나이트]	성공	[905852972]+1룸티스의붉은빛귀걸이
2017-03-26 23:59:04	jms3206:[토시오]	성공	[905775225]+4기백의 반지
2017-03-26 23:59:04	kobongsu:[데스나이트]	성공	[905852975]+1룸티스의붉은빛귀걸이
2017-03-26 23:59:04	kobongsu:[데스나이트]	성공	[905852980]+1룸티스의붉은빛귀걸이
2017-03-26 23:59:04	kobongsu:[데스나이트]	성공	[905852987]+1룸티스의붉은빛귀걸이
2017-03-26 23:59:05	kobongsu:[데스나이트]	성공	[905852992]+1룸티스의붉은빛귀걸이
2017-03-26 23:59:05	jms3206:[토시오]	성공	[905754011]+4에이션트 자이언트의 반지
2017-03-26 23:59:06	kobongsu:[데스나이트]	성공	[905852998]+1룸티스의붉은빛귀걸이
2017-03-26 23:59:06	jms3206:[토시오]	성공	[905754011]+5에이션트 자이언트의 반지
2017-03-26 23:59:06	kobongsu:[데스나이트]	성공	[905853006]+1룸티스의붉은빛귀걸이
2017-03-26 23:59:07	kobongsu:[데스나이트]	성공	[905853008]+1룸티스의붉은빛귀걸이
2017-03-26 23:59:07	kobongsu:[데스나이트]	성공	[905853011]+1룸티스의붉은빛귀걸이
2017-03-26 23:59:07	kobongsu:[데스나이트]	성공	[905853025]+1룸티스의붉은빛귀걸이
2017-03-26 23:59:08	kobongsu:[데스나이트]	성공	[905853022]+1룸티스의붉은빛귀걸이
2017-03-26 23:59:08	kobongsu:[데스나이트]	성공	[905853020]+1룸티스의붉은빛귀걸이
2017-03-26 23:59:08	kobongsu:[데스나이트]	성공	[905853013]+1룸티스의붉은빛귀걸이
2017-03-26 23:59:09	kobongsu:[데스나이트]	성공	[905853032]+1룸티스의붉은빛귀걸이
2017-03-26 23:59:09	kobongsu:[데스나이트]	성공	[905853038]+1룸티스의붉은빛귀걸이
2017-03-26 23:59:10	kobongsu:[데스나이트]	성공	[905853044]+1룸티스의붉은빛귀걸이
2017-03-26 23:59:10	kobongsu:[데스나이트]	성공	[905853048]+1룸티스의붉은빛귀걸이
2017-03-26 23:59:11	kobongsu:[데스나이트]	성공	[905853051]+1룸티스의붉은빛귀걸이
2017-03-26 23:59:11	jms3206:[토시오]	성공	[905775225]+5기백의 반지
2017-03-26 23:59:11	kobongsu:[데스나이트]	성공	[905853054]+1룸티스의붉은빛귀걸이
2017-03-26 23:59:11	kobongsu:[데스나이트]	성공	[905853057]+1룸티스의붉은빛귀걸이
2017-03-26 23:59:12	kobongsu:[데스나이트]	성공	[905853068]+1룸티스의붉은빛귀걸이
2017-03-26 23:59:12	jms3206:[토시오]	성공	[905774481]+5기백의 반지
2017-03-26 23:59:12	kobongsu:[데스나이트]	성공	[905853073]+1룸티스의붉은빛귀걸이
2017-03-26 23:59:13	kobongsu:[데스나이트]	성공	[905853077]+1룸티스의붉은빛귀걸이
2017-03-26 23:59:13	kobongsu:[데스나이트]	성공	[905853082]+1룸티스의붉은빛귀걸이
2017-03-26 23:59:13	jms3206:[토시오]	성공	[905774481]+4기백의 반지
2017-03-26 23:59:13	kobongsu:[데스나이트]	성공	[905853086]+1룸티스의붉은빛귀걸이
2017-03-26 23:59:14	kobongsu:[데스나이트]	성공	[905853090]+1룸티스의붉은빛귀걸이
2017-03-26 23:59:14	kobongsu:[데스나이트]	성공	[905853098]+1룸티스의붉은빛귀걸이
2017-03-26 23:59:14	jms3206:[토시오]	성공	[905775225]+4기백의 반지
2017-03-26 23:59:15	kobongsu:[데스나이트]	성공	[905853109]+1룸티스의붉은빛귀걸이
2017-03-26 23:59:15	kobongsu:[데스나이트]	성공	[905853118]+1룸티스의붉은빛귀걸이
2017-03-26 23:59:16	jms3206:[토시오]	성공	[905754011]+6에이션트 자이언트의 반지
2017-03-26 23:59:16	kobongsu:[데스나이트]	성공	[905853121]+1룸티스의붉은빛귀걸이
2017-03-26 23:59:17	kobongsu:[데스나이트]	성공	[905853126]+1룸티스의붉은빛귀걸이
2017-03-26 23:59:17	jms3206:[토시오]	성공	[905775225]+3기백의 반지
2017-03-26 23:59:17	kobongsu:[데스나이트]	성공	[905853131]+1룸티스의붉은빛귀걸이
2017-03-26 23:59:17	kobongsu:[데스나이트]	성공	[905853137]+1룸티스의붉은빛귀걸이
2017-03-26 23:59:18	jms3206:[토시오]	성공	[905774481]+5기백의 반지
2017-03-26 23:59:18	kobongsu:[데스나이트]	성공	[905853139]+1룸티스의붉은빛귀걸이
2017-03-26 23:59:18	kobongsu:[데스나이트]	성공	[905853142]+1룸티스의붉은빛귀걸이
2017-03-26 23:59:19	kobongsu:[데스나이트]	성공	[905853146]+1룸티스의붉은빛귀걸이
2017-03-26 23:59:19	jms3206:[토시오]	성공	[905775225]+4기백의 반지
2017-03-26 23:59:19	kobongsu:[데스나이트]	성공	[905853156]+1룸티스의붉은빛귀걸이
2017-03-26 23:59:20	jms3206:[토시오]	성공	[905775225]+3기백의 반지
2017-03-26 23:59:21	kobongsu:[데스나이트]	성공	[905853158]+1룸티스의붉은빛귀걸이
2017-03-26 23:59:21	jms3206:[토시오]	성공	[905775225]+4기백의 반지
2017-03-26 23:59:21	kobongsu:[데스나이트]	성공	[905853162]+1룸티스의붉은빛귀걸이
2017-03-26 23:59:21	kobongsu:[데스나이트]	성공	[905853167]+1룸티스의붉은빛귀걸이
2017-03-26 23:59:22	kobongsu:[데스나이트]	성공	[905853175]+1룸티스의붉은빛귀걸이
2017-03-26 23:59:22	jms3206:[토시오]	성공	[905775225]+3기백의 반지
2017-03-26 23:59:23	kobongsu:[데스나이트]	성공	[905853178]+1룸티스의붉은빛귀걸이
2017-03-26 23:59:23	kobongsu:[데스나이트]	성공	[905853182]+1룸티스의붉은빛귀걸이
2017-03-26 23:59:23	jms3206:[토시오]	성공	[905775225]+4기백의 반지
2017-03-26 23:59:23	kobongsu:[데스나이트]	성공	[905853186]+1룸티스의붉은빛귀걸이
2017-03-26 23:59:24	jms3206:[토시오]	성공	[905775225]+5기백의 반지
2017-03-26 23:59:25	jms3206:[토시오]	성공	[905775225]+4기백의 반지
2017-03-26 23:59:25	kobongsu:[데스나이트]	성공	[905852936]+2룸티스의붉은빛귀걸이
2017-03-26 23:59:26	kobongsu:[데스나이트]	성공	[905852940]+2룸티스의붉은빛귀걸이
2017-03-26 23:59:26	kobongsu:[데스나이트]	성공	[905852945]+2룸티스의붉은빛귀걸이
2017-03-26 23:59:26	jms3206:[토시오]	성공	[905774481]+4기백의 반지
2017-03-26 23:59:27	kobongsu:[데스나이트]	성공	[905852954]+2룸티스의붉은빛귀걸이
2017-03-26 23:59:27	kobongsu:[데스나이트]	성공	[905852959]+2룸티스의붉은빛귀걸이
2017-03-26 23:59:27	kobongsu:[데스나이트]	성공	[905852967]+2룸티스의붉은빛귀걸이
2017-03-26 23:59:28	jms3206:[토시오]	성공	[905775225]+5기백의 반지
2017-03-26 23:59:28	kobongsu:[데스나이트]	성공	[905852972]+2룸티스의붉은빛귀걸이
2017-03-26 23:59:28	kobongsu:[데스나이트]	성공	[905852975]+2룸티스의붉은빛귀걸이
