2016-11-23 18:53:49	버리기	mbcznvx:[메티스]	[294644929]기술서 (쇼크 스턴)(1)
2016-11-23 18:53:50	줍기	mbcznvx1:[아하]	[294644929]기술서 (쇼크 스턴)(1)
2016-11-23 18:53:53	버리기	mbcznvx:[메티스]	[293773417]\aH진명황의 집행검
2016-11-23 18:53:55	줍기	mbcznvx1:[아하]	[293773417]\aH진명황의 집행검
2016-11-23 18:54:26	버리기	mbcznvx:[메티스]	[294644945]나이트발드의 양손검
2016-11-23 18:54:27	줍기	mbcznvx1:[아하]	[294644945]나이트발드의 양손검
2016-11-23 18:54:39	버리기	mbcznvx:[메티스]	[294644951]양손검
2016-11-23 18:54:40	줍기	mbcznvx1:[아하]	[294644951]양손검
2016-11-23 18:57:45	삭제	mbcznvx:[메티스]	[294644991]+9커츠의 투사 휘장
2016-11-23 19:12:04	버리기	mbcznvx:[메티스]	[294644990]+7커츠의 투사 휘장
2016-11-23 19:12:05	줍기	mbcznvx1:[전사다]	[294644990]+7커츠의 투사 휘장
2016-11-23 19:12:29	버리기	mbcznvx:[메티스]	[294644994]+8커츠의 투사 휘장
2016-11-23 19:12:30	줍기	mbcznvx1:[전사다]	[294644994]+8커츠의 투사 휘장
2016-11-23 19:12:43	버리기	mbcznvx:[메티스]	[294645079]도끼
2016-11-23 19:12:43	줍기	mbcznvx1:[전사다]	[294645079]도끼
2016-11-23 19:13:04	버리기	mbcznvx:[메티스]	[294645080]태풍의 도끼
2016-11-23 19:13:05	줍기	mbcznvx1:[전사다]	[294645080]태풍의 도끼
