2016-09-28 02:25:05	버리기	qkswkd2:[메티스]	[296454123]537
2016-09-28 02:29:28	버리기	qkswkd2:[메티스]	[296454285]양초
2016-09-28 02:29:38	버리기	qkswkd2:[메티스]	[296454079]상아탑 마법의 정수(1)
2016-09-28 02:29:40	줍기	qkswkd2:[메티스]	[296454079]상아탑 마법의 정수(1)
2016-09-28 02:29:51	버리기	qkswkd2:[메티스]	[296454079]상아탑 마법의 정수(1)
2016-09-28 19:15:58	버리기	qkswkd2:[메티스]	[296596229]성장의 낚시세트(1)
