2016-11-30 01:15:44	외침	[멧]	ㅋㅋ
2016-11-30 02:27:14	외침	[맷]	ㅇㅇ
2016-11-30 02:30:00	외침	[맷]	ㅋㅋ
2016-11-30 02:30:33	외침	[맷]	ㅋㅋ
2016-11-30 02:34:40	외침	[맷]	ㅋㅋ
2016-11-30 02:35:19	외침	[맷]	ㄷㄷ
2016-11-30 02:35:35	외침	[맷]	ㅋㅋ
2016-11-30 02:35:37	외침	[맷]	과부하 지리네
2016-11-30 02:37:09	외침	[맷]	ㅋㅋ
2016-11-30 07:25:10	외침	[맷]	ㅋㅇㄹㅋㅇ
2016-11-30 07:25:11	외침	[맷]	ㅋㅇㄹㅋ
2016-11-30 07:25:11	외침	[맷]	ㅂㅈㄷㅂ
2016-11-30 07:25:12	외침	[맷]	ㄴㅇㄻ
2016-11-30 07:25:12	외침	[맷]	ㅇㄻㄴㅇ
2016-11-30 07:25:12	외침	[맷]	ㄻㄴ
2016-11-30 07:25:12	외침	[맷]	ㄻㄴㅇㄹ
2016-11-30 07:25:12	외침	[맷]	ㅁㄴㄹ
2016-11-30 07:25:13	외침	[맷]	ㅁㄴㅇ
2016-11-30 07:25:13	외침	[맷]	ㄻㄴㅇ
2016-11-30 07:25:13	외침	[맷]	ㄻㄴㅇ
2016-11-30 07:25:13	외침	[맷]	ㄹ
2016-11-30 07:25:13	외침	[맷]	ㅁㄴㅇ
2016-11-30 07:25:13	외침	[맷]	ㄹ
2016-11-30 07:25:13	외침	[맷]	ㅁㄴㅇㄻ
2016-11-30 07:25:14	외침	[맷]	ㄴㅇㄹ
2016-11-30 07:25:14	외침	[맷]	ㅁㅇㄴ
2016-11-30 07:25:14	외침	[맷]	ㄹ
2016-11-30 07:25:14	외침	[맷]	ㅁㅇㄴㄹ
2016-11-30 07:25:14	외침	[맷]	ㅁㄴㅇㄻㄴㅇㄹ
2016-11-30 07:25:14	외침	[맷]	ㅁㅇ
2016-11-30 07:25:15	외침	[맷]	ㄹ
2016-11-30 08:58:16	외침	[끝]	ㅋㅋㅋ
2016-11-30 23:38:28	외침	[끝]	ㅇㅇ
