2016-09-30 00:21:46	접속 캐릭=메티스	계정=qkswkd2	IP=127.0.0.1
2016-09-30 00:28:16	접속 캐릭=메티스	계정=qkswkd2	IP=127.0.0.1
2016-09-30 00:36:37	종료 캐릭=메티스 계정=qkswkd2 IP=127.0.0.1
2016-09-30 00:41:36	접속 캐릭=메티스	계정=qkswkd2	IP=127.0.0.1
2016-09-30 00:43:31	접속 캐릭=메티스	계정=qkswkd2	IP=127.0.0.1
2016-09-30 01:08:42	접속 캐릭=메티스	계정=qkswkd2	IP=127.0.0.1
2016-09-30 01:09:26	종료 캐릭=메티스 계정=qkswkd2 IP=127.0.0.1
2016-09-30 01:11:09	접속 캐릭=메티스	계정=qkswkd2	IP=127.0.0.1
2016-09-30 01:14:41	접속 캐릭=극탱	계정=pab123	IP=218.147.160.138
2016-09-30 01:18:30	종료 캐릭=극탱 계정=pab123 IP=218.147.160.138
2016-09-30 01:18:37	접속 캐릭=극요	계정=pab123	IP=218.147.160.138
2016-09-30 01:37:52	접속 캐릭=메티스	계정=qkswkd2	IP=127.0.0.1
2016-09-30 01:39:39	접속 캐릭=극요	계정=pab123	IP=218.147.160.138
2016-09-30 01:42:39	종료 캐릭=극요 계정=pab123 IP=218.147.160.138
2016-09-30 01:42:44	접속 캐릭=극요	계정=pab123	IP=218.147.160.138
2016-09-30 01:44:58	종료 캐릭=메티스 계정=qkswkd2 IP=127.0.0.1
2016-09-30 01:45:02	접속 캐릭=메티스	계정=qkswkd2	IP=127.0.0.1
2016-09-30 01:49:36	접속 캐릭=딜딜	계정=pab112	IP=218.147.160.138
2016-09-30 02:09:15	접속 캐릭=극요	계정=pab123	IP=218.147.160.138
2016-09-30 02:09:17	접속 캐릭=메티스	계정=qkswkd2	IP=127.0.0.1
2016-09-30 02:18:08	접속 캐릭=메티스	계정=qkswkd2	IP=127.0.0.1
2016-09-30 02:18:18	접속 캐릭=극탱	계정=pab123	IP=218.147.160.138
2016-09-30 02:18:51	접속 캐릭=딜딜	계정=pab112	IP=218.147.160.138
2016-09-30 02:22:04	접속 캐릭=다엘다엘	계정=qkswkd3	IP=127.0.0.1
2016-09-30 02:33:58	접속 캐릭=메티스	계정=qkswkd2	IP=127.0.0.1
2016-09-30 02:34:23	접속 캐릭=다엘다엘	계정=qkswkd3	IP=127.0.0.1
2016-09-30 02:36:19	종료 캐릭=메티스 계정=qkswkd2 IP=127.0.0.1
2016-09-30 02:38:17	접속 캐릭=메티스	계정=qkswkd2	IP=127.0.0.1
2016-09-30 02:38:47	접속 캐릭=다엘다엘	계정=qkswkd3	IP=127.0.0.1
2016-09-30 02:39:49	접속 캐릭=극탱	계정=pab123	IP=218.147.160.138
2016-09-30 02:40:39	접속 캐릭=딜딜	계정=pab112	IP=218.147.160.138
2016-09-30 03:50:28	접속 캐릭=손담비	계정=xotqj11	IP=192.168.0.1
2016-09-30 03:52:28	접속 캐릭=장비	계정=minwok2824	IP=1.242.212.205
2016-09-30 03:53:35	접속 캐릭=손담비	계정=xotjq11	IP=192.168.0.1
2016-09-30 03:56:24	접속 캐릭=헤라클레스	계정=kswon1029	IP=220.124.72.146
2016-09-30 04:00:16	접속 캐릭=장비	계정=minwok2824	IP=1.242.212.205
2016-09-30 04:02:39	접속 캐릭=장비	계정=minwok2824	IP=1.242.212.205
2016-09-30 04:02:49	접속 캐릭=헤라클레스	계정=kswon1029	IP=220.124.72.146
2016-09-30 04:03:00	접속 캐릭=손담비	계정=xotjq11	IP=192.168.0.1
2016-09-30 04:03:29	종료 캐릭=손담비 계정=xotjq11 IP=192.168.0.1
2016-09-30 04:04:09	접속 캐릭=손담비	계정=xotjq11	IP=192.168.0.1
2016-09-30 04:04:22	종료 캐릭=손담비 계정=xotjq11 IP=192.168.0.1
2016-09-30 04:05:48	접속 캐릭=메티스	계정=xotqj11	IP=192.168.0.1
2016-09-30 04:11:08	종료 캐릭=장비 계정=minwok2824 IP=1.242.212.205
2016-09-30 04:11:12	접속 캐릭=장비	계정=minwok2824	IP=1.242.212.205
2016-09-30 04:14:31	접속 캐릭=장비	계정=minwok2824	IP=1.242.212.205
2016-09-30 04:14:57	접속 캐릭=헤라클레스	계정=kswon1029	IP=220.124.72.146
2016-09-30 04:16:10	접속 캐릭=메티스	계정=xotqj11	IP=192.168.0.1
2016-09-30 04:16:53	종료 캐릭=장비 계정=minwok2824 IP=1.242.212.205
2016-09-30 04:17:40	접속 캐릭=장비	계정=minwok2824	IP=1.242.212.205
2016-09-30 04:21:33	종료 캐릭=헤라클레스 계정=kswon1029 IP=220.124.72.146
2016-09-30 04:21:38	종료 캐릭=장비 계정=minwok2824 IP=1.242.212.205
2016-09-30 04:28:03	접속 캐릭=헤라클레스	계정=kswon1029	IP=220.124.72.146
2016-09-30 04:52:57	접속 캐릭=장비	계정=minwok2824	IP=1.242.212.205
2016-09-30 05:00:34	종료 캐릭=헤라클레스 계정=kswon1029 IP=220.124.72.146
2016-09-30 05:01:52	종료 캐릭=장비 계정=minwok2824 IP=1.242.212.205
2016-09-30 05:06:11	접속 캐릭=메티스	계정=xotqj11	IP=192.168.0.1
2016-09-30 05:14:20	접속 캐릭=장비	계정=minwok2824	IP=1.242.212.205
2016-09-30 05:24:38	종료 캐릭=장비 계정=minwok2824 IP=1.242.212.205
2016-09-30 05:25:17	접속 캐릭=장비	계정=minwok2824	IP=1.242.212.205
2016-09-30 05:26:12	종료 캐릭=장비 계정=minwok2824 IP=1.242.212.205
2016-09-30 05:26:26	접속 캐릭=관우	계정=minwok2824	IP=1.242.212.205
2016-09-30 05:29:51	종료 캐릭=메티스 계정=xotqj11 IP=192.168.0.1
2016-09-30 05:30:06	종료 캐릭=관우 계정=minwok2824 IP=1.242.212.205
2016-09-30 05:30:32	접속 캐릭=메티스	계정=xotqj11	IP=192.168.0.1
2016-09-30 05:30:45	접속 캐릭=관우	계정=minwok2824	IP=1.242.212.205
2016-09-30 05:36:00	종료 캐릭=관우 계정=minwok2824 IP=1.242.212.205
2016-09-30 05:36:05	접속 캐릭=관우	계정=minwok2824	IP=1.242.212.205
2016-09-30 05:40:03	종료 캐릭=관우 계정=minwok2824 IP=1.242.212.205
2016-09-30 05:41:30	접속 캐릭=관우	계정=minwok2824	IP=1.242.212.205
2016-09-30 05:46:24	종료 캐릭=메티스 계정=xotqj11 IP=192.168.0.1
2016-09-30 05:47:01	접속 캐릭=메티스	계정=xotqj11	IP=192.168.0.1
2016-09-30 05:54:04	종료 캐릭=메티스 계정=xotqj11 IP=192.168.0.1
2016-09-30 05:54:08	접속 캐릭=메티스	계정=xotqj11	IP=192.168.0.1
2016-09-30 06:05:51	종료 캐릭=메티스 계정=xotqj11 IP=192.168.0.1
2016-09-30 06:06:26	접속 캐릭=메티스	계정=xotqj11	IP=192.168.0.1
2016-09-30 06:07:36	종료 캐릭=메티스 계정=xotqj11 IP=192.168.0.1
2016-09-30 06:08:02	접속 캐릭=메티스	계정=xotqj11	IP=192.168.0.1
2016-09-30 07:09:36	종료 캐릭=관우 계정=minwok2824 IP=1.242.212.205
2016-09-30 07:09:40	접속 캐릭=장비	계정=minwok2824	IP=1.242.212.205
2016-09-30 07:18:55	접속 캐릭=꼬미	계정=kokoa1	IP=58.236.41.26
2016-09-30 07:19:59	종료 캐릭=메티스 계정=xotqj11 IP=192.168.0.1
2016-09-30 07:20:59	접속 캐릭=메티스	계정=xotqj11	IP=121.164.6.165
2016-09-30 07:21:08	종료 캐릭=메티스 계정=xotqj11 IP=121.164.6.165
2016-09-30 07:21:33	접속 캐릭=메티스	계정=xotqj11	IP=121.164.6.165
2016-09-30 07:21:45	종료 캐릭=메티스 계정=xotqj11 IP=121.164.6.165
2016-09-30 07:22:14	접속 캐릭=손담비	계정=xotjq11	IP=121.164.6.165
2016-09-30 07:22:14	종료 캐릭=손담비 계정=xotjq11 IP=121.164.6.165
2016-09-30 07:22:27	종료 캐릭=장비 계정=minwok2824 IP=1.242.212.205
2016-09-30 07:22:32	접속 캐릭=장비	계정=minwok2824	IP=1.242.212.205
2016-09-30 07:23:10	접속 캐릭=손담비	계정=xotjq11	IP=121.164.6.165
2016-09-30 07:24:40	종료 캐릭=손담비 계정=xotjq11 IP=121.164.6.165
2016-09-30 07:24:48	접속 캐릭=메티스	계정=xotqj11	IP=121.164.6.165
2016-09-30 07:31:34	종료 캐릭=장비 계정=minwok2824 IP=1.242.212.205
2016-09-30 07:32:10	접속 캐릭=장비	계정=minwok2824	IP=1.242.212.205
2016-09-30 07:33:03	종료 캐릭=메티스 계정=xotqj11 IP=121.164.6.165
2016-09-30 07:33:31	접속 캐릭=메티스	계정=xotqj11	IP=121.164.6.165
2016-09-30 07:42:42	종료 캐릭=장비 계정=minwok2824 IP=1.242.212.205
2016-09-30 07:43:20	접속 캐릭=장비	계정=minwok2824	IP=1.242.212.205
2016-09-30 07:53:08	종료 캐릭=메티스 계정=xotqj11 IP=121.164.6.165
2016-09-30 07:53:44	접속 캐릭=손담비비	계정=xotjq11	IP=121.164.6.165
2016-09-30 07:57:56	종료 캐릭=손담비비 계정=xotjq11 IP=121.164.6.165
2016-09-30 07:58:05	접속 캐릭=메티스	계정=xotqj11	IP=121.164.6.165
2016-09-30 07:58:34	종료 캐릭=메티스 계정=xotqj11 IP=121.164.6.165
2016-09-30 07:58:42	접속 캐릭=손담비	계정=xotjq11	IP=121.164.6.165
2016-09-30 07:58:43	종료 캐릭=손담비 계정=xotjq11 IP=121.164.6.165
2016-09-30 07:58:45	접속 캐릭=손담비비	계정=xotjq11	IP=121.164.6.165
2016-09-30 07:59:13	종료 캐릭=손담비비 계정=xotjq11 IP=121.164.6.165
2016-09-30 07:59:18	접속 캐릭=손담비비	계정=xotjq11	IP=121.164.6.165
2016-09-30 07:59:24	종료 캐릭=꼬미 계정=kokoa1 IP=58.236.41.26
2016-09-30 08:02:21	접속 캐릭=꼬미	계정=kokoa1	IP=58.236.41.26
2016-09-30 08:03:08	종료 캐릭=꼬미 계정=kokoa1 IP=58.236.41.26
2016-09-30 08:04:31	접속 캐릭=꼬미	계정=kokoa1	IP=58.236.41.26
2016-09-30 08:10:03	종료 캐릭=꼬미 계정=kokoa1 IP=58.236.41.26
2016-09-30 08:11:08	접속 캐릭=꼬미	계정=kokoa1	IP=58.236.41.26
2016-09-30 08:14:26	종료 캐릭=꼬미 계정=kokoa1 IP=58.236.41.26
2016-09-30 08:16:09	접속 캐릭=꼬미	계정=kokoa1	IP=58.236.41.26
2016-09-30 08:16:46	종료 캐릭=꼬미 계정=kokoa1 IP=58.236.41.26
2016-09-30 08:16:51	접속 캐릭=꼬미	계정=kokoa1	IP=58.236.41.26
2016-09-30 08:22:28	종료 캐릭=꼬미 계정=kokoa1 IP=58.236.41.26
2016-09-30 08:22:32	종료 캐릭=손담비비 계정=xotjq11 IP=121.164.6.165
2016-09-30 08:22:43	접속 캐릭=메티스	계정=xotqj11	IP=121.164.6.165
2016-09-30 08:23:16	접속 캐릭=꼬꼬마	계정=rhal11	IP=58.236.41.26
2016-09-30 08:24:18	종료 캐릭=꼬꼬마 계정=rhal11 IP=58.236.41.26
2016-09-30 08:25:09	접속 캐릭=유나	계정=rhal11	IP=58.236.41.26
2016-09-30 08:25:21	종료 캐릭=유나 계정=rhal11 IP=58.236.41.26
2016-09-30 08:25:23	접속 캐릭=마루	계정=rhal11	IP=58.236.41.26
2016-09-30 08:25:40	종료 캐릭=마루 계정=rhal11 IP=58.236.41.26
2016-09-30 08:25:42	접속 캐릭=뭉치	계정=rhal11	IP=58.236.41.26
2016-09-30 08:25:43	종료 캐릭=메티스 계정=xotqj11 IP=121.164.6.165
2016-09-30 08:25:53	종료 캐릭=뭉치 계정=rhal11 IP=58.236.41.26
2016-09-30 08:25:56	접속 캐릭=마루	계정=rhal11	IP=58.236.41.26
2016-09-30 08:26:14	접속 캐릭=메티스	계정=xotqj11	IP=121.164.6.165
2016-09-30 08:26:32	종료 캐릭=마루 계정=rhal11 IP=58.236.41.26
2016-09-30 08:26:34	종료 캐릭=메티스 계정=xotqj11 IP=121.164.6.165
2016-09-30 08:26:44	접속 캐릭=꼬꼬마	계정=rhal11	IP=121.164.6.165
2016-09-30 08:26:46	접속 캐릭=꼬미	계정=kokoa1	IP=58.236.41.26
2016-09-30 08:27:04	종료 캐릭=꼬꼬마 계정=rhal11 IP=121.164.6.165
2016-09-30 08:27:06	접속 캐릭=유나	계정=rhal11	IP=121.164.6.165
2016-09-30 08:42:52	종료 캐릭=유나 계정=rhal11 IP=121.164.6.165
2016-09-30 08:42:56	접속 캐릭=마루	계정=rhal11	IP=121.164.6.165
2016-09-30 08:57:10	종료 캐릭=장비 계정=minwok2824 IP=1.242.212.205
2016-09-30 08:57:15	접속 캐릭=관우	계정=minwok2824	IP=1.242.212.205
2016-09-30 08:57:18	종료 캐릭=마루 계정=rhal11 IP=121.164.6.165
2016-09-30 08:57:21	접속 캐릭=꼬꼬마	계정=rhal11	IP=121.164.6.165
2016-09-30 09:12:39	종료 캐릭=꼬미 계정=kokoa1 IP=58.236.41.26
2016-09-30 09:12:44	종료 캐릭=꼬꼬마 계정=rhal11 IP=121.164.6.165
2016-09-30 09:12:55	접속 캐릭=메티스	계정=xotqj11	IP=121.164.6.165
2016-09-30 09:18:25	종료 캐릭=관우 계정=minwok2824 IP=1.242.212.205
2016-09-30 09:30:08	종료 캐릭=메티스 계정=xotqj11 IP=121.164.6.165
2016-09-30 09:30:40	접속 캐릭=메티스	계정=xotqj11	IP=121.164.6.165
2016-09-30 09:47:08	종료 캐릭=메티스 계정=xotqj11 IP=121.164.6.165
2016-09-30 09:47:13	접속 캐릭=메티스	계정=xotqj11	IP=121.164.6.165
2016-09-30 09:54:11	종료 캐릭=메티스 계정=xotqj11 IP=121.164.6.165
2016-09-30 09:54:35	접속 캐릭=메티스	계정=xotqj11	IP=121.164.6.165
2016-09-30 09:57:06	접속 캐릭=경험치	계정=thsekaql123	IP=218.236.45.215
2016-09-30 10:00:38	종료 캐릭=메티스 계정=xotqj11 IP=121.164.6.165
2016-09-30 10:01:07	접속 캐릭=메티스	계정=xotqj11	IP=121.164.6.165
2016-09-30 10:07:17	접속 캐릭=낭만	계정=shs544	IP=192.168.0.1
2016-09-30 10:08:45	종료 캐릭=메티스 계정=xotqj11 IP=121.164.6.165
2016-09-30 10:09:16	접속 캐릭=메티스	계정=xotqj11	IP=121.164.6.165
2016-09-30 10:10:16	종료 캐릭=낭만 계정=shs544 IP=192.168.0.1
2016-09-30 10:11:38	접속 캐릭=미소피아	계정=shs544	IP=192.168.0.1
2016-09-30 10:11:48	종료 캐릭=메티스 계정=xotqj11 IP=121.164.6.165
2016-09-30 10:12:13	접속 캐릭=즐	계정=xotqj11	IP=121.164.6.165
2016-09-30 10:12:16	종료 캐릭=즐 계정=xotqj11 IP=121.164.6.165
2016-09-30 10:12:38	접속 캐릭=즐	계정=xotqj11	IP=121.164.6.165
2016-09-30 10:15:54	종료 캐릭=즐 계정=xotqj11 IP=121.164.6.165
2016-09-30 10:16:02	접속 캐릭=메티스	계정=xotqj11	IP=121.164.6.165
2016-09-30 10:16:42	종료 캐릭=경험치 계정=thsekaql123 IP=218.236.45.215
2016-09-30 10:18:21	종료 캐릭=미소피아 계정=shs544 IP=192.168.0.1
2016-09-30 10:18:21	종료 캐릭=메티스 계정=xotqj11 IP=121.164.6.165
2016-09-30 10:18:25	접속 캐릭=미소피아	계정=shs544	IP=192.168.0.1
2016-09-30 10:18:26	접속 캐릭=메티스	계정=xotqj11	IP=121.164.6.165
2016-09-30 10:21:49	종료 캐릭=메티스 계정=xotqj11 IP=121.164.6.165
2016-09-30 10:21:53	접속 캐릭=메티스	계정=xotqj11	IP=121.164.6.165
2016-09-30 10:25:47	종료 캐릭=메티스 계정=xotqj11 IP=121.164.6.165
2016-09-30 10:30:19	종료 캐릭=미소피아 계정=shs544 IP=192.168.0.1
2016-09-30 10:31:26	접속 캐릭=미소피아	계정=shs544	IP=192.168.0.1
2016-09-30 10:32:06	접속 캐릭=메티스	계정=xotqj11	IP=121.164.6.165
2016-09-30 10:49:12	종료 캐릭=미소피아 계정=shs544 IP=192.168.0.1
2016-09-30 10:50:30	접속 캐릭=미소피아	계정=shs544	IP=192.168.0.1
2016-09-30 10:54:03	종료 캐릭=메티스 계정=xotqj11 IP=121.164.6.165
2016-09-30 10:54:22	종료 캐릭=미소피아 계정=shs544 IP=192.168.0.1
2016-09-30 10:56:53	접속 캐릭=미소피아	계정=shs544	IP=192.168.0.1
2016-09-30 11:02:56	종료 캐릭=미소피아 계정=shs544 IP=192.168.0.1
2016-09-30 11:03:23	접속 캐릭=메티스	계정=xotqj11	IP=192.168.0.1
2016-09-30 12:47:54	접속 캐릭=헤라클레스	계정=kswon1029	IP=220.124.72.146
2016-09-30 13:14:08	종료 캐릭=헤라클레스 계정=kswon1029 IP=220.124.72.146
2016-09-30 13:14:13	접속 캐릭=헤라클레스	계정=kswon1029	IP=220.124.72.146
2016-09-30 13:22:22	종료 캐릭=헤라클레스 계정=kswon1029 IP=220.124.72.146
2016-09-30 13:24:10	접속 캐릭=헤라클레스	계정=kswon1029	IP=220.124.72.146
2016-09-30 13:27:52	종료 캐릭=헤라클레스 계정=kswon1029 IP=220.124.72.146
2016-09-30 16:38:52	접속 캐릭=꼬미	계정=kokoa1	IP=58.236.41.26
2016-09-30 16:55:58	종료 캐릭=꼬미 계정=kokoa1 IP=58.236.41.26
2016-09-30 18:05:57	접속 캐릭=손담비비	계정=xotjq11	IP=121.164.6.165
2016-09-30 18:07:40	종료 캐릭=손담비비 계정=xotjq11 IP=121.164.6.165
2016-09-30 18:54:51	접속 캐릭=소유	계정=hoan27	IP=61.40.201.60
2016-09-30 19:03:49	접속 캐릭=테르	계정=wjsdlf	IP=121.147.218.65
2016-09-30 19:04:44	종료 캐릭=소유 계정=hoan27 IP=61.40.201.60
2016-09-30 19:05:41	접속 캐릭=소유	계정=hoan27	IP=61.40.201.60
2016-09-30 19:06:16	접속 캐릭=솔	계정=hyun123	IP=180.70.51.243
2016-09-30 19:10:19	접속 캐릭=헤라클레스	계정=kswon1029	IP=220.124.72.146
2016-09-30 19:11:38	종료 캐릭=소유 계정=hoan27 IP=61.40.201.60
2016-09-30 19:11:43	접속 캐릭=소유	계정=hoan27	IP=61.40.201.60
2016-09-30 19:19:04	종료 캐릭=헤라클레스 계정=kswon1029 IP=220.124.72.146
2016-09-30 19:26:38	종료 캐릭=소유 계정=hoan27 IP=61.40.201.60
2016-09-30 19:27:29	접속 캐릭=소유	계정=hoan27	IP=61.40.201.60
2016-09-30 19:40:20	종료 캐릭=솔 계정=hyun123 IP=180.70.51.243
2016-09-30 19:41:12	접속 캐릭=솔	계정=hyun123	IP=180.70.51.243
2016-09-30 19:41:24	종료 캐릭=소유 계정=hoan27 IP=61.40.201.60
2016-09-30 19:41:29	접속 캐릭=소유	계정=hoan27	IP=61.40.201.60
2016-09-30 19:48:34	종료 캐릭=테르 계정=wjsdlf IP=121.147.218.65
2016-09-30 19:48:38	접속 캐릭=테르	계정=wjsdlf	IP=121.147.218.65
2016-09-30 19:48:57	종료 캐릭=테르 계정=wjsdlf IP=121.147.218.65
2016-09-30 19:49:05	접속 캐릭=테르	계정=wjsdlf	IP=121.147.218.65
2016-09-30 19:49:20	종료 캐릭=테르 계정=wjsdlf IP=121.147.218.65
2016-09-30 19:49:25	접속 캐릭=테르	계정=wjsdlf	IP=121.147.218.65
2016-09-30 19:50:45	종료 캐릭=솔 계정=hyun123 IP=180.70.51.243
2016-09-30 19:51:29	접속 캐릭=솔	계정=hyun123	IP=180.70.51.243
2016-09-30 19:52:48	종료 캐릭=테르 계정=wjsdlf IP=121.147.218.65
2016-09-30 19:52:51	접속 캐릭=꼬미	계정=kokoa1	IP=58.236.41.26
2016-09-30 19:53:00	접속 캐릭=테르	계정=wjsdlf	IP=121.147.218.65
2016-09-30 20:04:19	종료 캐릭=꼬미 계정=kokoa1 IP=58.236.41.26
2016-09-30 20:05:26	접속 캐릭=꼬미	계정=kokoa1	IP=58.236.41.26
2016-09-30 20:06:21	종료 캐릭=꼬미 계정=kokoa1 IP=58.236.41.26
2016-09-30 20:06:36	접속 캐릭=꼬꼬마	계정=rhal11	IP=58.236.41.26
2016-09-30 20:07:31	종료 캐릭=꼬꼬마 계정=rhal11 IP=58.236.41.26
2016-09-30 20:07:33	접속 캐릭=유나	계정=rhal11	IP=58.236.41.26
2016-09-30 20:08:15	종료 캐릭=유나 계정=rhal11 IP=58.236.41.26
2016-09-30 20:08:46	접속 캐릭=꼬미	계정=kokoa1	IP=58.236.41.26
2016-09-30 20:29:22	접속 캐릭=관우	계정=minwok2824	IP=1.242.212.205
2016-09-30 20:35:32	종료 캐릭=솔 계정=hyun123 IP=180.70.51.243
2016-09-30 20:36:11	접속 캐릭=솔	계정=hyun123	IP=180.70.51.243
2016-09-30 20:47:32	종료 캐릭=솔 계정=hyun123 IP=180.70.51.243
2016-09-30 20:49:43	종료 캐릭=테르 계정=wjsdlf IP=121.147.218.65
2016-09-30 20:50:06	접속 캐릭=테르	계정=wjsdlf	IP=121.147.218.65
2016-09-30 20:50:11	종료 캐릭=테르 계정=wjsdlf IP=121.147.218.65
2016-09-30 20:50:15	접속 캐릭=테르	계정=wjsdlf	IP=121.147.218.65
2016-09-30 21:11:11	접속 캐릭=포세이든	계정=dlwowls4455	IP=61.85.98.140
2016-09-30 21:19:31	종료 캐릭=메티스 계정=xotqj11 IP=192.168.0.1
2016-09-30 21:19:35	접속 캐릭=메티스	계정=xotqj11	IP=192.168.0.1
2016-09-30 21:21:53	접속 캐릭=경험치케릭	계정=aprdlek123	IP=218.236.45.215
2016-09-30 21:26:29	종료 캐릭=소유 계정=hoan27 IP=61.40.201.60
2016-09-30 21:27:18	접속 캐릭=소유	계정=hoan27	IP=61.40.201.60
2016-09-30 21:28:13	종료 캐릭=포세이든 계정=dlwowls4455 IP=61.85.98.140
2016-09-30 21:28:44	접속 캐릭=포세이든	계정=dlwowls4455	IP=61.85.98.140
2016-09-30 21:29:42	종료 캐릭=관우 계정=minwok2824 IP=1.242.212.205
2016-09-30 21:30:06	접속 캐릭=관우	계정=minwok2824	IP=1.242.212.205
2016-09-30 21:31:45	종료 캐릭=포세이든 계정=dlwowls4455 IP=61.85.98.140
2016-09-30 21:32:07	접속 캐릭=포세이든	계정=dlwowls4455	IP=61.85.98.140
2016-09-30 21:39:05	접속 캐릭=봄	계정=tydtyd2	IP=1.176.33.3
2016-09-30 21:43:06	종료 캐릭=테르 계정=wjsdlf IP=121.147.218.65
2016-09-30 21:43:50	접속 캐릭=테르	계정=wjsdlf	IP=121.147.218.65
2016-09-30 21:47:23	종료 캐릭=꼬미 계정=kokoa1 IP=58.236.41.26
2016-09-30 21:47:48	접속 캐릭=꼬요정	계정=kokoa1	IP=58.236.41.26
2016-09-30 21:50:21	종료 캐릭=경험치케릭 계정=aprdlek123 IP=218.236.45.215
2016-09-30 21:58:07	종료 캐릭=테르 계정=wjsdlf IP=121.147.218.65
2016-09-30 21:58:34	접속 캐릭=테르	계정=wjsdlf	IP=121.147.218.65
2016-09-30 22:07:31	종료 캐릭=소유 계정=hoan27 IP=61.40.201.60
2016-09-30 22:07:36	접속 캐릭=소유	계정=hoan27	IP=61.40.201.60
2016-09-30 22:08:31	종료 캐릭=테르 계정=wjsdlf IP=121.147.218.65
2016-09-30 22:09:06	접속 캐릭=테르	계정=wjsdlf	IP=121.147.218.65
2016-09-30 22:10:53	접속 캐릭=헤라클레스	계정=kswon1029	IP=220.124.72.146
2016-09-30 22:16:16	종료 캐릭=꼬요정 계정=kokoa1 IP=58.236.41.26
2016-09-30 22:16:26	접속 캐릭=꼬요정	계정=kokoa1	IP=58.236.41.26
2016-09-30 22:17:21	종료 캐릭=메티스 계정=xotqj11 IP=192.168.0.1
2016-09-30 22:17:29	종료 캐릭=헤라클레스 계정=kswon1029 IP=220.124.72.146
2016-09-30 22:17:48	접속 캐릭=기사	계정=kswon1029	IP=220.124.72.146
2016-09-30 22:18:09	접속 캐릭=메티스	계정=xotqj11	IP=192.168.0.1
2016-09-30 22:20:05	종료 캐릭=기사 계정=kswon1029 IP=220.124.72.146
2016-09-30 22:20:07	접속 캐릭=헤라클레스	계정=kswon1029	IP=220.124.72.146
2016-09-30 22:27:17	종료 캐릭=테르 계정=wjsdlf IP=121.147.218.65
2016-09-30 22:27:48	접속 캐릭=테르	계정=wjsdlf	IP=121.147.218.65
2016-09-30 22:27:52	종료 캐릭=테르 계정=wjsdlf IP=121.147.218.65
2016-09-30 22:28:19	접속 캐릭=테르	계정=wjsdlf	IP=121.147.218.65
2016-09-30 22:29:01	종료 캐릭=헤라클레스 계정=kswon1029 IP=220.124.72.146
2016-09-30 22:35:53	접속 캐릭=나다경험치	계정=aordkej123	IP=218.236.45.215
2016-09-30 22:36:51	종료 캐릭=나다경험치 계정=aordkej123 IP=218.236.45.215
2016-09-30 22:37:22	접속 캐릭=경험치	계정=thsekaql123	IP=218.236.45.215
2016-09-30 22:51:20	종료 캐릭=봄 계정=tydtyd2 IP=1.176.33.3
2016-09-30 22:54:28	종료 캐릭=메티스 계정=xotqj11 IP=192.168.0.1
2016-09-30 22:57:21	접속 캐릭=테르	계정=wjsdlf	IP=121.147.218.65
2016-09-30 22:57:45	접속 캐릭=포세이든	계정=dlwowls4455	IP=61.85.98.140
2016-09-30 23:00:03	접속 캐릭=소유	계정=hoan27	IP=61.40.201.60
2016-09-30 23:00:44	접속 캐릭=메티스	계정=xotqj11	IP=192.168.0.1
2016-09-30 23:03:26	접속 캐릭=미소피아	계정=shs544	IP=218.148.171.173
2016-09-30 23:03:46	종료 캐릭=포세이든 계정=dlwowls4455 IP=61.85.98.140
2016-09-30 23:03:52	접속 캐릭=담덕	계정=dlwowls4455	IP=61.85.98.140
2016-09-30 23:04:30	접속 캐릭=꼬요정	계정=kokoa1	IP=58.236.41.26
2016-09-30 23:04:44	종료 캐릭=담덕 계정=dlwowls4455 IP=61.85.98.140
2016-09-30 23:05:08	접속 캐릭=도끼	계정=dlwowls4455	IP=61.85.98.140
2016-09-30 23:10:43	종료 캐릭=꼬요정 계정=kokoa1 IP=58.236.41.26
2016-09-30 23:16:40	접속 캐릭=꼬요정	계정=kokoa1	IP=58.236.41.26
2016-09-30 23:21:22	접속 캐릭=군주	계정=wjsdlf1	IP=121.147.218.65
2016-09-30 23:29:56	종료 캐릭=꼬요정 계정=kokoa1 IP=58.236.41.26
2016-09-30 23:29:59	접속 캐릭=쮸	계정=kokoa1	IP=58.236.41.26
2016-09-30 23:31:42	종료 캐릭=군주 계정=wjsdlf1 IP=121.147.218.65
2016-09-30 23:31:47	접속 캐릭=군주	계정=wjsdlf1	IP=121.147.218.65
2016-09-30 23:40:14	종료 캐릭=쮸 계정=kokoa1 IP=58.236.41.26
2016-09-30 23:40:17	접속 캐릭=꼬요정	계정=kokoa1	IP=58.236.41.26
2016-09-30 23:45:02	접속 캐릭=경험치	계정=thsekaql123	IP=218.236.45.215
2016-09-30 23:45:26	종료 캐릭=군주 계정=wjsdlf1 IP=121.147.218.65
2016-09-30 23:50:44	종료 캐릭=꼬요정 계정=kokoa1 IP=58.236.41.26
2016-09-30 23:51:22	접속 캐릭=미	계정=kokoa1	IP=58.236.41.26
