2016-12-06 00:59:29	접속 캐릭=토스	계정=matis	IP=175.205.201.101
2016-12-06 01:08:11	접속 캐릭=토스	계정=matis	IP=175.205.201.101
2016-12-06 01:10:36	종료 캐릭=토스 계정=matis IP=175.205.201.101
2016-12-06 01:14:53	접속 캐릭=토스	계정=matis	IP=175.205.201.101
2016-12-06 01:15:34	종료 캐릭=토스 계정=matis IP=175.205.201.101
2016-12-06 01:26:21	접속 캐릭=토스	계정=matis	IP=175.205.201.101
2016-12-06 01:30:22	종료 캐릭=토스 계정=matis IP=175.205.201.101
2016-12-06 01:30:52	접속 캐릭=토스	계정=matis	IP=175.205.201.101
2016-12-06 01:33:50	접속 캐릭=토스	계정=matis	IP=175.205.201.101
2016-12-06 01:34:44	종료 캐릭=토스 계정=matis IP=175.205.201.101
2016-12-06 01:38:48	접속 캐릭=토스	계정=matis	IP=175.205.201.101
2016-12-06 01:43:33	접속 캐릭=토스	계정=matis	IP=175.205.201.101
2016-12-06 01:55:49	접속 캐릭=토스	계정=matis	IP=175.205.201.101
2016-12-06 01:57:38	접속 캐릭=토스	계정=matis	IP=175.205.201.101
2016-12-06 02:01:18	접속 캐릭=토스	계정=matis	IP=175.205.201.101
2016-12-06 02:47:47	접속 캐릭=토스	계정=matis	IP=175.205.201.101
2016-12-06 02:48:38	종료 캐릭=토스 계정=matis IP=175.205.201.101
2016-12-06 02:48:42	접속 캐릭=토스	계정=matis	IP=175.205.201.101
2016-12-06 02:49:08	종료 캐릭=토스 계정=matis IP=175.205.201.101
2016-12-06 02:49:13	접속 캐릭=토스	계정=matis	IP=175.205.201.101
2016-12-06 02:49:25	종료 캐릭=토스 계정=matis IP=175.205.201.101
2016-12-06 02:53:03	접속 캐릭=토스	계정=matis	IP=175.205.201.101
2016-12-06 03:03:08	접속 캐릭=토스	계정=matis	IP=175.205.201.101
2016-12-06 03:05:24	종료 캐릭=토스 계정=matis IP=175.205.201.101
2016-12-06 03:05:28	접속 캐릭=토스	계정=matis	IP=175.205.201.101
2016-12-06 03:12:44	접속 캐릭=토스	계정=matis	IP=175.205.201.101
2016-12-06 03:16:40	접속 캐릭=토스	계정=matis	IP=175.205.201.101
2016-12-06 04:13:00	접속 캐릭=토스	계정=matis	IP=175.205.201.101
2016-12-06 04:21:46	접속 캐릭=토스	계정=matis	IP=175.205.201.101
2016-12-06 04:39:02	접속 캐릭=토스	계정=matis	IP=175.205.201.101
2016-12-06 04:42:33	종료 캐릭=토스 계정=matis IP=175.205.201.101
2016-12-06 04:43:02	접속 캐릭=토스	계정=matis	IP=175.205.201.101
2016-12-06 04:53:25	접속 캐릭=토스	계정=matis	IP=175.205.201.101
2016-12-06 19:16:57	접속 캐릭=토스	계정=matis	IP=127.0.0.1
2016-12-06 19:19:02	접속 캐릭=토스	계정=matis	IP=127.0.0.1
2016-12-06 20:56:57	접속 캐릭=토스	계정=matis	IP=127.0.0.1
2016-12-06 20:59:23	접속 캐릭=토스	계정=matis	IP=127.0.0.1
2016-12-06 21:08:10	접속 캐릭=토스	계정=matis	IP=127.0.0.1
2016-12-06 21:14:32	접속 캐릭=토스	계정=matis	IP=127.0.0.1
2016-12-06 22:31:59	접속 캐릭=토스	계정=matis	IP=127.0.0.1
2016-12-06 22:35:51	접속 캐릭=토스	계정=matis	IP=127.0.0.1
2016-12-06 22:36:17	종료 캐릭=토스 계정=matis IP=127.0.0.1
2016-12-06 22:39:37	접속 캐릭=토스	계정=matis	IP=127.0.0.1
2016-12-06 23:23:38	접속 캐릭=토스	계정=matis	IP=127.0.0.1
2016-12-06 23:29:00	접속 캐릭=토스	계정=matis	IP=127.0.0.1
2016-12-06 23:35:14	접속 캐릭=토스	계정=matis	IP=127.0.0.1
2016-12-06 23:39:05	접속 캐릭=토스	계정=matis	IP=127.0.0.1
2016-12-06 23:42:26	접속 캐릭=토스	계정=matis	IP=127.0.0.1
2016-12-06 23:57:13	접속 캐릭=토스	계정=matis	IP=127.0.0.1
2016-12-06 23:58:28	종료 캐릭=토스 계정=matis IP=127.0.0.1
